PCBNEW-LibModule-V1  13/02/2014 23:47:08
# encoding utf-8
Units mm
$INDEX
127_2x1
127_3x1
127_6x1
$EndINDEX
$MODULE 127_2x1
Po 0 0 0 15 52FD4B60 00000000 ~~
Li 127_2x1
Sc 0
AR 
Op 0 0 0
T0 0 3.81 1 1 0 0.15 N V 21 N "127_2x1"
T1 6.35 3.81 1 1 0 0.15 N V 21 N "VAL**"
DS -1.27 0.635 1.27 0.635 0.15 21
DS -1.27 -0.635 1.27 -0.635 0.15 21
DS 1.27 -0.635 1.27 0.635 0.15 21
DS 0 -0.635 0 0.635 0.15 21
DS -1.27 0.635 -1.27 -0.635 0.15 21
$PAD
Sh "1" C 0.8 0.8 0 0 0
Dr 0.5 0 0
At STD N 00E0FFFF
Ne 0 ""
Po -0.635 0
$EndPAD
$PAD
Sh "2" C 0.8 0.8 0 0 0
Dr 0.5 0 0
At STD N 00E0FFFF
Ne 0 ""
Po 0.635 0
$EndPAD
$EndMODULE 127_2x1
$MODULE 127_3x1
Po 0 0 0 15 52FD4AE0 00000000 ~~
Li 127_3x1
Sc 0
AR 
Op 0 0 0
T0 0 3.81 1 1 0 0.15 N V 21 N "127_3x1"
T1 6.35 3.81 1 1 0 0.15 N V 21 N "VAL**"
DS -1.905 0.635 1.905 0.635 0.15 21
DS -1.905 -0.635 1.905 -0.635 0.15 21
DS 1.905 -0.635 1.905 0.635 0.15 21
DS -0.635 -0.635 -0.635 0.635 0.15 21
DS -1.905 0.635 -1.905 -0.635 0.15 21
$PAD
Sh "1" C 0.8 0.8 0 0 0
Dr 0.5 0 0
At STD N 00E0FFFF
Ne 0 ""
Po -1.27 0
$EndPAD
$PAD
Sh "2" C 0.8 0.8 0 0 0
Dr 0.5 0 0
At STD N 00E0FFFF
Ne 0 ""
Po 0 0
$EndPAD
$PAD
Sh "3" C 0.8 0.8 0 0 0
Dr 0.5 0 0
At STD N 00E0FFFF
Ne 0 ""
Po 1.27 0
$EndPAD
$EndMODULE 127_3x1
$MODULE 127_6x1
Po 0 0 0 15 52EB6552 00000000 ~~
Li 127_6x1
Sc 0
AR 
Op 0 0 0
T0 0 3.81 1 1 0 0.15 N V 21 N "127_6x1"
T1 6.35 3.81 1 1 0 0.15 N V 21 N "VAL**"
DS -2.54 -0.635 -2.54 0.635 0.15 21
DS -3.81 -0.635 3.81 -0.635 0.15 21
DS 3.81 -0.635 3.81 0.635 0.15 21
DS 3.81 0.635 -3.81 0.635 0.15 21
DS -3.81 0.635 -3.81 -0.635 0.15 21
$PAD
Sh "1" C 0.8 0.8 0 0 0
Dr 0.5 0 0
At STD N 00E0FFFF
Ne 0 ""
Po -3.175 0
$EndPAD
$PAD
Sh "2" C 0.8 0.8 0 0 0
Dr 0.5 0 0
At STD N 00E0FFFF
Ne 0 ""
Po -1.905 0
$EndPAD
$PAD
Sh "3" C 0.8 0.8 0 0 0
Dr 0.5 0 0
At STD N 00E0FFFF
Ne 0 ""
Po -0.635 0
$EndPAD
$PAD
Sh "4" C 0.8 0.8 0 0 0
Dr 0.5 0 0
At STD N 00E0FFFF
Ne 0 ""
Po 0.635 0
$EndPAD
$PAD
Sh "5" C 0.8 0.8 0 0 0
Dr 0.5 0 0
At STD N 00E0FFFF
Ne 0 ""
Po 1.905 0
$EndPAD
$PAD
Sh "6" C 0.8 0.8 0 0 0
Dr 0.5 0 0
At STD N 00E0FFFF
Ne 0 ""
Po 3.175 0
$EndPAD
$EndMODULE 127_6x1
$EndLIBRARY
