PCBNEW-LibModule-V1  06/12/2013 13:32:51
# encoding utf-8
Units mm
$INDEX
1575AT43A0040_GPS_ANT
1mm_no_copper
Border_Antenna
MAX-7
$EndINDEX
$MODULE 1575AT43A0040_GPS_ANT
Po 0 0 0 15 529FB87C 00000000 ~~
Li 1575AT43A0040_GPS_ANT
Sc 0
AR 
Op 0 0 0
T0 0 -2.5 1 1 0 0.15 N V 21 N "1575AT43A0040_GPS_ANT"
T1 0 2.5 1 1 0 0.15 N V 21 N "VAL**"
DS -3.5 -1 3.5 -1 0.15 21
DS 3.5 -1 3.5 1 0.15 21
DS 3.5 1 -3.5 1 0.15 21
DS -3.5 1 -3.5 -1 0.15 21
$PAD
Sh "1" R 1 2 0 0 0
Dr 0 0 0
At SMD N 00888000
Ne 0 ""
Po -3.5 0
$EndPAD
$PAD
Sh "2" R 1 2 0 0 0
Dr 0 0 0
At SMD N 00888000
Ne 0 ""
Po 3.5 0
$EndPAD
$EndMODULE 1575AT43A0040_GPS_ANT
$MODULE 1mm_no_copper
Po 0 0 0 15 52A1C3D3 00000000 ~~
Li 1mm_no_copper
Sc 0
AR 
Op 0 0 0
T0 0 -2.54 1 1 0 0.15 N V 21 N "1mm_no_copper"
T1 0 3.175 1 1 0 0.15 N V 21 N "VAL**"
$PAD
Sh "" C 1 1 0 0 0
Dr 1 0 0
At HOLE N 00E0FFFF
Ne 0 ""
Po 0 0
$EndPAD
$EndMODULE 1mm_no_copper
$MODULE Border_Antenna
Po 0 0 0 15 529E2F27 00000000 ~~
Li Border_Antenna
Sc 0
AR 
Op 0 0 0
T0 14 -7.4 1 1 0 0.15 N V 21 N "Border_Antenna"
T1 15.4 -4.2 1 1 0 0.15 N V 21 N "VAL**"
$PAD
Sh "2" R 3 1 0 0 0
Dr 0 0 0
At SMD N 00888000
Ne 0 ""
Po 0 0
$EndPAD
$PAD
Sh "1" R 4 1 0 0 0
Dr 0 0 0
At SMD N 00888000
Ne 0 ""
Po 0.5 -1.6
$EndPAD
$PAD
Sh "1" R 4 1 0 0 0
Dr 0 0 0
At SMD N 00888000
Ne 0 ""
Po 0.5 1.6
$EndPAD
$EndMODULE Border_Antenna
$MODULE MAX-7
Po 0 0 0 15 5293ADB1 00000000 ~~
Li MAX-7
Sc 0
AR 
Op 0 0 0
T0 0 -6.15 1 1 0 0.15 N V 21 N "MAX-7"
T1 0 6.8 1 1 0 0.15 N V 21 N "U**"
DS -4.85 -5.05 4.85 -5.05 0.15 21
DS 4.85 -5.05 4.85 5.05 0.15 21
DS 4.85 5.05 -4.85 5.05 0.15 21
DS -4.85 5.05 -4.85 -5.05 0.15 21
$PAD
Sh "1" R 1.4 0.8 0 0 0
Dr 0 0 0
At SMD N 00888000
Ne 0 ""
Po 4.35 4.4
$EndPAD
$PAD
Sh "2" R 1.4 0.8 0 0 0
Dr 0 0 0
At SMD N 00888000
Ne 0 ""
Po 4.35 3.3
$EndPAD
$PAD
Sh "3" R 1.4 0.8 0 0 0
Dr 0 0 0
At SMD N 00888000
Ne 0 ""
Po 4.35 2.2
$EndPAD
$PAD
Sh "4" R 1.4 0.8 0 0 0
Dr 0 0 0
At SMD N 00888000
Ne 0 ""
Po 4.35 1.1
$EndPAD
$PAD
Sh "5" R 1.4 0.8 0 0 0
Dr 0 0 0
At SMD N 00888000
Ne 0 ""
Po 4.35 0
$EndPAD
$PAD
Sh "6" R 1.4 0.8 0 0 0
Dr 0 0 0
At SMD N 00888000
Ne 0 ""
Po 4.35 -1.1
$EndPAD
$PAD
Sh "7" R 1.4 0.8 0 0 0
Dr 0 0 0
At SMD N 00888000
Ne 0 ""
Po 4.35 -2.2
$EndPAD
$PAD
Sh "8" R 1.4 0.8 0 0 0
Dr 0 0 0
At SMD N 00888000
Ne 0 ""
Po 4.35 -3.3
$EndPAD
$PAD
Sh "9" R 1.4 0.8 0 0 0
Dr 0 0 0
At SMD N 00888000
Ne 0 ""
Po 4.35 -4.4
$EndPAD
$PAD
Sh "10" R 1.4 0.8 0 0 0
Dr 0 0 0
At SMD N 00888000
Ne 0 ""
Po -4.35 -4.4
$EndPAD
$PAD
Sh "11" R 1.4 0.8 0 0 0
Dr 0 0 0
At SMD N 00888000
Ne 0 ""
Po -4.35 -3.3
$EndPAD
$PAD
Sh "12" R 1.4 0.8 0 0 0
Dr 0 0 0
At SMD N 00888000
Ne 0 ""
Po -4.35 -2.2
$EndPAD
$PAD
Sh "13" R 1.4 0.8 0 0 0
Dr 0 0 0
At SMD N 00888000
Ne 0 ""
Po -4.35 -1.1
$EndPAD
$PAD
Sh "14" R 1.4 0.8 0 0 0
Dr 0 0 0
At SMD N 00888000
Ne 0 ""
Po -4.35 0
$EndPAD
$PAD
Sh "15" R 1.4 0.8 0 0 0
Dr 0 0 0
At SMD N 00888000
Ne 0 ""
Po -4.35 1.1
$EndPAD
$PAD
Sh "16" R 1.4 0.8 0 0 0
Dr 0 0 0
At SMD N 00888000
Ne 0 ""
Po -4.35 2.2
$EndPAD
$PAD
Sh "17" R 1.4 0.8 0 0 0
Dr 0 0 0
At SMD N 00888000
Ne 0 ""
Po -4.35 3.3
$EndPAD
$PAD
Sh "18" R 1.4 0.8 0 0 0
Dr 0 0 0
At SMD N 00888000
Ne 0 ""
Po -4.35 4.4
$EndPAD
$EndMODULE MAX-7
$EndLIBRARY
