PCBNEW-LibModule-V1  03/12/2013 17:45:51
# encoding utf-8
Units mm
$INDEX
DO-214AA
SOD-123
$EndINDEX
$MODULE DO-214AA
Po 0 0 0 15 51F6501F 00000000 ~~
Li DO-214AA
Sc 0
AR 
Op 0 0 0
T0 0 -4.5 1.524 1.524 0 0.3048 N V 21 N "DO-214AA"
T1 0 4 1.524 1.524 0 0.3048 N V 21 N "VAL**"
DS -1.5 2 1.5 2 0.381 21
DS -1.5 -2 1 -2 0.381 21
DS 1 -2 1.5 -2 0.381 21
DS -0.5 0 -1 0 0.381 21
DS 0.5 0 1 0 0.381 21
DS 0.5 -1 0.5 1 0.381 21
DS -0.5 -1 -0.5 1 0.381 21
DS -0.5 1 0.5 0 0.381 21
DS 0.5 0 -0.5 -1 0.381 21
$PAD
Sh "2" R 2 2.5 0 0 0
Dr 0 0 0
At SMD N 00888000
Ne 0 ""
Po 2.1 0
$EndPAD
$PAD
Sh "1" R 2 2.5 0 0 0
Dr 0 0 0
At SMD N 00888000
Ne 0 ""
Po -2.1 0
$EndPAD
$EndMODULE DO-214AA
$MODULE SOD-123
Po 0 0 0 15 529E0AB9 00000000 ~~
Li SOD-123
Sc 0
AR 
Op 0 0 0
T0 0 -2 1 1 0 0.15 N V 21 N "SOD-123"
T1 0 2.5 1 1 0 0.15 N V 21 N "VAL**"
DS 0.5 -1 0.5 1 0.15 21
DS -1.5 1 1 1 0.15 21
DS -1.5 -1 1 -1 0.15 21
$PAD
Sh "1" R 1 1.25 0 0 0
Dr 0 0 0
At SMD N 00888000
Ne 0 ""
Po -1.635 0
$EndPAD
$PAD
Sh "2" R 1 1.25 0 0 0
Dr 0 0 0
At SMD N 00888000
Ne 0 ""
Po 1.635 0
$EndPAD
$EndMODULE SOD-123
$EndLIBRARY
