PCBNEW-LibModule-V1  24/11/2013 22:47:11
# encoding utf-8
Units mm
$INDEX
TSOT23-8
$EndINDEX
$MODULE TSOT23-8
Po 0 0 0 15 529273D1 00000000 ~~
Li TSOT23-8
Sc 0
AR 
Op 0 0 0
T0 0 -3.556 1 1 0 0.15 N V 21 N "TSOT23-8"
T1 5.08 0 1 1 0 0.15 N V 21 N "VAL**"
DS -1.778 -1.27 1.778 -1.27 0.15 21
DS 1.778 -1.27 1.778 1.27 0.15 21
DS 1.778 1.27 -1.778 1.27 0.15 21
DS -1.778 1.27 -1.778 -1.27 0.15 21
$PAD
Sh "1" R 0.3 1.2 0 0 0
Dr 0 0 0
At SMD N 00888000
Ne 0 ""
Po -0.975 1.3
$EndPAD
$PAD
Sh "2" R 0.3 1.2 0 0 0
Dr 0 0 0
At SMD N 00888000
Ne 0 ""
Po -0.325 1.3
$EndPAD
$PAD
Sh "3" R 0.3 1.2 0 0 0
Dr 0 0 0
At SMD N 00888000
Ne 0 ""
Po 0.325 1.3
$EndPAD
$PAD
Sh "4" R 0.3 1.2 0 0 0
Dr 0 0 0
At SMD N 00888000
Ne 0 ""
Po 0.975 1.3
$EndPAD
$PAD
Sh "5" R 0.3 1.2 0 0 0
Dr 0 0 0
At SMD N 00888000
Ne 0 ""
Po 0.975 -1.3
$EndPAD
$PAD
Sh "6" R 0.3 1.2 0 0 0
Dr 0 0 0
At SMD N 00888000
Ne 0 ""
Po 0.325 -1.3
$EndPAD
$PAD
Sh "7" R 0.3 1.2 0 0 0
Dr 0 0 0
At SMD N 00888000
Ne 0 ""
Po -0.325 -1.3
$EndPAD
$PAD
Sh "8" R 0.3 1.2 0 0 0
Dr 0 0 0
At SMD N 00888000
Ne 0 ""
Po -0.975 -1.3
$EndPAD
$EndMODULE TSOT23-8
$EndLIBRARY
