PCBNEW-LibModule-V1  06/12/2013 14:30:59
# encoding utf-8
Units mm
$INDEX
VIA_457_254
VIA_457_254_GND
$EndINDEX
$MODULE VIA_457_254
Po 0 0 0 15 52A1D017 00000000 ~~
Li VIA_457_254
Sc 0
AR 
Op 0 0 0
T0 0 -3 1 1 0 0.15 N I 21 N "VIA_457_254"
T1 0 3.5 1 1 0 0.15 N I 21 N "VAL**"
$PAD
Sh "1" C 0.457 0.457 0 0 0
Dr 0.254 0 0
At STD N 0000FFFF
Ne 0 ""
Po 0 0
$EndPAD
$EndMODULE VIA_457_254
$MODULE VIA_457_254_GND
Po 0 0 0 15 52A1CB7C 00000000 ~~
Li VIA_457_254_GND
Sc 0
AR 
Op 0 0 0
.ZoneConnection 2
T0 0 -3 1 1 0 0.15 N I 21 N "VIA_457_254"
T1 0 3.5 1 1 0 0.15 N I 21 N "VAL**"
$PAD
Sh "1" C 0.457 0.457 0 0 0
Dr 0.254 0 0
At STD N 0000FFFF
Ne 1 "GND"
Po 0 0
.ZoneConnection 2
$EndPAD
$EndMODULE VIA_457_254_GND
$EndLIBRARY
