EESchema Schematic File Version 2
LIBS:power
LIBS:device
LIBS:transistors
LIBS:conn
LIBS:linear
LIBS:regul
LIBS:74xx
LIBS:cmos4000
LIBS:adc-dac
LIBS:memory
LIBS:xilinx
LIBS:special
LIBS:microcontrollers
LIBS:dsp
LIBS:microchip
LIBS:analog_switches
LIBS:motorola
LIBS:texas
LIBS:intel
LIBS:audio
LIBS:interface
LIBS:digital-audio
LIBS:philips
LIBS:display
LIBS:cypress
LIBS:siliconi
LIBS:opto
LIBS:atmel
LIBS:contrib
LIBS:valves
LIBS:Silabs_transceivers
LIBS:dspic33epxxxgm304
LIBS:power_symbols
LIBS:dcdc
LIBS:oscillators
LIBS:EFM32
LIBS:ublox
LIBS:antenna
LIBS:DSPIC33EPxxxGP806
LIBS:tag_connect
LIBS:misc
LIBS:balloon_radio-cache
EELAYER 27 0
EELAYER END
$Descr A4 11693 8268
encoding utf-8
Sheet 1 2
Title ""
Date "17 apr 2014"
Rev ""
Comp ""
Comment1 ""
Comment2 ""
Comment3 ""
Comment4 ""
$EndDescr
$Comp
L SI4461 U102
U 1 1 5228678B
P 5750 2500
F 0 "U102" H 5950 2900 60  0000 C CNN
F 1 "SI4461" H 6100 2250 60  0000 C CNN
F 2 "~" H 5750 2500 60  0000 C CNN
F 3 "~" H 5750 2500 60  0000 C CNN
	1    5750 2500
	1    0    0    -1  
$EndComp
$Comp
L CONN_2 P101
U 1 1 52286D89
P 750 2550
F 0 "P101" V 700 2550 40  0000 C CNN
F 1 "ANT" V 800 2550 40  0000 C CNN
F 2 "" H 750 2550 60  0001 C CNN
F 3 "" H 750 2550 60  0001 C CNN
	1    750  2550
	-1   0    0    1   
$EndComp
$Comp
L GND #PWR01
U 1 1 52286D9F
P 1200 2800
F 0 "#PWR01" H 1200 2800 30  0001 C CNN
F 1 "GND" H 1200 2730 30  0001 C CNN
F 2 "" H 1200 2800 60  0001 C CNN
F 3 "" H 1200 2800 60  0001 C CNN
	1    1200 2800
	1    0    0    -1  
$EndComp
Wire Wire Line
	1100 2650 1200 2650
Wire Wire Line
	1200 2650 1200 2800
$Comp
L C C109
U 1 1 52286DB3
P 1550 2450
F 0 "C109" H 1550 2550 40  0000 L CNN
F 1 "10n" H 1556 2365 40  0000 L CNN
F 2 "~" H 1588 2300 30  0000 C CNN
F 3 "~" H 1550 2450 60  0000 C CNN
	1    1550 2450
	0    -1   -1   0   
$EndComp
$Comp
L C C111
U 1 1 52286DC2
P 1850 2750
F 0 "C111" H 1850 2850 40  0000 L CNN
F 1 "6.8p" H 1856 2665 40  0000 L CNN
F 2 "~" H 1888 2600 30  0000 C CNN
F 3 "~" H 1850 2750 60  0000 C CNN
	1    1850 2750
	1    0    0    -1  
$EndComp
$Comp
L INDUCTOR L102
U 1 1 52286DD2
P 2250 2450
F 0 "L102" V 2200 2450 40  0000 C CNN
F 1 "18n" V 2350 2450 40  0000 C CNN
F 2 "~" H 2250 2450 60  0000 C CNN
F 3 "~" H 2250 2450 60  0000 C CNN
	1    2250 2450
	0    -1   -1   0   
$EndComp
$Comp
L C C114
U 1 1 52286DE1
P 2650 2750
F 0 "C114" H 2650 2850 40  0000 L CNN
F 1 "15p" H 2656 2665 40  0000 L CNN
F 2 "~" H 2688 2600 30  0000 C CNN
F 3 "~" H 2650 2750 60  0000 C CNN
	1    2650 2750
	1    0    0    -1  
$EndComp
$Comp
L INDUCTOR L103
U 1 1 52286DF0
P 3050 2450
F 0 "L103" V 3000 2450 40  0000 C CNN
F 1 "18n" V 3150 2450 40  0000 C CNN
F 2 "~" H 3050 2450 60  0000 C CNN
F 3 "~" H 3050 2450 60  0000 C CNN
	1    3050 2450
	0    -1   -1   0   
$EndComp
$Comp
L C C115
U 1 1 52286DFF
P 3450 2750
F 0 "C115" H 3450 2850 40  0000 L CNN
F 1 "8.2p" H 3456 2665 40  0000 L CNN
F 2 "~" H 3488 2600 30  0000 C CNN
F 3 "~" H 3450 2750 60  0000 C CNN
	1    3450 2750
	1    0    0    -1  
$EndComp
Wire Wire Line
	1100 2450 1350 2450
Wire Wire Line
	1750 2450 1950 2450
Wire Wire Line
	1850 2450 1850 2550
Connection ~ 1850 2450
Wire Wire Line
	2550 2450 2750 2450
Wire Wire Line
	2650 2450 2650 2550
Connection ~ 2650 2450
Wire Wire Line
	3350 2450 3550 2450
Wire Wire Line
	3450 800  3450 2550
$Comp
L GND #PWR02
U 1 1 52286E34
P 1850 3050
F 0 "#PWR02" H 1850 3050 30  0001 C CNN
F 1 "GND" H 1850 2980 30  0001 C CNN
F 2 "" H 1850 3050 60  0001 C CNN
F 3 "" H 1850 3050 60  0001 C CNN
	1    1850 3050
	1    0    0    -1  
$EndComp
$Comp
L GND #PWR03
U 1 1 52286E43
P 2650 3050
F 0 "#PWR03" H 2650 3050 30  0001 C CNN
F 1 "GND" H 2650 2980 30  0001 C CNN
F 2 "" H 2650 3050 60  0001 C CNN
F 3 "" H 2650 3050 60  0001 C CNN
	1    2650 3050
	1    0    0    -1  
$EndComp
$Comp
L GND #PWR04
U 1 1 52286E52
P 3450 3050
F 0 "#PWR04" H 3450 3050 30  0001 C CNN
F 1 "GND" H 3450 2980 30  0001 C CNN
F 2 "" H 3450 3050 60  0001 C CNN
F 3 "" H 3450 3050 60  0001 C CNN
	1    3450 3050
	1    0    0    -1  
$EndComp
Wire Wire Line
	3450 2950 3450 3050
Wire Wire Line
	2650 2950 2650 3050
Wire Wire Line
	1850 2950 1850 3050
$Comp
L C C116
U 1 1 52286F6F
P 3750 2450
F 0 "C116" H 3750 2550 40  0000 L CNN
F 1 "15p" H 3756 2365 40  0000 L CNN
F 2 "~" H 3788 2300 30  0000 C CNN
F 3 "~" H 3750 2450 60  0000 C CNN
	1    3750 2450
	0    -1   -1   0   
$EndComp
$Comp
L INDUCTOR L106
U 1 1 52286F7E
P 4450 2450
F 0 "L106" V 4400 2450 40  0000 C CNN
F 1 "39n" V 4550 2450 40  0000 C CNN
F 2 "~" H 4450 2450 60  0000 C CNN
F 3 "~" H 4450 2450 60  0000 C CNN
	1    4450 2450
	0    -1   -1   0   
$EndComp
Connection ~ 3450 2450
Wire Wire Line
	3950 2450 4150 2450
Wire Wire Line
	4750 2450 5400 2450
$Comp
L INDUCTOR L104
U 1 1 5228850F
P 3850 1600
F 0 "L104" V 3800 1600 40  0000 C CNN
F 1 "56n" V 3950 1600 40  0000 C CNN
F 2 "~" H 3850 1600 60  0000 C CNN
F 3 "~" H 3850 1600 60  0000 C CNN
	1    3850 1600
	0    -1   -1   0   
$EndComp
$Comp
L C C117
U 1 1 52288529
P 3850 800
F 0 "C117" H 3850 900 40  0000 L CNN
F 1 "2.7p" H 3856 715 40  0000 L CNN
F 2 "~" H 3888 650 30  0000 C CNN
F 3 "~" H 3850 800 60  0000 C CNN
	1    3850 800 
	0    -1   -1   0   
$EndComp
$Comp
L INDUCTOR L105
U 1 1 52288538
P 4250 1200
F 0 "L105" V 4200 1200 40  0000 C CNN
F 1 "56n" V 4350 1200 40  0000 C CNN
F 2 "~" H 4250 1200 60  0000 C CNN
F 3 "~" H 4250 1200 60  0000 C CNN
	1    4250 1200
	1    0    0    -1  
$EndComp
$Comp
L C C119
U 1 1 52288551
P 4350 1900
F 0 "C119" H 4350 2000 40  0000 L CNN
F 1 "5.1p" H 4356 1815 40  0000 L CNN
F 2 "~" H 4388 1750 30  0000 C CNN
F 3 "~" H 4350 1900 60  0000 C CNN
	1    4350 1900
	1    0    0    -1  
$EndComp
$Comp
L GND #PWR05
U 1 1 52288560
P 4350 2150
F 0 "#PWR05" H 4350 2150 30  0001 C CNN
F 1 "GND" H 4350 2080 30  0001 C CNN
F 2 "" H 4350 2150 60  0001 C CNN
F 3 "" H 4350 2150 60  0001 C CNN
	1    4350 2150
	1    0    0    -1  
$EndComp
Wire Wire Line
	3450 800  3650 800 
Wire Wire Line
	3550 1600 3450 1600
Connection ~ 3450 1600
Wire Wire Line
	4150 1600 5050 1600
Wire Wire Line
	5050 1600 5050 2350
Wire Wire Line
	5050 2350 5400 2350
Wire Wire Line
	4250 1500 4250 1600
Connection ~ 4250 1600
Wire Wire Line
	4350 1700 4350 1600
Connection ~ 4350 1600
Wire Wire Line
	4050 800  5250 800 
Wire Wire Line
	5250 800  5250 2400
Wire Wire Line
	5250 2400 5400 2400
Wire Wire Line
	4250 900  4250 800 
Connection ~ 4250 800 
Wire Wire Line
	4350 2100 4350 2150
$Comp
L GND #PWR06
U 1 1 5228937D
P 5500 2800
F 0 "#PWR06" H 5500 2800 30  0001 C CNN
F 1 "GND" H 5500 2730 30  0001 C CNN
F 2 "" H 5500 2800 60  0001 C CNN
F 3 "" H 5500 2800 60  0001 C CNN
	1    5500 2800
	1    0    0    -1  
$EndComp
Wire Wire Line
	5500 2750 5500 2800
$Comp
L VDD #PWR07
U 1 1 522893B5
P 800 850
F 0 "#PWR07" H 800 950 30  0001 C CNN
F 1 "VDD" H 800 960 30  0000 C CNN
F 2 "" H 800 850 60  0001 C CNN
F 3 "" H 800 850 60  0001 C CNN
	1    800  850 
	1    0    0    -1  
$EndComp
$Comp
L C C101
U 1 1 522893CA
P 800 1150
F 0 "C101" H 800 1250 40  0000 L CNN
F 1 "2.2u" H 806 1065 40  0000 L CNN
F 2 "~" H 838 1000 30  0000 C CNN
F 3 "~" H 800 1150 60  0000 C CNN
	1    800  1150
	1    0    0    -1  
$EndComp
$Comp
L C C102
U 1 1 522893D9
P 1050 1150
F 0 "C102" H 1050 1250 40  0000 L CNN
F 1 "100n" H 1056 1065 40  0000 L CNN
F 2 "~" H 1088 1000 30  0000 C CNN
F 3 "~" H 1050 1150 60  0000 C CNN
	1    1050 1150
	1    0    0    -1  
$EndComp
$Comp
L C C106
U 1 1 522893E8
P 1300 1150
F 0 "C106" H 1300 1250 40  0000 L CNN
F 1 "100p" H 1306 1065 40  0000 L CNN
F 2 "~" H 1338 1000 30  0000 C CNN
F 3 "~" H 1300 1150 60  0000 C CNN
	1    1300 1150
	1    0    0    -1  
$EndComp
$Comp
L C C108
U 1 1 522893F7
P 1550 1150
F 0 "C108" H 1550 1250 40  0000 L CNN
F 1 "33p" H 1556 1065 40  0000 L CNN
F 2 "~" H 1588 1000 30  0000 C CNN
F 3 "~" H 1550 1150 60  0000 C CNN
	1    1550 1150
	1    0    0    -1  
$EndComp
$Comp
L GND #PWR08
U 1 1 52289406
P 800 1450
F 0 "#PWR08" H 800 1450 30  0001 C CNN
F 1 "GND" H 800 1380 30  0001 C CNN
F 2 "" H 800 1450 60  0001 C CNN
F 3 "" H 800 1450 60  0001 C CNN
	1    800  1450
	1    0    0    -1  
$EndComp
Wire Wire Line
	800  850  800  950 
Wire Wire Line
	800  900  1550 900 
Wire Wire Line
	1550 900  1550 950 
Connection ~ 800  900 
Wire Wire Line
	1300 950  1300 900 
Connection ~ 1300 900 
Wire Wire Line
	1050 950  1050 900 
Connection ~ 1050 900 
Wire Wire Line
	800  1350 800  1450
Wire Wire Line
	800  1400 1550 1400
Wire Wire Line
	1550 1400 1550 1350
Connection ~ 800  1400
Wire Wire Line
	1300 1350 1300 1400
Connection ~ 1300 1400
Wire Wire Line
	1050 1350 1050 1400
Connection ~ 1050 1400
$Comp
L R R106
U 1 1 52289637
P 5350 3600
F 0 "R106" V 5430 3600 40  0000 C CNN
F 1 "4.7" V 5357 3601 40  0000 C CNN
F 2 "~" V 5280 3600 30  0000 C CNN
F 3 "~" H 5350 3600 30  0000 C CNN
	1    5350 3600
	0    -1   -1   0   
$EndComp
Wire Wire Line
	4850 3600 5100 3600
Wire Wire Line
	5600 3600 5700 3600
Wire Wire Line
	5700 2750 5700 3700
$Comp
L C C122
U 1 1 522896C0
P 5700 3900
F 0 "C122" H 5700 4000 40  0000 L CNN
F 1 "100n" H 5706 3815 40  0000 L CNN
F 2 "~" H 5738 3750 30  0000 C CNN
F 3 "~" H 5700 3900 60  0000 C CNN
	1    5700 3900
	1    0    0    -1  
$EndComp
$Comp
L GND #PWR09
U 1 1 522896CF
P 5700 4200
F 0 "#PWR09" H 5700 4200 30  0001 C CNN
F 1 "GND" H 5700 4130 30  0001 C CNN
F 2 "" H 5700 4200 60  0001 C CNN
F 3 "" H 5700 4200 60  0001 C CNN
	1    5700 4200
	1    0    0    -1  
$EndComp
Connection ~ 5700 3600
Wire Wire Line
	5700 4100 5700 4200
$Comp
L GND #PWR010
U 1 1 52289761
P 5850 1700
F 0 "#PWR010" H 5850 1700 30  0001 C CNN
F 1 "GND" H 5850 1630 30  0001 C CNN
F 2 "" H 5850 1700 60  0001 C CNN
F 3 "" H 5850 1700 60  0001 C CNN
	1    5850 1700
	1    0    0    -1  
$EndComp
Wire Wire Line
	5750 2100 5750 1650
Wire Wire Line
	5750 1650 5850 1650
Wire Wire Line
	5850 1650 5850 1700
Text GLabel 5350 2200 1    25   Input ~ 0
RF_SHUT
Wire Wire Line
	5350 2200 5350 2300
Wire Wire Line
	5350 2300 5400 2300
$Comp
L CSMALL C124
U 1 1 5252AFB1
P 7850 1500
F 0 "C124" H 7875 1550 30  0000 L CNN
F 1 "100n" H 7875 1450 30  0000 L CNN
F 2 "~" H 7850 1500 60  0000 C CNN
F 3 "~" H 7850 1500 60  0000 C CNN
	1    7850 1500
	1    0    0    -1  
$EndComp
$Comp
L CSMALL C126
U 1 1 5252AFC0
P 8550 1500
F 0 "C126" H 8575 1550 30  0000 L CNN
F 1 "N.E." H 8575 1450 30  0000 L CNN
F 2 "~" H 8550 1500 60  0000 C CNN
F 3 "~" H 8550 1500 60  0000 C CNN
	1    8550 1500
	1    0    0    -1  
$EndComp
Wire Wire Line
	7750 1250 7950 1250
Wire Wire Line
	8450 1250 9350 1250
Wire Wire Line
	8550 1400 8550 1250
Connection ~ 8550 1250
Wire Wire Line
	7850 1400 7850 1250
Connection ~ 7850 1250
$Comp
L GND #PWR011
U 1 1 5252B195
P 8550 1700
F 0 "#PWR011" H 8550 1700 30  0001 C CNN
F 1 "GND" H 8550 1630 30  0001 C CNN
F 2 "" H 8550 1700 60  0001 C CNN
F 3 "" H 8550 1700 60  0001 C CNN
	1    8550 1700
	1    0    0    -1  
$EndComp
$Comp
L GND #PWR012
U 1 1 5252B1A4
P 7850 1700
F 0 "#PWR012" H 7850 1700 30  0001 C CNN
F 1 "GND" H 7850 1630 30  0001 C CNN
F 2 "" H 7850 1700 60  0001 C CNN
F 3 "" H 7850 1700 60  0001 C CNN
	1    7850 1700
	1    0    0    -1  
$EndComp
Wire Wire Line
	7050 2850 7050 1250
Wire Wire Line
	7050 1250 7250 1250
Wire Wire Line
	7850 1600 7850 1700
Wire Wire Line
	8550 1600 8550 1700
$Comp
L CSMALL C123
U 1 1 5252B315
P 7850 2200
F 0 "C123" H 7875 2250 30  0000 L CNN
F 1 "100n" H 7875 2150 30  0000 L CNN
F 2 "~" H 7850 2200 60  0000 C CNN
F 3 "~" H 7850 2200 60  0000 C CNN
	1    7850 2200
	1    0    0    -1  
$EndComp
$Comp
L CSMALL C125
U 1 1 5252B32E
P 8550 2200
F 0 "C125" H 8575 2250 30  0000 L CNN
F 1 "N.E." H 8575 2150 30  0000 L CNN
F 2 "~" H 8550 2200 60  0000 C CNN
F 3 "~" H 8550 2200 60  0000 C CNN
	1    8550 2200
	1    0    0    -1  
$EndComp
Wire Wire Line
	7750 1950 7950 1950
Wire Wire Line
	7850 2100 7850 1950
Connection ~ 7850 1950
Wire Wire Line
	8450 1950 9350 1950
Wire Wire Line
	8550 2100 8550 1950
Connection ~ 8550 1950
$Comp
L GND #PWR013
U 1 1 5252B545
P 7850 2400
F 0 "#PWR013" H 7850 2400 30  0001 C CNN
F 1 "GND" H 7850 2330 30  0001 C CNN
F 2 "" H 7850 2400 60  0001 C CNN
F 3 "" H 7850 2400 60  0001 C CNN
	1    7850 2400
	1    0    0    -1  
$EndComp
$Comp
L GND #PWR014
U 1 1 5252B554
P 8550 2400
F 0 "#PWR014" H 8550 2400 30  0001 C CNN
F 1 "GND" H 8550 2330 30  0001 C CNN
F 2 "" H 8550 2400 60  0001 C CNN
F 3 "" H 8550 2400 60  0001 C CNN
	1    8550 2400
	1    0    0    -1  
$EndComp
Wire Wire Line
	8550 2300 8550 2400
Wire Wire Line
	7850 2300 7850 2400
Text GLabel 9350 1250 2    25   Output ~ 0
F_OUT_2
Text GLabel 9350 1950 2    25   Output ~ 0
F_OUT_3
$Comp
L VDD #PWR015
U 1 1 526E7B93
P 1250 6600
F 0 "#PWR015" H 1250 6700 30  0001 C CNN
F 1 "VDD" H 1250 6710 30  0000 C CNN
F 2 "" H 1250 6600 60  0001 C CNN
F 3 "" H 1250 6600 60  0001 C CNN
	1    1250 6600
	1    0    0    -1  
$EndComp
$Comp
L INDUCTOR_SMALL L101
U 1 1 526E7BA2
P 1700 6750
F 0 "L101" H 1700 6850 50  0000 C CNN
F 1 "FB 0805" H 1700 6700 50  0000 C CNN
F 2 "~" H 1700 6750 60  0000 C CNN
F 3 "~" H 1700 6750 60  0000 C CNN
	1    1700 6750
	1    0    0    -1  
$EndComp
Wire Wire Line
	1250 6600 1250 6850
Wire Wire Line
	1250 6750 1450 6750
$Comp
L CSMALL C104
U 1 1 526E7CDE
P 1250 6950
F 0 "C104" H 1275 7000 30  0000 L CNN
F 1 "1u" H 1275 6900 30  0000 L CNN
F 2 "~" H 1250 6950 60  0000 C CNN
F 3 "~" H 1250 6950 60  0000 C CNN
	1    1250 6950
	1    0    0    -1  
$EndComp
$Comp
L CSMALL C113
U 1 1 526E7CED
P 2150 6950
F 0 "C113" H 2175 7000 30  0000 L CNN
F 1 "1u" H 2175 6900 30  0000 L CNN
F 2 "~" H 2150 6950 60  0000 C CNN
F 3 "~" H 2150 6950 60  0000 C CNN
	1    2150 6950
	1    0    0    -1  
$EndComp
$Comp
L GND #PWR016
U 1 1 526E7CFC
P 2150 7150
F 0 "#PWR016" H 2150 7150 30  0001 C CNN
F 1 "GND" H 2150 7080 30  0001 C CNN
F 2 "" H 2150 7150 60  0001 C CNN
F 3 "" H 2150 7150 60  0001 C CNN
	1    2150 7150
	1    0    0    -1  
$EndComp
$Comp
L GND #PWR017
U 1 1 526E7D0B
P 1250 7150
F 0 "#PWR017" H 1250 7150 30  0001 C CNN
F 1 "GND" H 1250 7080 30  0001 C CNN
F 2 "" H 1250 7150 60  0001 C CNN
F 3 "" H 1250 7150 60  0001 C CNN
	1    1250 7150
	1    0    0    -1  
$EndComp
Wire Wire Line
	2150 6600 2150 6850
Wire Wire Line
	2150 7050 2150 7150
Wire Wire Line
	1250 7050 1250 7150
Connection ~ 1250 6750
$Comp
L VDD #PWR018
U 1 1 526E8195
P 2000 7300
F 0 "#PWR018" H 2000 7400 30  0001 C CNN
F 1 "VDD" H 2000 7410 30  0000 C CNN
F 2 "" H 2000 7300 60  0001 C CNN
F 3 "" H 2000 7300 60  0001 C CNN
	1    2000 7300
	1    0    0    -1  
$EndComp
$Comp
L CSMALL C105
U 1 1 526E81A4
P 1250 7500
F 0 "C105" H 1275 7550 30  0000 L CNN
F 1 "1u" H 1275 7450 30  0000 L CNN
F 2 "~" H 1250 7500 60  0000 C CNN
F 3 "~" H 1250 7500 60  0000 C CNN
	1    1250 7500
	1    0    0    -1  
$EndComp
$Comp
L CSMALL C107
U 1 1 526E81B3
P 1500 7500
F 0 "C107" H 1525 7550 30  0000 L CNN
F 1 "0.1u" H 1525 7450 30  0000 L CNN
F 2 "~" H 1500 7500 60  0000 C CNN
F 3 "~" H 1500 7500 60  0000 C CNN
	1    1500 7500
	1    0    0    -1  
$EndComp
$Comp
L CSMALL C110
U 1 1 526E81C2
P 1750 7500
F 0 "C110" H 1775 7550 30  0000 L CNN
F 1 "10n" H 1775 7450 30  0000 L CNN
F 2 "~" H 1750 7500 60  0000 C CNN
F 3 "~" H 1750 7500 60  0000 C CNN
	1    1750 7500
	1    0    0    -1  
$EndComp
$Comp
L INDUCTOR_SMALL L107
U 1 1 526E81D1
P 4900 2850
F 0 "L107" H 4900 2950 50  0000 C CNN
F 1 "220n" H 4900 2800 50  0000 C CNN
F 2 "~" H 4900 2850 60  0000 C CNN
F 3 "~" H 4900 2850 60  0000 C CNN
	1    4900 2850
	0    -1   -1   0   
$EndComp
Wire Wire Line
	4900 2600 4900 2450
Connection ~ 4900 2450
$Comp
L CSMALL C112
U 1 1 526E835D
P 2000 7500
F 0 "C112" H 2025 7550 30  0000 L CNN
F 1 "10n" H 2025 7450 30  0000 L CNN
F 2 "~" H 2000 7500 60  0000 C CNN
F 3 "~" H 2000 7500 60  0000 C CNN
	1    2000 7500
	1    0    0    -1  
$EndComp
$Comp
L GND #PWR019
U 1 1 526E836C
P 2000 7700
F 0 "#PWR019" H 2000 7700 30  0001 C CNN
F 1 "GND" H 2000 7630 30  0001 C CNN
F 2 "" H 2000 7700 60  0001 C CNN
F 3 "" H 2000 7700 60  0001 C CNN
	1    2000 7700
	1    0    0    -1  
$EndComp
Wire Wire Line
	2000 7300 2000 7400
Wire Wire Line
	1250 7350 2000 7350
Wire Wire Line
	1250 7350 1250 7400
Connection ~ 2000 7350
Wire Wire Line
	1500 7400 1500 7350
Connection ~ 1500 7350
Wire Wire Line
	1750 7400 1750 7350
Connection ~ 1750 7350
Wire Wire Line
	1250 7600 1250 7650
Wire Wire Line
	1250 7650 2000 7650
Wire Wire Line
	2000 7600 2000 7700
Connection ~ 2000 7650
Wire Wire Line
	1750 7600 1750 7650
Connection ~ 1750 7650
Wire Wire Line
	1500 7600 1500 7650
Connection ~ 1500 7650
$Comp
L AVDD #PWR020
U 1 1 526E839E
P 2150 6600
F 0 "#PWR020" H 2150 6700 30  0001 C CNN
F 1 "AVDD" H 2150 6710 30  0000 C CNN
F 2 "~" H 2150 6600 60  0000 C CNN
F 3 "~" H 2150 6600 60  0000 C CNN
	1    2150 6600
	1    0    0    -1  
$EndComp
$Comp
L RFVDD #PWR021
U 1 1 526E87EA
P 4850 3500
F 0 "#PWR021" H 4850 3600 30  0001 C CNN
F 1 "RFVDD" H 4850 3610 30  0000 C CNN
F 2 "~" H 4850 3500 60  0000 C CNN
F 3 "~" H 4850 3500 60  0000 C CNN
	1    4850 3500
	1    0    0    -1  
$EndComp
Wire Wire Line
	4850 3500 4850 3600
Wire Wire Line
	4900 3100 4900 3200
$Comp
L TXVDD #PWR022
U 1 1 526E8BF5
P 4500 3050
F 0 "#PWR022" H 4500 3150 30  0001 C CNN
F 1 "TXVDD" H 4500 3160 30  0000 C CNN
F 2 "~" H 4500 3050 60  0000 C CNN
F 3 "~" H 4500 3050 60  0000 C CNN
	1    4500 3050
	1    0    0    -1  
$EndComp
$Comp
L RFVDD #PWR023
U 1 1 526E9DF1
P 8500 6550
F 0 "#PWR023" H 8500 6650 30  0001 C CNN
F 1 "RFVDD" H 8500 6660 30  0000 C CNN
F 2 "~" H 8500 6550 60  0000 C CNN
F 3 "~" H 8500 6550 60  0000 C CNN
	1    8500 6550
	1    0    0    -1  
$EndComp
$Comp
L CSMALL C129
U 1 1 526E9E00
P 8500 6750
F 0 "C129" H 8525 6800 30  0000 L CNN
F 1 "1u" H 8525 6700 30  0000 L CNN
F 2 "~" H 8500 6750 60  0000 C CNN
F 3 "~" H 8500 6750 60  0000 C CNN
	1    8500 6750
	1    0    0    -1  
$EndComp
$Comp
L CSMALL C130
U 1 1 526E9E0F
P 8750 6750
F 0 "C130" H 8775 6800 30  0000 L CNN
F 1 "0.1u" H 8775 6700 30  0000 L CNN
F 2 "~" H 8750 6750 60  0000 C CNN
F 3 "~" H 8750 6750 60  0000 C CNN
	1    8750 6750
	1    0    0    -1  
$EndComp
$Comp
L GND #PWR024
U 1 1 526E9E1E
P 8750 6950
F 0 "#PWR024" H 8750 6950 30  0001 C CNN
F 1 "GND" H 8750 6880 30  0001 C CNN
F 2 "" H 8750 6950 60  0001 C CNN
F 3 "" H 8750 6950 60  0001 C CNN
	1    8750 6950
	1    0    0    -1  
$EndComp
$Comp
L GND #PWR025
U 1 1 526E9E2D
P 8500 6950
F 0 "#PWR025" H 8500 6950 30  0001 C CNN
F 1 "GND" H 8500 6880 30  0001 C CNN
F 2 "" H 8500 6950 60  0001 C CNN
F 3 "" H 8500 6950 60  0001 C CNN
	1    8500 6950
	1    0    0    -1  
$EndComp
$Comp
L VDD #PWR026
U 1 1 526E9E3C
P 8750 6550
F 0 "#PWR026" H 8750 6650 30  0001 C CNN
F 1 "VDD" H 8750 6660 30  0000 C CNN
F 2 "" H 8750 6550 60  0001 C CNN
F 3 "" H 8750 6550 60  0001 C CNN
	1    8750 6550
	1    0    0    -1  
$EndComp
Wire Wire Line
	8750 6850 8750 6950
Wire Wire Line
	8500 6850 8500 6950
Wire Wire Line
	8500 6550 8500 6650
Wire Wire Line
	8750 6550 8750 6650
Connection ~ 8500 6600
Connection ~ 8750 6600
$Comp
L CSMALL C132
U 1 1 526EA187
P 9750 6750
F 0 "C132" H 9775 6800 30  0000 L CNN
F 1 "1u" H 9775 6700 30  0000 L CNN
F 2 "~" H 9750 6750 60  0000 C CNN
F 3 "~" H 9750 6750 60  0000 C CNN
	1    9750 6750
	1    0    0    -1  
$EndComp
$Comp
L CSMALL C133
U 1 1 526EA196
P 10000 6750
F 0 "C133" H 10025 6800 30  0000 L CNN
F 1 "0.1" H 10025 6700 30  0000 L CNN
F 2 "~" H 10000 6750 60  0000 C CNN
F 3 "~" H 10000 6750 60  0000 C CNN
	1    10000 6750
	1    0    0    -1  
$EndComp
$Comp
L CSMALL C135
U 1 1 526EA1A5
P 10650 6750
F 0 "C135" H 10675 6800 30  0000 L CNN
F 1 "1u" H 10675 6700 30  0000 L CNN
F 2 "~" H 10650 6750 60  0000 C CNN
F 3 "~" H 10650 6750 60  0000 C CNN
	1    10650 6750
	1    0    0    -1  
$EndComp
$Comp
L CSMALL C136
U 1 1 526EA1B4
P 10900 6750
F 0 "C136" H 10925 6800 30  0000 L CNN
F 1 "0.1" H 10925 6700 30  0000 L CNN
F 2 "~" H 10900 6750 60  0000 C CNN
F 3 "~" H 10900 6750 60  0000 C CNN
	1    10900 6750
	1    0    0    -1  
$EndComp
$Comp
L INDUCTOR_SMALL L114
U 1 1 526EA1C3
P 10300 6600
F 0 "L114" H 10300 6700 50  0000 C CNN
F 1 "FB 0805" H 10300 6550 50  0000 C CNN
F 2 "~" H 10300 6600 60  0000 C CNN
F 3 "~" H 10300 6600 60  0000 C CNN
	1    10300 6600
	1    0    0    -1  
$EndComp
Wire Wire Line
	10000 6600 10000 6650
Connection ~ 10000 6600
Wire Wire Line
	9750 6600 9750 6650
Connection ~ 9750 6600
Wire Wire Line
	10550 6600 10950 6600
Wire Wire Line
	10900 6600 10900 6650
Wire Wire Line
	10650 6600 10650 6650
Connection ~ 10650 6600
$Comp
L GND #PWR027
U 1 1 526EA531
P 9750 6950
F 0 "#PWR027" H 9750 6950 30  0001 C CNN
F 1 "GND" H 9750 6880 30  0001 C CNN
F 2 "" H 9750 6950 60  0001 C CNN
F 3 "" H 9750 6950 60  0001 C CNN
	1    9750 6950
	1    0    0    -1  
$EndComp
$Comp
L GND #PWR028
U 1 1 526EA540
P 10000 6950
F 0 "#PWR028" H 10000 6950 30  0001 C CNN
F 1 "GND" H 10000 6880 30  0001 C CNN
F 2 "" H 10000 6950 60  0001 C CNN
F 3 "" H 10000 6950 60  0001 C CNN
	1    10000 6950
	1    0    0    -1  
$EndComp
$Comp
L GND #PWR029
U 1 1 526EA54F
P 10650 6950
F 0 "#PWR029" H 10650 6950 30  0001 C CNN
F 1 "GND" H 10650 6880 30  0001 C CNN
F 2 "" H 10650 6950 60  0001 C CNN
F 3 "" H 10650 6950 60  0001 C CNN
	1    10650 6950
	1    0    0    -1  
$EndComp
$Comp
L GND #PWR030
U 1 1 526EA55E
P 10900 6950
F 0 "#PWR030" H 10900 6950 30  0001 C CNN
F 1 "GND" H 10900 6880 30  0001 C CNN
F 2 "" H 10900 6950 60  0001 C CNN
F 3 "" H 10900 6950 60  0001 C CNN
	1    10900 6950
	1    0    0    -1  
$EndComp
Wire Wire Line
	10900 6850 10900 6950
Wire Wire Line
	10650 6850 10650 6950
Wire Wire Line
	10000 6850 10000 6950
Wire Wire Line
	9750 6850 9750 6950
$Comp
L R R107
U 1 1 526EA83B
P 9200 6600
F 0 "R107" V 9280 6600 40  0000 C CNN
F 1 "0" V 9207 6601 40  0000 C CNN
F 2 "~" V 9130 6600 30  0000 C CNN
F 3 "~" H 9200 6600 30  0000 C CNN
	1    9200 6600
	0    -1   -1   0   
$EndComp
$Comp
L R R110
U 1 1 526EA84A
P 9600 6250
F 0 "R110" V 9680 6250 40  0000 C CNN
F 1 "N.E." V 9607 6251 40  0000 C CNN
F 2 "~" V 9530 6250 30  0000 C CNN
F 3 "~" H 9600 6250 30  0000 C CNN
	1    9600 6250
	1    0    0    -1  
$EndComp
Wire Wire Line
	8500 6600 8950 6600
Wire Wire Line
	9450 6600 10050 6600
Wire Wire Line
	9600 6500 9600 6600
Connection ~ 9600 6600
$Comp
L VBAT #PWR031
U 1 1 526EACD1
P 9600 5900
F 0 "#PWR031" H 9600 6000 30  0001 C CNN
F 1 "VBAT" H 9600 6010 30  0000 C CNN
F 2 "~" H 9600 5900 60  0000 C CNN
F 3 "~" H 9600 5900 60  0000 C CNN
	1    9600 5900
	1    0    0    -1  
$EndComp
Wire Wire Line
	9600 5900 9600 6000
$Comp
L TXVDD #PWR032
U 1 1 526EADAA
P 10950 6550
F 0 "#PWR032" H 10950 6650 30  0001 C CNN
F 1 "TXVDD" H 10950 6660 30  0000 C CNN
F 2 "~" H 10950 6550 60  0000 C CNN
F 3 "~" H 10950 6550 60  0000 C CNN
	1    10950 6550
	1    0    0    -1  
$EndComp
Wire Wire Line
	10950 6600 10950 6550
Connection ~ 10900 6600
Wire Wire Line
	4900 3200 4500 3200
Wire Wire Line
	4500 3200 4500 3050
Wire Wire Line
	5050 3600 5050 2550
Wire Wire Line
	5050 2550 5400 2550
Connection ~ 5050 3600
Text Notes 9950 6000 0    60   ~ 0
TXVDD:\n- VBat for more power\n- VDD for in spec
$Sheet
S 11500 400  1050 900 
U 5271334E
F0 "solar psu" 50
F1 "solar.sch" 50
$EndSheet
Wire Wire Line
	1950 6750 2150 6750
Connection ~ 2150 6750
$Comp
L MAX-7 U103
U 1 1 5291DADD
P 9150 3300
F 0 "U103" H 9150 2850 60  0000 C CNN
F 1 "MAX-7" H 9150 3700 60  0000 C CNN
F 2 "~" H 9050 3600 60  0000 C CNN
F 3 "~" H 9050 3600 60  0000 C CNN
	1    9150 3300
	1    0    0    -1  
$EndComp
$Comp
L GND #PWR033
U 1 1 5291DAEC
P 8550 3600
F 0 "#PWR033" H 8550 3600 30  0001 C CNN
F 1 "GND" H 8550 3530 30  0001 C CNN
F 2 "" H 8550 3600 60  0001 C CNN
F 3 "" H 8550 3600 60  0001 C CNN
	1    8550 3600
	1    0    0    -1  
$EndComp
Wire Wire Line
	8850 3200 8550 3200
Wire Wire Line
	8550 3100 8550 3600
Wire Wire Line
	8850 3100 8550 3100
Connection ~ 8550 3200
$Comp
L GND #PWR034
U 1 1 5291DC63
P 9600 3600
F 0 "#PWR034" H 9600 3600 30  0001 C CNN
F 1 "GND" H 9600 3530 30  0001 C CNN
F 2 "" H 9600 3600 60  0001 C CNN
F 3 "" H 9600 3600 60  0001 C CNN
	1    9600 3600
	1    0    0    -1  
$EndComp
Wire Wire Line
	9600 3500 9600 3600
$Comp
L VDD #PWR035
U 1 1 5291DD80
P 9600 2950
F 0 "#PWR035" H 9600 3050 30  0001 C CNN
F 1 "VDD" H 9600 3060 30  0000 C CNN
F 2 "" H 9600 2950 60  0001 C CNN
F 3 "" H 9600 2950 60  0001 C CNN
	1    9600 2950
	1    0    0    -1  
$EndComp
Wire Wire Line
	9600 2950 9600 3250
Wire Wire Line
	9600 3150 9450 3150
Wire Wire Line
	9600 3200 9450 3200
Connection ~ 9600 3150
Wire Wire Line
	9600 3250 9450 3250
Connection ~ 9600 3200
Text GLabel 6200 2500 2    25   Input ~ 0
SPI_CLK
Text GLabel 6200 2450 2    25   Output ~ 0
SPI_MISO
Wire Wire Line
	6200 2450 6050 2450
Wire Wire Line
	6200 2500 6050 2500
Text GLabel 6200 2400 2    25   Input ~ 0
SPI_MOSI
Wire Wire Line
	6200 2400 6050 2400
Text GLabel 6200 2550 2    25   Output ~ 0
RF_INT
Wire Wire Line
	6200 2550 6050 2550
Text GLabel 6200 2350 2    25   Input ~ 0
SPI_RF_CS
Wire Wire Line
	6200 2350 6050 2350
$Comp
L E5393LF X102
U 1 1 5291E840
P 1600 4350
F 0 "X102" H 1600 4150 60  0000 C CNN
F 1 "E5393LF" H 1550 4050 60  0000 C CNN
F 2 "" H 1600 4350 60  0001 C CNN
F 3 "" H 1600 4350 60  0001 C CNN
	1    1600 4350
	1    0    0    -1  
$EndComp
$Comp
L GND #PWR036
U 1 1 5291E84F
P 1800 4550
F 0 "#PWR036" H 1800 4550 30  0001 C CNN
F 1 "GND" H 1800 4480 30  0001 C CNN
F 2 "" H 1800 4550 60  0001 C CNN
F 3 "" H 1800 4550 60  0001 C CNN
	1    1800 4550
	1    0    0    -1  
$EndComp
$Comp
L VDD #PWR037
U 1 1 5291E927
P 1200 3750
F 0 "#PWR037" H 1200 3850 30  0001 C CNN
F 1 "VDD" H 1200 3860 30  0000 C CNN
F 2 "" H 1200 3750 60  0001 C CNN
F 3 "" H 1200 3750 60  0001 C CNN
	1    1200 3750
	1    0    0    -1  
$EndComp
Wire Wire Line
	1750 4300 2200 4300
Wire Wire Line
	1750 4400 1800 4400
Text GLabel 2200 4300 2    25   Output ~ 0
RF_CLK
NoConn ~ 6050 2300
$Comp
L R R108
U 1 1 5291EF0B
P 1200 4100
F 0 "R108" V 1280 4100 40  0000 C CNN
F 1 "R" V 1207 4101 40  0000 C CNN
F 2 "~" V 1130 4100 30  0000 C CNN
F 3 "~" H 1200 4100 30  0000 C CNN
	1    1200 4100
	1    0    0    -1  
$EndComp
Wire Wire Line
	1200 3750 1200 3850
Wire Wire Line
	1200 4350 1200 4450
Wire Wire Line
	1200 4400 1400 4400
Wire Wire Line
	1200 3800 1350 3800
Wire Wire Line
	1350 3800 1350 4300
Wire Wire Line
	1350 4300 1400 4300
Connection ~ 1200 3800
$Comp
L R R109
U 1 1 5291F19B
P 1200 4700
F 0 "R109" V 1280 4700 40  0000 C CNN
F 1 "R" V 1207 4701 40  0000 C CNN
F 2 "~" V 1130 4700 30  0000 C CNN
F 3 "~" H 1200 4700 30  0000 C CNN
	1    1200 4700
	1    0    0    -1  
$EndComp
$Comp
L GND #PWR038
U 1 1 5291F1AA
P 1200 5000
F 0 "#PWR038" H 1200 5000 30  0001 C CNN
F 1 "GND" H 1200 4930 30  0001 C CNN
F 2 "" H 1200 5000 60  0001 C CNN
F 3 "" H 1200 5000 60  0001 C CNN
	1    1200 5000
	1    0    0    -1  
$EndComp
Connection ~ 1200 4400
Wire Wire Line
	1200 4950 1200 5000
$Comp
L CSMALL C131
U 1 1 5291F372
P 1600 4100
F 0 "C131" H 1625 4150 30  0000 L CNN
F 1 "10nF" V 1500 4050 30  0000 L CNN
F 2 "~" H 1600 4100 60  0000 C CNN
F 3 "~" H 1600 4100 60  0000 C CNN
	1    1600 4100
	0    -1   -1   0   
$EndComp
Wire Wire Line
	1500 4100 1350 4100
Connection ~ 1350 4100
$Comp
L GND #PWR039
U 1 1 5291F464
P 1900 4200
F 0 "#PWR039" H 1900 4200 30  0001 C CNN
F 1 "GND" H 1900 4130 30  0001 C CNN
F 2 "" H 1900 4200 60  0001 C CNN
F 3 "" H 1900 4200 60  0001 C CNN
	1    1900 4200
	1    0    0    -1  
$EndComp
Wire Wire Line
	1700 4100 1900 4100
Wire Wire Line
	1900 4100 1900 4200
Text GLabel 6300 1900 2    25   Input ~ 0
RF_CLK
Wire Wire Line
	5800 1900 5800 2100
Text GLabel 3750 4850 0    25   BiDi ~ 0
GPS_SDA
Text GLabel 3750 4900 0    25   BiDi ~ 0
GPS_SCL
Text GLabel 8300 3400 0    25   BiDi ~ 0
GPS_SDA
Text GLabel 8300 3450 0    25   BiDi ~ 0
GPS_SCL
Wire Wire Line
	8300 3400 8850 3400
Wire Wire Line
	8300 3450 8850 3450
NoConn ~ 8850 3350
NoConn ~ 8850 3300
NoConn ~ 8850 3250
$Comp
L CONN_3 K101
U 1 1 5291FB84
P 2500 5600
F 0 "K101" V 2450 5600 50  0000 C CNN
F 1 "UART" V 2550 5600 40  0000 C CNN
F 2 "" H 2500 5600 60  0001 C CNN
F 3 "" H 2500 5600 60  0001 C CNN
	1    2500 5600
	-1   0    0    1   
$EndComp
$Comp
L 1575AT43A0040 ANT101
U 1 1 5291FEB9
P 8200 2750
F 0 "ANT101" H 8000 2500 60  0000 C CNN
F 1 "1575AT43A0040" H 8750 2600 60  0001 C CNN
F 2 "" H 8200 2750 60  0001 C CNN
F 3 "" H 8200 2750 60  0001 C CNN
	1    8200 2750
	1    0    0    -1  
$EndComp
Wire Wire Line
	8200 3050 8200 3150
Wire Wire Line
	8200 3150 8850 3150
Text GLabel 9950 3250 2    25   Input ~ 0
GPS_INT
Wire Wire Line
	9450 3300 9800 3300
Wire Wire Line
	9800 3300 9800 3250
Wire Wire Line
	9800 3250 9950 3250
Text GLabel 9950 3350 2    25   Output ~ 0
GPS_TPULSE
Wire Wire Line
	9450 3350 9950 3350
$Comp
L R R111
U 1 1 52920190
P 10350 2950
F 0 "R111" V 10430 2950 40  0000 C CNN
F 1 "0" V 10357 2951 40  0000 C CNN
F 2 "~" V 10280 2950 30  0000 C CNN
F 3 "~" H 10350 2950 30  0000 C CNN
	1    10350 2950
	1    0    0    -1  
$EndComp
Text GLabel 10450 2600 2    25   Output ~ 0
GPS_I2C_DR
Wire Wire Line
	10350 3200 10350 3450
Wire Wire Line
	10350 2700 10350 2600
Wire Wire Line
	10350 2600 10450 2600
Text GLabel 5150 5000 0    25   Input ~ 0
GPIO2
Wire Wire Line
	5250 5000 5150 5000
Text GLabel 3650 6650 0    25   Input ~ 0
F_OUT_3
Text GLabel 9950 3100 2    25   Input ~ 0
GPS_RESET
Wire Wire Line
	9950 3100 9450 3100
Text GLabel 5100 5100 0    25   Input ~ 0
RF_INT
Text GLabel 3750 5100 0    25   Output ~ 0
RF_SHUT
Text GLabel 5100 5600 0    25   Input ~ 0
GPS_I2C_DR
Text GLabel 3850 5900 0    25   Input ~ 0
GPS_TPULSE
Text GLabel 3850 5850 0    25   Output ~ 0
GPS_INT
Text GLabel 5100 5750 0    25   Output ~ 0
GPS_RESET
$Comp
L R R117
U 1 1 52925E69
P 8100 5100
F 0 "R117" V 8180 5100 40  0000 C CNN
F 1 "50k" V 8107 5101 40  0000 C CNN
F 2 "~" V 8030 5100 30  0000 C CNN
F 3 "~" H 8100 5100 30  0000 C CNN
	1    8100 5100
	1    0    0    -1  
$EndComp
$Comp
L R R116
U 1 1 52925E78
P 8100 4500
F 0 "R116" V 8180 4500 40  0000 C CNN
F 1 "50k" V 8107 4501 40  0000 C CNN
F 2 "~" V 8030 4500 30  0000 C CNN
F 3 "~" H 8100 4500 30  0000 C CNN
	1    8100 4500
	1    0    0    -1  
$EndComp
$Comp
L GND #PWR040
U 1 1 52925EA5
P 8350 5450
F 0 "#PWR040" H 8350 5450 30  0001 C CNN
F 1 "GND" H 8350 5380 30  0001 C CNN
F 2 "" H 8350 5450 60  0001 C CNN
F 3 "" H 8350 5450 60  0001 C CNN
	1    8350 5450
	1    0    0    -1  
$EndComp
$Comp
L VBAT #PWR041
U 1 1 52925EC3
P 8100 4150
F 0 "#PWR041" H 8100 4250 30  0001 C CNN
F 1 "VBAT" H 8100 4260 30  0000 C CNN
F 2 "~" H 8100 4150 60  0000 C CNN
F 3 "~" H 8100 4150 60  0000 C CNN
	1    8100 4150
	1    0    0    -1  
$EndComp
$Comp
L VSOLAR #PWR042
U 1 1 52925F84
P 8600 4150
F 0 "#PWR042" H 8600 4250 30  0001 C CNN
F 1 "VSOLAR" H 8600 4260 30  0000 C CNN
F 2 "~" H 8600 4150 60  0000 C CNN
F 3 "~" H 8600 4150 60  0000 C CNN
	1    8600 4150
	1    0    0    -1  
$EndComp
Wire Wire Line
	8100 5350 8100 5400
Wire Wire Line
	8350 5400 8350 5450
Wire Wire Line
	8600 4150 8600 4800
Wire Wire Line
	8100 4750 8100 4850
Wire Wire Line
	8100 4250 8100 4150
Wire Wire Line
	8100 4800 7850 4800
Connection ~ 8100 4800
Wire Wire Line
	8600 4800 8350 4800
Text Label 7850 4800 0    25   ~ 0
Vbat_2
Text Label 8350 4800 0    25   ~ 0
Vsolar_2
Wire Wire Line
	8100 5400 8350 5400
Wire Wire Line
	5750 2750 5750 2950
Wire Wire Line
	5750 2950 7100 2950
Wire Wire Line
	7100 2950 7100 1950
Wire Wire Line
	7100 1950 7250 1950
Text Label 1150 2450 0    25   ~ 0
RF_0
Text Label 1800 2450 0    25   ~ 0
RF_1
Text Label 2600 2450 0    25   ~ 0
RF_2
Text Label 3400 2450 0    25   ~ 0
RF_3
Text Label 4000 2450 0    25   ~ 0
RF_4
Text Label 4850 2450 0    25   ~ 0
RF_5
Text Label 4100 800  0    25   ~ 0
RF_6
Text Label 4300 1600 0    25   ~ 0
RF_7
Text Label 8300 3150 0    25   ~ 0
GPS_ANT
Text Label 7850 1950 0    25   ~ 0
F3_1
Text Label 7100 1950 0    25   ~ 0
F3_0
Text Label 8550 1950 0    25   ~ 0
F3_2
Text Label 7050 1250 0    25   ~ 0
F2_0
Text Label 7800 1250 0    25   ~ 0
F2_1
Text Label 8500 1250 0    25   ~ 0
F2_2
$Comp
L CSMALL C103
U 1 1 534DB16A
P 6050 1900
F 0 "C103" H 6075 1950 30  0000 L CNN
F 1 "100n" H 6075 1850 30  0000 L CNN
F 2 "~" H 6050 1900 60  0000 C CNN
F 3 "~" H 6050 1900 60  0000 C CNN
	1    6050 1900
	0    -1   -1   0   
$EndComp
Wire Wire Line
	5800 1900 5950 1900
Wire Wire Line
	6150 1900 6300 1900
$Comp
L DSPIC33EPXXXGP806 U101
U 2 1 534DB786
P 4200 6700
F 0 "U101" H 4550 6250 50  0000 C CNN
F 1 "DSPIC33EPXXXGP806" H 4200 7200 50  0001 C CNN
F 2 "~" H 4000 6700 60  0000 C CNN
F 3 "~" H 4000 6700 60  0000 C CNN
	2    4200 6700
	1    0    0    -1  
$EndComp
$Comp
L DSPIC33EPXXXGP806 U101
U 4 1 534DB7A9
P 4200 5700
F 0 "U101" H 4300 5350 50  0000 C CNN
F 1 "DSPIC33EPXXXGP806" H 4200 6200 50  0001 C CNN
F 2 "~" H 4000 5700 60  0000 C CNN
F 3 "~" H 4000 5700 60  0000 C CNN
	4    4200 5700
	1    0    0    -1  
$EndComp
$Comp
L DSPIC33EPXXXGP806 U101
U 5 1 534DB7B8
P 5450 4950
F 0 "U101" H 5700 4700 50  0000 C CNN
F 1 "DSPIC33EPXXXGP806" H 5450 5450 50  0001 C CNN
F 2 "~" H 5250 4950 60  0000 C CNN
F 3 "~" H 5250 4950 60  0000 C CNN
	5    5450 4950
	1    0    0    -1  
$EndComp
$Comp
L DSPIC33EPXXXGP806 U101
U 6 1 534DB7C7
P 5400 5600
F 0 "U101" H 5700 5400 50  0000 C CNN
F 1 "DSPIC33EPXXXGP806" H 5400 6100 50  0001 C CNN
F 2 "~" H 5200 5600 60  0000 C CNN
F 3 "~" H 5200 5600 60  0000 C CNN
	6    5400 5600
	1    0    0    -1  
$EndComp
$Comp
L DSPIC33EPXXXGP806 U101
U 7 1 534DB7D6
P 4050 4950
F 0 "U101" H 4350 4750 50  0000 C CNN
F 1 "DSPIC33EPXXXGP806" H 4050 5450 50  0001 C CNN
F 2 "~" H 3850 4950 60  0000 C CNN
F 3 "~" H 3850 4950 60  0000 C CNN
	7    4050 4950
	1    0    0    -1  
$EndComp
Text GLabel 3750 5000 0    25   Input ~ 0
SPI_MISO
Text GLabel 3750 5050 0    25   Output ~ 0
SPI_MOSI
Text GLabel 3750 4950 0    25   Output ~ 0
SPI_CLK
Wire Wire Line
	3750 4950 3900 4950
Wire Wire Line
	3750 5000 3900 5000
Wire Wire Line
	3750 5050 3900 5050
Text Notes 3650 4650 0    25   ~ 0
SPI2 CS:\n  - SS2 = RE7 <= RP87 : RPnR 001010
Text GLabel 5100 5150 0    25   Output ~ 0
SPI_RF_CS
Wire Wire Line
	5100 5150 5250 5150
Wire Wire Line
	3750 4850 3900 4850
Wire Wire Line
	3750 4900 3900 4900
Wire Wire Line
	3750 5100 3900 5100
Wire Wire Line
	5100 5100 5250 5100
Wire Wire Line
	3900 7050 3700 7050
Wire Wire Line
	3900 7000 3700 7000
Text Label 3700 7050 0    25   ~ 0
Vbat_2
Text Label 3700 7000 0    25   ~ 0
Vsolar_2
Wire Wire Line
	5100 5750 5250 5750
Wire Wire Line
	5100 5600 5250 5600
Wire Wire Line
	3850 5850 3900 5850
Wire Wire Line
	3850 5900 3900 5900
Wire Wire Line
	3300 6500 3900 6500
Wire Wire Line
	5800 2750 5800 2850
Wire Wire Line
	5800 2850 7050 2850
Text GLabel 5650 2000 1    25   Output ~ 0
GPIO3
Wire Wire Line
	5650 2000 5650 2100
Text GLabel 5150 4950 0    25   Input ~ 0
GPIO3
Wire Wire Line
	5150 4950 5250 4950
NoConn ~ 5650 2750
$Comp
L GND #PWR043
U 1 1 534F07F5
P 4700 5850
F 0 "#PWR043" H 4700 5850 30  0001 C CNN
F 1 "GND" H 4700 5780 30  0001 C CNN
F 2 "" H 4700 5850 60  0000 C CNN
F 3 "" H 4700 5850 60  0000 C CNN
	1    4700 5850
	1    0    0    -1  
$EndComp
Wire Wire Line
	5250 5450 4700 5450
Wire Wire Line
	4700 5450 4700 5850
Wire Wire Line
	5250 5500 4700 5500
Connection ~ 4700 5500
Wire Wire Line
	5250 5550 4700 5550
Connection ~ 4700 5550
Wire Wire Line
	5250 5650 4700 5650
Connection ~ 4700 5650
Wire Wire Line
	5250 5700 4700 5700
Connection ~ 4700 5700
$Comp
L GND #PWR044
U 1 1 534F0CE6
P 4700 5200
F 0 "#PWR044" H 4700 5200 30  0001 C CNN
F 1 "GND" H 4700 5130 30  0001 C CNN
F 2 "" H 4700 5200 60  0000 C CNN
F 3 "" H 4700 5200 60  0000 C CNN
	1    4700 5200
	1    0    0    -1  
$EndComp
Wire Wire Line
	5250 5050 4700 5050
Wire Wire Line
	4700 4800 4700 5200
Wire Wire Line
	5250 4900 4700 4900
Connection ~ 4700 5050
Wire Wire Line
	5250 4850 4700 4850
Connection ~ 4700 4900
Wire Wire Line
	5250 4800 4700 4800
Connection ~ 4700 4850
$Comp
L GND #PWR045
U 1 1 534F1101
P 3400 6100
F 0 "#PWR045" H 3400 6100 30  0001 C CNN
F 1 "GND" H 3400 6030 30  0001 C CNN
F 2 "" H 3400 6100 60  0000 C CNN
F 3 "" H 3400 6100 60  0000 C CNN
	1    3400 6100
	1    0    0    -1  
$EndComp
Wire Wire Line
	3900 6000 3400 6000
Wire Wire Line
	3900 5950 3400 5950
Connection ~ 3400 6000
Wire Wire Line
	3900 5800 3400 5800
Connection ~ 3400 5950
Wire Wire Line
	3900 5750 3400 5750
Connection ~ 3400 5800
Wire Wire Line
	2850 5700 3900 5700
Connection ~ 3400 5750
Wire Wire Line
	3900 5650 3400 5650
Connection ~ 3400 5700
Wire Wire Line
	3900 5600 3400 5600
Connection ~ 3400 5650
Connection ~ 3400 5600
Wire Wire Line
	3900 5450 3400 5450
$Comp
L GND #PWR046
U 1 1 534F1BBC
P 2950 6450
F 0 "#PWR046" H 2950 6450 30  0001 C CNN
F 1 "GND" H 2950 6380 30  0001 C CNN
F 2 "" H 2950 6450 60  0000 C CNN
F 3 "" H 2950 6450 60  0000 C CNN
	1    2950 6450
	1    0    0    -1  
$EndComp
Wire Wire Line
	2950 6350 3900 6350
Wire Wire Line
	3900 6400 3300 6400
Connection ~ 3300 6400
Wire Wire Line
	3900 6600 3300 6600
Connection ~ 3300 6600
Wire Wire Line
	3900 6700 3300 6700
Connection ~ 3300 6700
Wire Wire Line
	3900 6750 3300 6750
Connection ~ 3300 6750
Wire Wire Line
	3900 6800 3300 6800
Connection ~ 3300 6800
Wire Wire Line
	3300 6850 3900 6850
$Comp
L LM135 U104
U 1 1 534F2C05
P 3400 7650
F 0 "U104" V 3550 7400 60  0000 C CNN
F 1 "LM135" V 3650 7450 60  0000 C CNN
F 2 "~" H 3400 7650 60  0000 C CNN
F 3 "~" H 3400 7650 60  0000 C CNN
	1    3400 7650
	0    -1   -1   0   
$EndComp
Wire Wire Line
	2950 6350 2950 6450
Wire Wire Line
	3300 6350 3300 6850
Connection ~ 3300 6350
$Comp
L R R101
U 1 1 534F3945
P 3150 7200
F 0 "R101" V 3230 7200 40  0000 C CNN
F 1 "3.3k" V 3157 7201 40  0000 C CNN
F 2 "~" V 3080 7200 30  0000 C CNN
F 3 "~" H 3150 7200 30  0000 C CNN
	1    3150 7200
	1    0    0    -1  
$EndComp
$Comp
L GND #PWR047
U 1 1 534F3968
P 3700 7700
F 0 "#PWR047" H 3700 7700 30  0001 C CNN
F 1 "GND" H 3700 7630 30  0001 C CNN
F 2 "" H 3700 7700 60  0000 C CNN
F 3 "" H 3700 7700 60  0000 C CNN
	1    3700 7700
	1    0    0    -1  
$EndComp
Wire Wire Line
	3600 7650 3800 7650
Wire Wire Line
	3700 7650 3700 7700
Wire Wire Line
	3150 7450 3150 7500
Wire Wire Line
	3150 7500 3300 7500
Wire Wire Line
	3300 7500 3300 7450
Wire Wire Line
	3300 7450 3400 7450
Wire Wire Line
	3400 6950 3400 7500
Wire Wire Line
	3150 6950 3150 6900
Wire Wire Line
	3150 6900 3900 6900
Wire Wire Line
	3400 6950 3900 6950
Connection ~ 3400 7450
NoConn ~ 3200 7650
Text Notes 3050 7550 0    25   ~ 0
900uA
$Comp
L R R112
U 1 1 534F4151
P 8200 1950
F 0 "R112" V 8280 1950 40  0000 C CNN
F 1 "0" V 8207 1951 40  0000 C CNN
F 2 "~" V 8130 1950 30  0000 C CNN
F 3 "~" H 8200 1950 30  0000 C CNN
	1    8200 1950
	0    -1   -1   0   
$EndComp
$Comp
L R R104
U 1 1 534F4160
P 7500 1950
F 0 "R104" V 7580 1950 40  0000 C CNN
F 1 "1k" V 7507 1951 40  0000 C CNN
F 2 "~" V 7430 1950 30  0000 C CNN
F 3 "~" H 7500 1950 30  0000 C CNN
	1    7500 1950
	0    -1   -1   0   
$EndComp
Text Notes 9150 1650 0    50   ~ 0
10kHz by default
$Comp
L R R103
U 1 1 534F42BD
P 8200 1250
F 0 "R103" V 8280 1250 40  0000 C CNN
F 1 "0" V 8207 1251 40  0000 C CNN
F 2 "~" V 8130 1250 30  0000 C CNN
F 3 "~" H 8200 1250 30  0000 C CNN
	1    8200 1250
	0    -1   -1   0   
$EndComp
$Comp
L R R102
U 1 1 534F42CC
P 7500 1250
F 0 "R102" V 7580 1250 40  0000 C CNN
F 1 "1k" V 7507 1251 40  0000 C CNN
F 2 "~" V 7430 1250 30  0000 C CNN
F 3 "~" H 7500 1250 30  0000 C CNN
	1    7500 1250
	0    -1   -1   0   
$EndComp
Wire Wire Line
	3900 7100 3800 7100
Wire Wire Line
	3800 7100 3800 7650
Connection ~ 3700 7650
Text GLabel 5700 2000 1    25   BiDi ~ 0
GPIO2
Wire Wire Line
	5700 2000 5700 2100
Connection ~ 3300 6500
Text GLabel 3650 6550 0    25   Input ~ 0
F_OUT_2
Wire Wire Line
	3650 6550 3900 6550
Wire Wire Line
	3900 6650 3650 6650
Wire Wire Line
	3300 6450 3900 6450
Connection ~ 3300 6450
Wire Wire Line
	9450 3500 9600 3500
Wire Wire Line
	10350 3450 9450 3450
Wire Wire Line
	3400 5450 3400 6100
Wire Wire Line
	2850 5500 3900 5500
Wire Wire Line
	2850 5600 3100 5600
Wire Wire Line
	3100 5600 3100 5550
Wire Wire Line
	3100 5550 3900 5550
Text Notes 2900 5300 0    50   ~ 0
UART:\n - RP65\n - RP66
Wire Wire Line
	1800 4400 1800 4550
$EndSCHEMATC
