Id;Reference;Boitier;Quantite;Designation;ref Farnell
1;U101;TQFP_64;1;DSPIC33EPXXXGP806;
2;L114,L101,L203;SM0805;3;FB 0805;
3;C203,C204,C207,C206,C205;SM0805;5;4.7u;
4;C113,C135,C104,C105,C129,C132,C209,C208,C202;SM0603_Capa;9;1u;
5;C123,C102,C103,C122,C124,C212,C211,C210,C213;SM0603_Capa;9;100n;
6;C125,C126;SM0603_Capa;2;N.E.;
7;C136,C133;SM0603_Capa;2;0.1;
8;C107,C130;SM0603_Capa;2;0.1u;
9;C110,C112,C109;SM0603_Capa;3;10n;
10;C131;SM0603_Capa;1;10nF;
11;C101;SM0603_Capa;1;2.2u;
12;C106;SM0603_Capa;1;100p;
13;C108;SM0603_Capa;1;33p;
14;R111,R112,R103,R107;SM0603;4;0;
15;R110;SM0603;1;N.E.;
16;R116,R117,R204;SM0603;3;50k;
17;R208;SM0603;1;300k;
18;R203;SM0603;1;200k;
19;U102;QFN20;1;SI4461;
20;U202;TSOT23-8;1;MP2144;
21;U103;MAX-7;1;MAX-7;
22;L202;SM1210L;1;2.2uH;
23;C111;SM0603_Capa;1;6.8p;
24;C114,C116;SM0603_Capa;2;15p;
25;C115;SM0603_Capa;1;8.2p;
26;C117;SM0603_Capa;1;2.7p;
27;C119;SM0603_Capa;1;5.1p;
28;R109,R108;SM0603;2;R;
29;R207;SM0603;1;330k;
30;R101;SM0603;1;3.3k;
31;R102,R104,R202,R201;SM0603;4;1k;
32;R206;SM0603;1;1M;
33;L107;SM0603;1;220n;
34;L105,L104;SM0603;2;56n;
35;L106;SM0603;1;39n;
36;L103,L102;SM0603;2;18n;
37;L201;SM1210L;1;4.7u;
38;C201;SM0805;1;10u;
39;R205;SM0805;1;10m;
40;R106;SM0603;1;4.7;
41;U201;TSSOP8;1;SPV1040;
42;X102;XTAL_50x32;1;E5393LF;
43;P101;Border_Antenna;1;ANT;
44;ANT101;1575AT43A0040_GPS_ANT;1;1575AT43A0040;
45;U104;TO92;1;LM135;
46;R209;SM0603;1;10k;
47;P201;PIN_ARRAY_2X1;1;SP_Con;
48;J201;TAG_CONNECT_MINIA;1;ICSP;
49;K101;PIN_ARRAY_3X1;1;UART;
50;C214;SM0805;1;10uF;
53;P202;MESH_BATTERY;1;BAT_CON;
