TQFP44;TQFP44_PAGE;NAME;TYPE;PIN_DIRECTION
1;;RB9;I/O;R
2;;RC6;I/O;R
3;;RC7;I/O;R
4;;RC8;I/O;R
5;;RC9;I/O;R
6;;VSS;S;R
7;;Vcap;S;R
8;;RB10;I/O;R
9;;RB11;I/O;R
10;;RB12;I/O;R
11;;RB13;I/O;R
12;;RA10;I/O;U
13;;RA7;I/O;U
14;;RB14;I/O;U
15;;RB15;I/O;U
16;;Avss;S;U
17;;Avdd;S;U
18;;_MCLR;I;U
19;;RA0;I/O;U
20;;RA10;I/O;U
21;;RB0;I/O;U
22;;RB1;I/O;U
23;;RB2;I/O;L
24;;RB3;I/O;L
25;;RC0;I/O;L
26;;RC1;I/O;L
27;;RC2;I/O;L
28;;Vdd;S;L
29;;Vss;S;L
30;;RA2;I/O;L
31;;RA3;I/O;L
32;;RA8;I/O;L
33;;RB4;I/O;L
34;;RA4;I/O;D
35;;RA9;I/O;D
36;;RC3;I/O;D
37;;RC4;I/O;D
38;;RC5;I/O;D
39;;Vss;S;D
40;;Vdd;S;D
41;;RB5;I/O;D
42;;RB6;I/O;D
43;;RB7;I/O;D
44;;RB8;I/O;D
