%!PS-Adobe-3.0
%%Creator: PCBNEW
%%CreationDate: Sun Dec 08 18:16:46 2013
%%Title: G:Gerber\balloon_radio-drl_map.ps
%%Pages: 1
%%PageOrder: Ascend
%%BoundingBox: 0 0 596 842
%%DocumentMedia: A4 595 842 0 () ()
%%Orientation: Landscape
%%EndComments
%%BeginProlog
/line { newpath moveto lineto stroke } bind def
/cir0 { newpath 0 360 arc stroke } bind def
/cir1 { newpath 0 360 arc gsave fill grestore stroke } bind def
/cir2 { newpath 0 360 arc gsave fill grestore stroke } bind def
/arc0 { newpath arc stroke } bind def
/arc1 { newpath 4 index 4 index moveto arc closepath gsave fill
    grestore stroke } bind def
/arc2 { newpath 4 index 4 index moveto arc closepath gsave fill
    grestore stroke } bind def
/poly0 { stroke } bind def
/poly1 { closepath gsave fill grestore stroke } bind def
/poly2 { closepath gsave fill grestore stroke } bind def
/rect0 { rectstroke } bind def
/rect1 { rectfill } bind def
/rect2 { rectfill } bind def
/linemode0 { 0 setlinecap 0 setlinejoin 0 setlinewidth } bind def
/linemode1 { 1 setlinecap 1 setlinejoin } bind def
/dashedline { [200] 100 setdash } bind def
/solidline { [] 0 setdash } bind def
/phantomshow { moveto
    /KicadFont findfont 0.000001 scalefont setfont
    show } bind def
/textshow { gsave
    findfont exch scalefont setfont concat 1 scale 0 0 moveto show
    } bind def
/reencodefont {
  findfont dup length dict begin
  { 1 index /FID ne
    { def }
    { pop pop } ifelse
  } forall
  /Encoding ISOLatin1Encoding def
  currentdict
  end } bind def
/KicadFont /Helvetica reencodefont definefont pop
/KicadFont-Bold /Helvetica-Bold reencodefont definefont pop
/KicadFont-Oblique /Helvetica-Oblique reencodefont definefont pop
/KicadFont-BoldOblique /Helvetica-BoldOblique reencodefont definefont pop
%%EndProlog
%%Page: 1 1
%%BeginPageSetup
gsave
0.0072 0.0072 scale
linemode1
82680 0 translate 90 rotate
150 setlinewidth
%%EndPageSetup
0 0 0 setrgbcolor
118.11 setlinewidth
newpath
98268.1 71872.1 moveto
98268.1 43879.9 lineto
stroke
0 0 0 setrgbcolor
newpath
18661.9 71872.1 moveto
18661.9 43879.9 lineto
stroke
0 0 0 setrgbcolor
newpath
18661.9 43879.9 moveto
20315.4 43879.9 lineto
stroke
0 0 0 setrgbcolor
newpath
18661.9 71872.1 moveto
20315.4 71872.1 lineto
stroke
0 0 0 setrgbcolor
newpath
98268.1 71872.1 moveto
20315.4 71872.1 lineto
stroke
0 0 0 setrgbcolor
newpath
20315.4 43879.9 moveto
98268.1 43879.9 lineto
stroke
78.7394 setlinewidth
newpath
19574.8 44620.5 moveto
19874.8 44320.5 lineto
stroke
newpath
19874.8 44620.5 moveto
19574.8 44320.5 lineto
stroke
newpath
20755.9 44620.5 moveto
21055.9 44320.5 lineto
stroke
newpath
21055.9 44620.5 moveto
20755.9 44320.5 lineto
stroke
newpath
21937 44620.5 moveto
22237 44320.5 lineto
stroke
newpath
22237 44620.5 moveto
21937 44320.5 lineto
stroke
newpath
23118.2 44620.5 moveto
23418.2 44320.5 lineto
stroke
newpath
23418.2 44620.5 moveto
23118.2 44320.5 lineto
stroke
newpath
24299.3 44620.5 moveto
24599.3 44320.5 lineto
stroke
newpath
24599.3 44620.5 moveto
24299.3 44320.5 lineto
stroke
newpath
24889.8 59974.8 moveto
25189.8 59674.8 lineto
stroke
newpath
25189.8 59974.8 moveto
24889.8 59674.8 lineto
stroke
newpath
25480.4 44620.5 moveto
25780.4 44320.5 lineto
stroke
newpath
25780.4 44620.5 moveto
25480.4 44320.5 lineto
stroke
newpath
26070.9 59974.8 moveto
26370.9 59674.8 lineto
stroke
newpath
26370.9 59974.8 moveto
26070.9 59674.8 lineto
stroke
newpath
26661.5 44620.5 moveto
26961.5 44320.5 lineto
stroke
newpath
26961.5 44620.5 moveto
26661.5 44320.5 lineto
stroke
newpath
27252 59974.8 moveto
27552 59674.8 lineto
stroke
newpath
27552 59974.8 moveto
27252 59674.8 lineto
stroke
newpath
27842.6 44620.5 moveto
28142.6 44320.5 lineto
stroke
newpath
28142.6 44620.5 moveto
27842.6 44320.5 lineto
stroke
newpath
28433.1 59974.8 moveto
28733.1 59674.8 lineto
stroke
newpath
28733.1 59974.8 moveto
28433.1 59674.8 lineto
stroke
newpath
29023.7 44620.5 moveto
29323.7 44320.5 lineto
stroke
newpath
29323.7 44620.5 moveto
29023.7 44320.5 lineto
stroke
newpath
29614.2 59974.8 moveto
29914.2 59674.8 lineto
stroke
newpath
29914.2 59974.8 moveto
29614.2 59674.8 lineto
stroke
newpath
30204.8 44620.5 moveto
30504.8 44320.5 lineto
stroke
newpath
30504.8 44620.5 moveto
30204.8 44320.5 lineto
stroke
newpath
30795.3 59974.8 moveto
31095.3 59674.8 lineto
stroke
newpath
31095.3 59974.8 moveto
30795.3 59674.8 lineto
stroke
newpath
31385.9 64108.7 moveto
31685.9 63808.7 lineto
stroke
newpath
31685.9 64108.7 moveto
31385.9 63808.7 lineto
stroke
newpath
31385.9 62927.6 moveto
31685.9 62627.6 lineto
stroke
newpath
31685.9 62927.6 moveto
31385.9 62627.6 lineto
stroke
newpath
31385.9 61746.5 moveto
31685.9 61446.5 lineto
stroke
newpath
31685.9 61746.5 moveto
31385.9 61446.5 lineto
stroke
newpath
31385.9 60565.4 moveto
31685.9 60265.4 lineto
stroke
newpath
31685.9 60565.4 moveto
31385.9 60265.4 lineto
stroke
newpath
31385.9 44620.5 moveto
31685.9 44320.5 lineto
stroke
newpath
31685.9 44620.5 moveto
31385.9 44320.5 lineto
stroke
newpath
31976.4 64699.2 moveto
32276.4 64399.2 lineto
stroke
newpath
32276.4 64699.2 moveto
31976.4 64399.2 lineto
stroke
newpath
32035.5 47691.4 moveto
32335.5 47391.4 lineto
stroke
newpath
32335.5 47691.4 moveto
32035.5 47391.4 lineto
stroke
newpath
32567 44620.5 moveto
32867 44320.5 lineto
stroke
newpath
32867 44620.5 moveto
32567 44320.5 lineto
stroke
newpath
33157.5 64699.2 moveto
33457.5 64399.2 lineto
stroke
newpath
33457.5 64699.2 moveto
33157.5 64399.2 lineto
stroke
newpath
33748.1 44620.5 moveto
34048.1 44320.5 lineto
stroke
newpath
34048.1 44620.5 moveto
33748.1 44320.5 lineto
stroke
newpath
37881.9 64108.7 moveto
38181.9 63808.7 lineto
stroke
newpath
38181.9 64108.7 moveto
37881.9 63808.7 lineto
stroke
newpath
37881.9 62927.6 moveto
38181.9 62627.6 lineto
stroke
newpath
38181.9 62927.6 moveto
37881.9 62627.6 lineto
stroke
newpath
38472.5 62337 moveto
38772.5 62037 lineto
stroke
newpath
38772.5 62337 moveto
38472.5 62037 lineto
stroke
newpath
39653.6 62691.4 moveto
39953.6 62391.4 lineto
stroke
newpath
39953.6 62691.4 moveto
39653.6 62391.4 lineto
stroke
newpath
40421.3 55900 moveto
40721.3 55600 lineto
stroke
newpath
40721.3 55900 moveto
40421.3 55600 lineto
stroke
newpath
40834.7 59856.7 moveto
41134.7 59556.7 lineto
stroke
newpath
41134.7 59856.7 moveto
40834.7 59556.7 lineto
stroke
newpath
40834.7 59029.9 moveto
41134.7 58729.9 lineto
stroke
newpath
41134.7 59029.9 moveto
40834.7 58729.9 lineto
stroke
newpath
40834.7 58203.2 moveto
41134.7 57903.2 lineto
stroke
newpath
41134.7 58203.2 moveto
40834.7 57903.2 lineto
stroke
newpath
41602.4 55841 moveto
41902.4 55541 lineto
stroke
newpath
41902.4 55841 moveto
41602.4 55541 lineto
stroke
newpath
41661.5 59856.7 moveto
41961.5 59556.7 lineto
stroke
newpath
41961.5 59856.7 moveto
41661.5 59556.7 lineto
stroke
newpath
41661.5 59029.9 moveto
41961.5 58729.9 lineto
stroke
newpath
41961.5 59029.9 moveto
41661.5 58729.9 lineto
stroke
newpath
41661.5 58203.2 moveto
41961.5 57903.2 lineto
stroke
newpath
41961.5 58203.2 moveto
41661.5 57903.2 lineto
stroke
newpath
42488.2 59856.7 moveto
42788.2 59556.7 lineto
stroke
newpath
42788.2 59856.7 moveto
42488.2 59556.7 lineto
stroke
newpath
42488.2 59029.9 moveto
42788.2 58729.9 lineto
stroke
newpath
42788.2 59029.9 moveto
42488.2 58729.9 lineto
stroke
newpath
42488.2 58203.2 moveto
42788.2 57903.2 lineto
stroke
newpath
42788.2 58203.2 moveto
42488.2 57903.2 lineto
stroke
newpath
43787.4 63163.8 moveto
44087.4 62863.8 lineto
stroke
newpath
44087.4 63163.8 moveto
43787.4 62863.8 lineto
stroke
newpath
44141.8 62455.1 moveto
44441.8 62155.1 lineto
stroke
newpath
44441.8 62455.1 moveto
44141.8 62155.1 lineto
stroke
newpath
44141.8 61451.2 moveto
44441.8 61151.2 lineto
stroke
newpath
44441.8 61451.2 moveto
44141.8 61151.2 lineto
stroke
newpath
45263.8 55663.8 moveto
45563.8 55363.8 lineto
stroke
newpath
45563.8 55663.8 moveto
45263.8 55363.8 lineto
stroke
newpath
45322.9 56785.8 moveto
45622.9 56485.8 lineto
stroke
newpath
45622.9 56785.8 moveto
45322.9 56485.8 lineto
stroke
newpath
46149.6 59148 moveto
46449.6 58848 lineto
stroke
newpath
46449.6 59148 moveto
46149.6 58848 lineto
stroke
newpath
47448.9 57671.7 moveto
47748.9 57371.7 lineto
stroke
newpath
47748.9 57671.7 moveto
47448.9 57371.7 lineto
stroke
newpath
48393.7 57907.9 moveto
48693.7 57607.9 lineto
stroke
newpath
48693.7 57907.9 moveto
48393.7 57607.9 lineto
stroke
newpath
51169.3 57199.2 moveto
51469.3 56899.2 lineto
stroke
newpath
51469.3 57199.2 moveto
51169.3 56899.2 lineto
stroke
newpath
51228.4 58970.9 moveto
51528.4 58670.9 lineto
stroke
newpath
51528.4 58970.9 moveto
51228.4 58670.9 lineto
stroke
newpath
51405.6 55427.6 moveto
51705.6 55127.6 lineto
stroke
newpath
51705.6 55427.6 moveto
51405.6 55127.6 lineto
stroke
newpath
51523.7 52829.1 moveto
51823.7 52529.1 lineto
stroke
newpath
51823.7 52829.1 moveto
51523.7 52529.1 lineto
stroke
newpath
52232.3 46569.3 moveto
52532.3 46269.3 lineto
stroke
newpath
52532.3 46569.3 moveto
52232.3 46269.3 lineto
stroke
newpath
54181.1 57730.7 moveto
54481.1 57430.7 lineto
stroke
newpath
54481.1 57730.7 moveto
54181.1 57430.7 lineto
stroke
newpath
54181.1 54187.4 moveto
54481.1 53887.4 lineto
stroke
newpath
54481.1 54187.4 moveto
54181.1 53887.4 lineto
stroke
newpath
54299.3 60092.9 moveto
54599.3 59792.9 lineto
stroke
newpath
54599.3 60092.9 moveto
54299.3 59792.9 lineto
stroke
newpath
54299.3 55959.1 moveto
54599.3 55659.1 lineto
stroke
newpath
54599.3 55959.1 moveto
54299.3 55659.1 lineto
stroke
newpath
54653.6 51116.6 moveto
54953.6 50816.6 lineto
stroke
newpath
54953.6 51116.6 moveto
54653.6 50816.6 lineto
stroke
newpath
55952.8 63281.9 moveto
56252.8 62981.9 lineto
stroke
newpath
56252.8 63281.9 moveto
55952.8 62981.9 lineto
stroke
newpath
58078.8 63281.9 moveto
58378.8 62981.9 lineto
stroke
newpath
58378.8 63281.9 moveto
58078.8 62981.9 lineto
stroke
newpath
58787.4 54541.7 moveto
59087.4 54241.7 lineto
stroke
newpath
59087.4 54541.7 moveto
58787.4 54241.7 lineto
stroke
newpath
59437 60211 moveto
59737 59911 lineto
stroke
newpath
59737 60211 moveto
59437 59911 lineto
stroke
newpath
59850.4 63045.7 moveto
60150.4 62745.7 lineto
stroke
newpath
60150.4 63045.7 moveto
59850.4 62745.7 lineto
stroke
newpath
61444.9 60742.5 moveto
61744.9 60442.5 lineto
stroke
newpath
61744.9 60742.5 moveto
61444.9 60442.5 lineto
stroke
newpath
61858.3 66589 moveto
62158.3 66289 lineto
stroke
newpath
62158.3 66589 moveto
61858.3 66289 lineto
stroke
newpath
62094.5 62337 moveto
62394.5 62037 lineto
stroke
newpath
62394.5 62337 moveto
62094.5 62037 lineto
stroke
newpath
63039.4 57789.8 moveto
63339.4 57489.8 lineto
stroke
newpath
63339.4 57789.8 moveto
63039.4 57489.8 lineto
stroke
newpath
63866.2 62337 moveto
64166.2 62037 lineto
stroke
newpath
64166.2 62337 moveto
63866.2 62037 lineto
stroke
newpath
63866.2 58793.7 moveto
64166.2 58493.7 lineto
stroke
newpath
64166.2 58793.7 moveto
63866.2 58493.7 lineto
stroke
newpath
64633.9 60742.5 moveto
64933.9 60442.5 lineto
stroke
newpath
64933.9 60742.5 moveto
64633.9 60442.5 lineto
stroke
newpath
64633.9 59561.4 moveto
64933.9 59261.4 lineto
stroke
newpath
64933.9 59561.4 moveto
64633.9 59261.4 lineto
stroke
newpath
64870.1 62573.2 moveto
65170.1 62273.2 lineto
stroke
newpath
65170.1 62573.2 moveto
64870.1 62273.2 lineto
stroke
newpath
64870.1 61451.2 moveto
65170.1 61151.2 lineto
stroke
newpath
65170.1 61451.2 moveto
64870.1 61151.2 lineto
stroke
newpath
65342.6 66529.9 moveto
65642.6 66229.9 lineto
stroke
newpath
65642.6 66529.9 moveto
65342.6 66229.9 lineto
stroke
newpath
65342.6 65053.6 moveto
65642.6 64753.6 lineto
stroke
newpath
65642.6 65053.6 moveto
65342.6 64753.6 lineto
stroke
newpath
67291.4 51470.9 moveto
67591.4 51170.9 lineto
stroke
newpath
67591.4 51470.9 moveto
67291.4 51170.9 lineto
stroke
newpath
68531.5 61510.3 moveto
68831.5 61210.3 lineto
stroke
newpath
68831.5 61510.3 moveto
68531.5 61210.3 lineto
stroke
newpath
69063 52888.2 moveto
69363 52588.2 lineto
stroke
newpath
69363 52888.2 moveto
69063 52588.2 lineto
stroke
newpath
69771.7 61155.9 moveto
70071.7 60855.9 lineto
stroke
newpath
70071.7 61155.9 moveto
69771.7 60855.9 lineto
stroke
newpath
69889.8 48163.8 moveto
70189.8 47863.8 lineto
stroke
newpath
70189.8 48163.8 moveto
69889.8 47863.8 lineto
stroke
newpath
70952.8 59384.3 moveto
71252.8 59084.3 lineto
stroke
newpath
71252.8 59384.3 moveto
70952.8 59084.3 lineto
stroke
newpath
72133.9 62337 moveto
72433.9 62037 lineto
stroke
newpath
72433.9 62337 moveto
72133.9 62037 lineto
stroke
newpath
72133.9 59384.3 moveto
72433.9 59084.3 lineto
stroke
newpath
72433.9 59384.3 moveto
72133.9 59084.3 lineto
stroke
newpath
74496.1 46392.1 moveto
74796.1 46092.1 lineto
stroke
newpath
74796.1 46392.1 moveto
74496.1 46092.1 lineto
stroke
newpath
75086.7 47573.2 moveto
75386.7 47273.2 lineto
stroke
newpath
75386.7 47573.2 moveto
75086.7 47273.2 lineto
stroke
newpath
75677.2 57966.9 moveto
75977.2 57666.9 lineto
stroke
newpath
75977.2 57966.9 moveto
75677.2 57666.9 lineto
stroke
newpath
75795.3 50289.8 moveto
76095.3 49989.8 lineto
stroke
newpath
76095.3 50289.8 moveto
75795.3 49989.8 lineto
stroke
newpath
80401.6 44620.5 moveto
80701.6 44320.5 lineto
stroke
newpath
80701.6 44620.5 moveto
80401.6 44320.5 lineto
stroke
newpath
81228.4 67652 moveto
81528.4 67352 lineto
stroke
newpath
81528.4 67652 moveto
81228.4 67352 lineto
stroke
newpath
81582.7 44620.5 moveto
81882.7 44320.5 lineto
stroke
newpath
81882.7 44620.5 moveto
81582.7 44320.5 lineto
stroke
newpath
82763.8 44620.5 moveto
83063.8 44320.5 lineto
stroke
newpath
83063.8 44620.5 moveto
82763.8 44320.5 lineto
stroke
newpath
82881.9 67652 moveto
83181.9 67352 lineto
stroke
newpath
83181.9 67652 moveto
82881.9 67352 lineto
stroke
newpath
83944.9 44620.5 moveto
84244.9 44320.5 lineto
stroke
newpath
84244.9 44620.5 moveto
83944.9 44320.5 lineto
stroke
newpath
84535.5 56313.4 moveto
84835.5 56013.4 lineto
stroke
newpath
84835.5 56313.4 moveto
84535.5 56013.4 lineto
stroke
newpath
85126 44620.5 moveto
85426 44320.5 lineto
stroke
newpath
85426 44620.5 moveto
85126 44320.5 lineto
stroke
newpath
85716.6 71195.3 moveto
86016.6 70895.3 lineto
stroke
newpath
86016.6 71195.3 moveto
85716.6 70895.3 lineto
stroke
newpath
85834.7 67061.4 moveto
86134.7 66761.4 lineto
stroke
newpath
86134.7 67061.4 moveto
85834.7 66761.4 lineto
stroke
newpath
85834.7 65762.2 moveto
86134.7 65462.2 lineto
stroke
newpath
86134.7 65762.2 moveto
85834.7 65462.2 lineto
stroke
newpath
86307.1 44620.5 moveto
86607.1 44320.5 lineto
stroke
newpath
86607.1 44620.5 moveto
86307.1 44320.5 lineto
stroke
newpath
86897.7 71195.3 moveto
87197.7 70895.3 lineto
stroke
newpath
87197.7 71195.3 moveto
86897.7 70895.3 lineto
stroke
newpath
87488.2 44620.5 moveto
87788.2 44320.5 lineto
stroke
newpath
87788.2 44620.5 moveto
87488.2 44320.5 lineto
stroke
newpath
88078.8 71195.3 moveto
88378.8 70895.3 lineto
stroke
newpath
88378.8 71195.3 moveto
88078.8 70895.3 lineto
stroke
newpath
88669.3 44620.5 moveto
88969.3 44320.5 lineto
stroke
newpath
88969.3 44620.5 moveto
88669.3 44320.5 lineto
stroke
newpath
89259.9 71195.3 moveto
89559.9 70895.3 lineto
stroke
newpath
89559.9 71195.3 moveto
89259.9 70895.3 lineto
stroke
newpath
89259.9 70014.2 moveto
89559.9 69714.2 lineto
stroke
newpath
89559.9 70014.2 moveto
89259.9 69714.2 lineto
stroke
newpath
89259.9 68833.1 moveto
89559.9 68533.1 lineto
stroke
newpath
89559.9 68833.1 moveto
89259.9 68533.1 lineto
stroke
newpath
89259.9 67652 moveto
89559.9 67352 lineto
stroke
newpath
89559.9 67652 moveto
89259.9 67352 lineto
stroke
newpath
89259.9 66470.9 moveto
89559.9 66170.9 lineto
stroke
newpath
89559.9 66470.9 moveto
89259.9 66170.9 lineto
stroke
newpath
89259.9 65289.8 moveto
89559.9 64989.8 lineto
stroke
newpath
89559.9 65289.8 moveto
89259.9 64989.8 lineto
stroke
newpath
89259.9 64108.7 moveto
89559.9 63808.7 lineto
stroke
newpath
89559.9 64108.7 moveto
89259.9 63808.7 lineto
stroke
newpath
89259.9 62927.6 moveto
89559.9 62627.6 lineto
stroke
newpath
89559.9 62927.6 moveto
89259.9 62627.6 lineto
stroke
newpath
89259.9 61746.5 moveto
89559.9 61446.5 lineto
stroke
newpath
89559.9 61746.5 moveto
89259.9 61446.5 lineto
stroke
newpath
89259.9 60565.4 moveto
89559.9 60265.4 lineto
stroke
newpath
89559.9 60565.4 moveto
89259.9 60265.4 lineto
stroke
newpath
89259.9 58203.2 moveto
89559.9 57903.2 lineto
stroke
newpath
89559.9 58203.2 moveto
89259.9 57903.2 lineto
stroke
newpath
89259.9 57022.1 moveto
89559.9 56722.1 lineto
stroke
newpath
89559.9 57022.1 moveto
89259.9 56722.1 lineto
stroke
newpath
89259.9 55841 moveto
89559.9 55541 lineto
stroke
newpath
89559.9 55841 moveto
89259.9 55541 lineto
stroke
newpath
89259.9 54659.9 moveto
89559.9 54359.9 lineto
stroke
newpath
89559.9 54659.9 moveto
89259.9 54359.9 lineto
stroke
newpath
89259.9 53478.8 moveto
89559.9 53178.8 lineto
stroke
newpath
89559.9 53478.8 moveto
89259.9 53178.8 lineto
stroke
newpath
89259.9 52297.7 moveto
89559.9 51997.7 lineto
stroke
newpath
89559.9 52297.7 moveto
89259.9 51997.7 lineto
stroke
newpath
89259.9 51116.6 moveto
89559.9 50816.6 lineto
stroke
newpath
89559.9 51116.6 moveto
89259.9 50816.6 lineto
stroke
newpath
89259.9 49935.4 moveto
89559.9 49635.4 lineto
stroke
newpath
89559.9 49935.4 moveto
89259.9 49635.4 lineto
stroke
newpath
89259.9 48754.3 moveto
89559.9 48454.3 lineto
stroke
newpath
89559.9 48754.3 moveto
89259.9 48454.3 lineto
stroke
newpath
89259.9 47573.2 moveto
89559.9 47273.2 lineto
stroke
newpath
89559.9 47573.2 moveto
89259.9 47273.2 lineto
stroke
newpath
89259.9 46392.1 moveto
89559.9 46092.1 lineto
stroke
newpath
89559.9 46392.1 moveto
89259.9 46092.1 lineto
stroke
newpath
89259.9 45211 moveto
89559.9 44911 lineto
stroke
newpath
89559.9 45211 moveto
89259.9 44911 lineto
stroke
118.11 setlinewidth
(Drill Map:) 19390.2 42521.7 phantomshow
newpath
19671.4 42043.6 moveto
19671.4 43224.7 lineto
19952.6 43224.7 lineto
20121.4 43168.5 lineto
20233.8 43056 lineto
20290.1 42943.5 lineto
20346.3 42718.5 lineto
20346.3 42549.8 lineto
20290.1 42324.8 lineto
20233.8 42212.3 lineto
20121.4 42099.8 lineto
19952.6 42043.6 lineto
19671.4 42043.6 lineto
stroke
newpath
20852.5 42043.6 moveto
20852.5 42831 lineto
stroke
newpath
20852.5 42606 moveto
20908.8 42718.5 lineto
20965 42774.8 lineto
21077.5 42831 lineto
21190 42831 lineto
stroke
newpath
21583.7 42043.6 moveto
21583.7 42831 lineto
stroke
newpath
21583.7 43224.7 moveto
21527.4 43168.5 lineto
21583.7 43112.2 lineto
21639.9 43168.5 lineto
21583.7 43224.7 lineto
21583.7 43112.2 lineto
stroke
newpath
22314.8 42043.6 moveto
22202.3 42099.8 lineto
22146.1 42212.3 lineto
22146.1 43224.7 lineto
stroke
newpath
22933.5 42043.6 moveto
22821 42099.8 lineto
22764.8 42212.3 lineto
22764.8 43224.7 lineto
stroke
newpath
24283.3 42043.6 moveto
24283.3 43224.7 lineto
24677 42381.1 lineto
25070.7 43224.7 lineto
25070.7 42043.6 lineto
stroke
newpath
26139.4 42043.6 moveto
26139.4 42662.3 lineto
26083.1 42774.8 lineto
25970.6 42831 lineto
25745.7 42831 lineto
25633.2 42774.8 lineto
stroke
newpath
26139.4 42099.8 moveto
26026.9 42043.6 lineto
25745.7 42043.6 lineto
25633.2 42099.8 lineto
25576.9 42212.3 lineto
25576.9 42324.8 lineto
25633.2 42437.3 lineto
25745.7 42493.5 lineto
26026.9 42493.5 lineto
26139.4 42549.8 lineto
stroke
newpath
26701.8 42831 moveto
26701.8 41649.9 lineto
stroke
newpath
26701.8 42774.8 moveto
26814.3 42831 lineto
27039.2 42831 lineto
27151.7 42774.8 lineto
27208 42718.5 lineto
27264.2 42606 lineto
27264.2 42268.6 lineto
27208 42156.1 lineto
27151.7 42099.8 lineto
27039.2 42043.6 lineto
26814.3 42043.6 lineto
26701.8 42099.8 lineto
stroke
newpath
27770.4 42156.1 moveto
27826.6 42099.8 lineto
27770.4 42043.6 lineto
27714.2 42099.8 lineto
27770.4 42156.1 lineto
27770.4 42043.6 lineto
stroke
newpath
27770.4 42774.8 moveto
27826.6 42718.5 lineto
27770.4 42662.3 lineto
27714.2 42718.5 lineto
27770.4 42774.8 lineto
27770.4 42662.3 lineto
stroke
newpath
18302.8 40191.4 moveto
18602.8 39891.4 lineto
stroke
newpath
18602.8 40191.4 moveto
18302.8 39891.4 lineto
stroke
(0.25mm / 0.010" \(126 holes\)) 19390.2 40041.4 phantomshow
newpath
19896.4 40744.4 moveto
20008.9 40744.4 lineto
20121.4 40688.1 lineto
20177.6 40631.9 lineto
20233.8 40519.4 lineto
20290.1 40294.4 lineto
20290.1 40013.2 lineto
20233.8 39788.3 lineto
20177.6 39675.8 lineto
20121.4 39619.5 lineto
20008.9 39563.3 lineto
19896.4 39563.3 lineto
19783.9 39619.5 lineto
19727.7 39675.8 lineto
19671.4 39788.3 lineto
19615.2 40013.2 lineto
19615.2 40294.4 lineto
19671.4 40519.4 lineto
19727.7 40631.9 lineto
19783.9 40688.1 lineto
19896.4 40744.4 lineto
stroke
newpath
20796.3 39675.8 moveto
20852.5 39619.5 lineto
20796.3 39563.3 lineto
20740 39619.5 lineto
20796.3 39675.8 lineto
20796.3 39563.3 lineto
stroke
newpath
21302.5 40631.9 moveto
21358.7 40688.1 lineto
21471.2 40744.4 lineto
21752.4 40744.4 lineto
21864.9 40688.1 lineto
21921.1 40631.9 lineto
21977.4 40519.4 lineto
21977.4 40406.9 lineto
21921.1 40238.2 lineto
21246.2 39563.3 lineto
21977.4 39563.3 lineto
stroke
newpath
23046 40744.4 moveto
22483.6 40744.4 lineto
22427.3 40182 lineto
22483.6 40238.2 lineto
22596 40294.4 lineto
22877.3 40294.4 lineto
22989.7 40238.2 lineto
23046 40182 lineto
23102.2 40069.5 lineto
23102.2 39788.3 lineto
23046 39675.8 lineto
22989.7 39619.5 lineto
22877.3 39563.3 lineto
22596 39563.3 lineto
22483.6 39619.5 lineto
22427.3 39675.8 lineto
stroke
newpath
23608.4 39563.3 moveto
23608.4 40350.7 lineto
stroke
newpath
23608.4 40238.2 moveto
23664.7 40294.4 lineto
23777.1 40350.7 lineto
23945.9 40350.7 lineto
24058.4 40294.4 lineto
24114.6 40182 lineto
24114.6 39563.3 lineto
stroke
newpath
24114.6 40182 moveto
24170.8 40294.4 lineto
24283.3 40350.7 lineto
24452.1 40350.7 lineto
24564.5 40294.4 lineto
24620.8 40182 lineto
24620.8 39563.3 lineto
stroke
newpath
25183.2 39563.3 moveto
25183.2 40350.7 lineto
stroke
newpath
25183.2 40238.2 moveto
25239.5 40294.4 lineto
25351.9 40350.7 lineto
25520.7 40350.7 lineto
25633.2 40294.4 lineto
25689.4 40182 lineto
25689.4 39563.3 lineto
stroke
newpath
25689.4 40182 moveto
25745.7 40294.4 lineto
25858.1 40350.7 lineto
26026.9 40350.7 lineto
26139.4 40294.4 lineto
26195.6 40182 lineto
26195.6 39563.3 lineto
stroke
newpath
28501.6 40800.6 moveto
27489.2 39282.1 lineto
stroke
newpath
30020.1 40744.4 moveto
30132.6 40744.4 lineto
30245.1 40688.1 lineto
30301.3 40631.9 lineto
30357.6 40519.4 lineto
30413.8 40294.4 lineto
30413.8 40013.2 lineto
30357.6 39788.3 lineto
30301.3 39675.8 lineto
30245.1 39619.5 lineto
30132.6 39563.3 lineto
30020.1 39563.3 lineto
29907.6 39619.5 lineto
29851.4 39675.8 lineto
29795.1 39788.3 lineto
29738.9 40013.2 lineto
29738.9 40294.4 lineto
29795.1 40519.4 lineto
29851.4 40631.9 lineto
29907.6 40688.1 lineto
30020.1 40744.4 lineto
stroke
newpath
30920 39675.8 moveto
30976.2 39619.5 lineto
30920 39563.3 lineto
30863.8 39619.5 lineto
30920 39675.8 lineto
30920 39563.3 lineto
stroke
newpath
31707.4 40744.4 moveto
31819.9 40744.4 lineto
31932.4 40688.1 lineto
31988.6 40631.9 lineto
32044.9 40519.4 lineto
32101.1 40294.4 lineto
32101.1 40013.2 lineto
32044.9 39788.3 lineto
31988.6 39675.8 lineto
31932.4 39619.5 lineto
31819.9 39563.3 lineto
31707.4 39563.3 lineto
31594.9 39619.5 lineto
31538.7 39675.8 lineto
31482.4 39788.3 lineto
31426.2 40013.2 lineto
31426.2 40294.4 lineto
31482.4 40519.4 lineto
31538.7 40631.9 lineto
31594.9 40688.1 lineto
31707.4 40744.4 lineto
stroke
newpath
33226 39563.3 moveto
32551 39563.3 lineto
stroke
newpath
32888.5 39563.3 moveto
32888.5 40744.4 lineto
32776 40575.7 lineto
32663.5 40463.2 lineto
32551 40406.9 lineto
stroke
newpath
33957.1 40744.4 moveto
34069.6 40744.4 lineto
34182.1 40688.1 lineto
34238.3 40631.9 lineto
34294.6 40519.4 lineto
34350.8 40294.4 lineto
34350.8 40013.2 lineto
34294.6 39788.3 lineto
34238.3 39675.8 lineto
34182.1 39619.5 lineto
34069.6 39563.3 lineto
33957.1 39563.3 lineto
33844.6 39619.5 lineto
33788.4 39675.8 lineto
33732.2 39788.3 lineto
33675.9 40013.2 lineto
33675.9 40294.4 lineto
33732.2 40519.4 lineto
33788.4 40631.9 lineto
33844.6 40688.1 lineto
33957.1 40744.4 lineto
stroke
newpath
34800.8 40744.4 moveto
34800.8 40519.4 lineto
stroke
newpath
35250.7 40744.4 moveto
35250.7 40519.4 lineto
stroke
newpath
36994.2 39113.3 moveto
36938 39169.6 lineto
36825.5 39338.3 lineto
36769.3 39450.8 lineto
36713 39619.5 lineto
36656.8 39900.7 lineto
36656.8 40125.7 lineto
36713 40406.9 lineto
36769.3 40575.7 lineto
36825.5 40688.1 lineto
36938 40856.9 lineto
36994.2 40913.1 lineto
stroke
newpath
38062.9 39563.3 moveto
37387.9 39563.3 lineto
stroke
newpath
37725.4 39563.3 moveto
37725.4 40744.4 lineto
37612.9 40575.7 lineto
37500.4 40463.2 lineto
37387.9 40406.9 lineto
stroke
newpath
38512.8 40631.9 moveto
38569 40688.1 lineto
38681.5 40744.4 lineto
38962.7 40744.4 lineto
39075.2 40688.1 lineto
39131.5 40631.9 lineto
39187.7 40519.4 lineto
39187.7 40406.9 lineto
39131.5 40238.2 lineto
38456.6 39563.3 lineto
39187.7 39563.3 lineto
stroke
newpath
40200.1 40744.4 moveto
39975.1 40744.4 lineto
39862.6 40688.1 lineto
39806.4 40631.9 lineto
39693.9 40463.2 lineto
39637.7 40238.2 lineto
39637.7 39788.3 lineto
39693.9 39675.8 lineto
39750.2 39619.5 lineto
39862.6 39563.3 lineto
40087.6 39563.3 lineto
40200.1 39619.5 lineto
40256.3 39675.8 lineto
40312.6 39788.3 lineto
40312.6 40069.5 lineto
40256.3 40182 lineto
40200.1 40238.2 lineto
40087.6 40294.4 lineto
39862.6 40294.4 lineto
39750.2 40238.2 lineto
39693.9 40182 lineto
39637.7 40069.5 lineto
stroke
newpath
41718.7 39563.3 moveto
41718.7 40744.4 lineto
stroke
newpath
42224.8 39563.3 moveto
42224.8 40182 lineto
42168.6 40294.4 lineto
42056.1 40350.7 lineto
41887.4 40350.7 lineto
41774.9 40294.4 lineto
41718.7 40238.2 lineto
stroke
newpath
42956 39563.3 moveto
42843.5 39619.5 lineto
42787.3 39675.8 lineto
42731 39788.3 lineto
42731 40125.7 lineto
42787.3 40238.2 lineto
42843.5 40294.4 lineto
42956 40350.7 lineto
43124.7 40350.7 lineto
43237.2 40294.4 lineto
43293.5 40238.2 lineto
43349.7 40125.7 lineto
43349.7 39788.3 lineto
43293.5 39675.8 lineto
43237.2 39619.5 lineto
43124.7 39563.3 lineto
42956 39563.3 lineto
stroke
newpath
44024.6 39563.3 moveto
43912.1 39619.5 lineto
43855.9 39732 lineto
43855.9 40744.4 lineto
stroke
newpath
44924.5 39619.5 moveto
44812 39563.3 lineto
44587 39563.3 lineto
44474.6 39619.5 lineto
44418.3 39732 lineto
44418.3 40182 lineto
44474.6 40294.4 lineto
44587 40350.7 lineto
44812 40350.7 lineto
44924.5 40294.4 lineto
44980.7 40182 lineto
44980.7 40069.5 lineto
44418.3 39957 lineto
stroke
newpath
45430.7 39619.5 moveto
45543.2 39563.3 lineto
45768.1 39563.3 lineto
45880.6 39619.5 lineto
45936.9 39732 lineto
45936.9 39788.3 lineto
45880.6 39900.7 lineto
45768.1 39957 lineto
45599.4 39957 lineto
45486.9 40013.2 lineto
45430.7 40125.7 lineto
45430.7 40182 lineto
45486.9 40294.4 lineto
45599.4 40350.7 lineto
45768.1 40350.7 lineto
45880.6 40294.4 lineto
stroke
newpath
46330.6 39113.3 moveto
46386.8 39169.6 lineto
46499.3 39338.3 lineto
46555.6 39450.8 lineto
46611.8 39619.5 lineto
46668 39900.7 lineto
46668 40125.7 lineto
46611.8 40406.9 lineto
46555.6 40575.7 lineto
46499.3 40688.1 lineto
46386.8 40856.9 lineto
46330.6 40913.1 lineto
stroke
showpage
grestore
%%EOF
