G04 (created by PCBNEW (2013-03-31 BZR 4008)-stable) date 08/12/2013 18:15:34*
%MOIN*%
G04 Gerber Fmt 3.4, Leading zero omitted, Abs format*
%FSLAX34Y34*%
G01*
G70*
G90*
G04 APERTURE LIST*
%ADD10C,0*%
%ADD11C,0.00393701*%
%ADD12C,0.0179921*%
%ADD13C,0.012126*%
%ADD14C,0.00606299*%
G04 APERTURE END LIST*
G54D10*
G54D11*
X33858Y-9566D02*
X33858Y-18897D01*
X7322Y-9566D02*
X7322Y-18897D01*
X7284Y-18897D02*
G75*
G03X7284Y-18897I0J0D01*
G74*
G01*
X7282Y-18897D02*
X7284Y-18897D01*
X7283Y-18896D02*
X7283Y-18898D01*
X7322Y-18897D02*
X7874Y-18897D01*
X7322Y-9566D02*
X7874Y-9566D01*
X33858Y-9566D02*
X7874Y-9566D01*
X7874Y-18897D02*
X33858Y-18897D01*
G54D12*
X30905Y-9842D03*
X30511Y-9842D03*
X30118Y-9842D03*
X29724Y-9842D03*
X30905Y-10236D03*
X30905Y-10629D03*
X30905Y-11023D03*
X30905Y-11417D03*
X30905Y-11811D03*
X30905Y-12204D03*
X30905Y-12598D03*
X30905Y-12992D03*
X30905Y-13385D03*
X30905Y-14173D03*
X30905Y-14566D03*
X30905Y-14960D03*
X30905Y-15354D03*
X30905Y-15748D03*
X30905Y-16141D03*
X30905Y-16535D03*
X30905Y-16929D03*
X30905Y-17322D03*
X30905Y-17716D03*
X30905Y-18110D03*
X30905Y-18503D03*
X30708Y-18700D03*
X30314Y-18700D03*
X29921Y-18700D03*
X29527Y-18700D03*
X29133Y-18700D03*
X28740Y-18700D03*
X28346Y-18700D03*
X27952Y-18700D03*
X12401Y-18700D03*
X12007Y-18700D03*
X11614Y-18700D03*
X11220Y-18700D03*
X10826Y-18700D03*
X10433Y-18700D03*
X10039Y-18700D03*
X9645Y-18700D03*
X9251Y-18700D03*
X8858Y-18700D03*
X8464Y-18700D03*
X8070Y-18700D03*
X7677Y-18700D03*
X9448Y-13582D03*
X9842Y-13582D03*
X10236Y-13582D03*
X10629Y-13582D03*
X11023Y-13582D03*
X11417Y-13582D03*
X11614Y-13385D03*
X11614Y-12992D03*
X11614Y-12598D03*
X11614Y-12204D03*
X11811Y-12007D03*
X12204Y-12007D03*
X13976Y-12795D03*
X13779Y-12598D03*
X13779Y-12204D03*
X25196Y-13779D03*
X24803Y-13779D03*
X24409Y-13188D03*
X25196Y-12795D03*
X21850Y-12795D03*
X22440Y-12795D03*
X22440Y-13976D03*
X25984Y-18110D03*
X26181Y-17716D03*
X14763Y-13622D03*
X15039Y-13622D03*
X15314Y-13622D03*
X15039Y-13897D03*
X15039Y-14173D03*
X15314Y-13897D03*
X15314Y-14173D03*
X14763Y-13897D03*
X14763Y-14173D03*
X15866Y-12755D03*
X19251Y-14921D03*
X18287Y-15098D03*
X29330Y-14803D03*
X24173Y-15944D03*
X26417Y-16811D03*
X18228Y-13917D03*
X26377Y-14251D03*
X21771Y-11377D03*
X29763Y-11220D03*
X22933Y-11397D03*
X29763Y-11653D03*
X22933Y-11889D03*
X28228Y-11023D03*
X28779Y-11023D03*
X21102Y-12559D03*
X20511Y-12480D03*
X19803Y-12480D03*
X19251Y-13543D03*
X19370Y-16535D03*
X19212Y-15511D03*
X15019Y-14960D03*
X18326Y-15964D03*
X18562Y-18051D03*
X22165Y-14311D03*
X19212Y-14330D03*
X18208Y-14507D03*
X14625Y-14940D03*
X16968Y-14350D03*
X15748Y-12519D03*
X16240Y-15019D03*
X23996Y-13070D03*
X14370Y-12677D03*
X22775Y-12716D03*
X16259Y-14645D03*
X22696Y-13326D03*
X17283Y-14271D03*
X21633Y-13326D03*
X16535Y-13858D03*
X20964Y-13503D03*
X22696Y-13720D03*
X15866Y-13090D03*
X22775Y-13090D03*
X11830Y-17677D03*
X20748Y-15393D03*
X23582Y-16417D03*
X24448Y-17519D03*
G54D13*
X24173Y-15944D02*
X24173Y-16338D01*
X26299Y-16929D02*
X26417Y-16811D01*
X24763Y-16929D02*
X26299Y-16929D01*
X24173Y-16338D02*
X24763Y-16929D01*
G54D14*
X21181Y-13720D02*
X20964Y-13503D01*
X22696Y-13720D02*
X21181Y-13720D01*
G54D10*
G36*
X31072Y-18787D02*
X29944Y-18787D01*
X29944Y-11617D01*
X29944Y-11184D01*
X29917Y-11118D01*
X29866Y-11067D01*
X29799Y-11039D01*
X29727Y-11039D01*
X29661Y-11067D01*
X29610Y-11117D01*
X29582Y-11184D01*
X29582Y-11256D01*
X29610Y-11322D01*
X29661Y-11373D01*
X29727Y-11401D01*
X29799Y-11401D01*
X29866Y-11373D01*
X29917Y-11323D01*
X29944Y-11256D01*
X29944Y-11184D01*
X29944Y-11617D01*
X29917Y-11551D01*
X29866Y-11500D01*
X29799Y-11472D01*
X29727Y-11472D01*
X29661Y-11500D01*
X29610Y-11550D01*
X29582Y-11617D01*
X29582Y-11689D01*
X29610Y-11755D01*
X29661Y-11806D01*
X29727Y-11834D01*
X29799Y-11834D01*
X29866Y-11806D01*
X29917Y-11756D01*
X29944Y-11689D01*
X29944Y-11617D01*
X29944Y-18787D01*
X29511Y-18787D01*
X29511Y-14767D01*
X29484Y-14700D01*
X29433Y-14649D01*
X29366Y-14622D01*
X29294Y-14622D01*
X29228Y-14649D01*
X29177Y-14700D01*
X29149Y-14767D01*
X29149Y-14838D01*
X29177Y-14905D01*
X29228Y-14956D01*
X29294Y-14984D01*
X29366Y-14984D01*
X29433Y-14956D01*
X29483Y-14905D01*
X29511Y-14839D01*
X29511Y-14767D01*
X29511Y-18787D01*
X28960Y-18787D01*
X28960Y-10987D01*
X28932Y-10921D01*
X28882Y-10870D01*
X28815Y-10842D01*
X28743Y-10842D01*
X28677Y-10870D01*
X28626Y-10921D01*
X28598Y-10987D01*
X28598Y-11059D01*
X28626Y-11125D01*
X28676Y-11176D01*
X28743Y-11204D01*
X28815Y-11204D01*
X28881Y-11177D01*
X28932Y-11126D01*
X28960Y-11059D01*
X28960Y-10987D01*
X28960Y-18787D01*
X28409Y-18787D01*
X28409Y-10987D01*
X28381Y-10921D01*
X28330Y-10870D01*
X28264Y-10842D01*
X28192Y-10842D01*
X28126Y-10870D01*
X28075Y-10921D01*
X28047Y-10987D01*
X28047Y-11059D01*
X28074Y-11125D01*
X28125Y-11176D01*
X28192Y-11204D01*
X28264Y-11204D01*
X28330Y-11177D01*
X28381Y-11126D01*
X28409Y-11059D01*
X28409Y-10987D01*
X28409Y-18787D01*
X26598Y-18787D01*
X26598Y-16775D01*
X26570Y-16708D01*
X26558Y-16696D01*
X26558Y-14216D01*
X26531Y-14149D01*
X26480Y-14098D01*
X26414Y-14071D01*
X26342Y-14071D01*
X26275Y-14098D01*
X26224Y-14149D01*
X26197Y-14215D01*
X26197Y-14287D01*
X26224Y-14354D01*
X26275Y-14405D01*
X26341Y-14432D01*
X26413Y-14432D01*
X26480Y-14405D01*
X26531Y-14354D01*
X26558Y-14288D01*
X26558Y-14216D01*
X26558Y-16696D01*
X26519Y-16657D01*
X26453Y-16630D01*
X26381Y-16630D01*
X26314Y-16657D01*
X26264Y-16708D01*
X26236Y-16774D01*
X26236Y-16777D01*
X26236Y-16777D01*
X24826Y-16777D01*
X24324Y-16275D01*
X24324Y-16049D01*
X24326Y-16047D01*
X24354Y-15981D01*
X24354Y-15909D01*
X24326Y-15842D01*
X24275Y-15791D01*
X24209Y-15764D01*
X24176Y-15763D01*
X24176Y-13035D01*
X24149Y-12968D01*
X24098Y-12917D01*
X24032Y-12889D01*
X23960Y-12889D01*
X23893Y-12917D01*
X23842Y-12968D01*
X23815Y-13034D01*
X23815Y-13106D01*
X23842Y-13173D01*
X23893Y-13224D01*
X23959Y-13251D01*
X24031Y-13251D01*
X24098Y-13224D01*
X24149Y-13173D01*
X24176Y-13107D01*
X24176Y-13035D01*
X24176Y-15763D01*
X24137Y-15763D01*
X24070Y-15791D01*
X24019Y-15842D01*
X23992Y-15908D01*
X23992Y-15980D01*
X24019Y-16047D01*
X24021Y-16049D01*
X24021Y-16338D01*
X24033Y-16396D01*
X24066Y-16445D01*
X24656Y-17036D01*
X24705Y-17069D01*
X24705Y-17069D01*
X24763Y-17080D01*
X26299Y-17080D01*
X26357Y-17069D01*
X26406Y-17036D01*
X26450Y-16991D01*
X26453Y-16991D01*
X26519Y-16964D01*
X26570Y-16913D01*
X26598Y-16847D01*
X26598Y-16775D01*
X26598Y-18787D01*
X24629Y-18787D01*
X24629Y-17483D01*
X24602Y-17417D01*
X24551Y-17366D01*
X24484Y-17338D01*
X24412Y-17338D01*
X24346Y-17366D01*
X24295Y-17417D01*
X24267Y-17483D01*
X24267Y-17555D01*
X24295Y-17622D01*
X24346Y-17672D01*
X24412Y-17700D01*
X24484Y-17700D01*
X24551Y-17673D01*
X24602Y-17622D01*
X24629Y-17555D01*
X24629Y-17483D01*
X24629Y-18787D01*
X23763Y-18787D01*
X23763Y-16381D01*
X23736Y-16314D01*
X23685Y-16264D01*
X23618Y-16236D01*
X23546Y-16236D01*
X23480Y-16263D01*
X23429Y-16314D01*
X23401Y-16381D01*
X23401Y-16453D01*
X23429Y-16519D01*
X23480Y-16570D01*
X23546Y-16598D01*
X23618Y-16598D01*
X23685Y-16570D01*
X23735Y-16519D01*
X23763Y-16453D01*
X23763Y-16381D01*
X23763Y-18787D01*
X23114Y-18787D01*
X23114Y-11853D01*
X23114Y-11361D01*
X23086Y-11295D01*
X23035Y-11244D01*
X22969Y-11216D01*
X22897Y-11216D01*
X22830Y-11244D01*
X22779Y-11295D01*
X22752Y-11361D01*
X22752Y-11433D01*
X22779Y-11499D01*
X22830Y-11550D01*
X22896Y-11578D01*
X22968Y-11578D01*
X23035Y-11551D01*
X23086Y-11500D01*
X23113Y-11433D01*
X23114Y-11361D01*
X23114Y-11853D01*
X23086Y-11787D01*
X23035Y-11736D01*
X22969Y-11708D01*
X22897Y-11708D01*
X22830Y-11736D01*
X22779Y-11787D01*
X22752Y-11853D01*
X22752Y-11925D01*
X22779Y-11992D01*
X22830Y-12043D01*
X22896Y-12070D01*
X22968Y-12070D01*
X23035Y-12043D01*
X23086Y-11992D01*
X23113Y-11925D01*
X23114Y-11853D01*
X23114Y-18787D01*
X22956Y-18787D01*
X22956Y-13054D01*
X22956Y-12680D01*
X22929Y-12614D01*
X22878Y-12563D01*
X22811Y-12535D01*
X22739Y-12535D01*
X22673Y-12563D01*
X22622Y-12613D01*
X22594Y-12680D01*
X22594Y-12752D01*
X22622Y-12818D01*
X22672Y-12869D01*
X22739Y-12897D01*
X22811Y-12897D01*
X22877Y-12869D01*
X22928Y-12819D01*
X22956Y-12752D01*
X22956Y-12680D01*
X22956Y-13054D01*
X22929Y-12988D01*
X22878Y-12937D01*
X22811Y-12909D01*
X22739Y-12909D01*
X22673Y-12937D01*
X22622Y-12987D01*
X22594Y-13054D01*
X22594Y-13126D01*
X22611Y-13166D01*
X22594Y-13173D01*
X22543Y-13224D01*
X22515Y-13290D01*
X22515Y-13362D01*
X22543Y-13429D01*
X22594Y-13480D01*
X22660Y-13507D01*
X22732Y-13507D01*
X22799Y-13480D01*
X22850Y-13429D01*
X22877Y-13362D01*
X22877Y-13290D01*
X22861Y-13250D01*
X22877Y-13244D01*
X22928Y-13193D01*
X22956Y-13126D01*
X22956Y-13054D01*
X22956Y-18787D01*
X22877Y-18787D01*
X22877Y-13684D01*
X22850Y-13618D01*
X22799Y-13567D01*
X22732Y-13539D01*
X22661Y-13539D01*
X22594Y-13567D01*
X22562Y-13599D01*
X21952Y-13599D01*
X21952Y-11342D01*
X21925Y-11275D01*
X21874Y-11224D01*
X21807Y-11197D01*
X21735Y-11197D01*
X21669Y-11224D01*
X21618Y-11275D01*
X21590Y-11341D01*
X21590Y-11413D01*
X21618Y-11480D01*
X21669Y-11531D01*
X21735Y-11558D01*
X21807Y-11558D01*
X21873Y-11531D01*
X21924Y-11480D01*
X21952Y-11414D01*
X21952Y-11342D01*
X21952Y-13599D01*
X21814Y-13599D01*
X21814Y-13290D01*
X21787Y-13224D01*
X21736Y-13173D01*
X21670Y-13145D01*
X21598Y-13145D01*
X21531Y-13173D01*
X21480Y-13224D01*
X21452Y-13290D01*
X21452Y-13362D01*
X21480Y-13429D01*
X21531Y-13480D01*
X21597Y-13507D01*
X21669Y-13507D01*
X21736Y-13480D01*
X21787Y-13429D01*
X21814Y-13362D01*
X21814Y-13290D01*
X21814Y-13599D01*
X21283Y-13599D01*
X21283Y-12523D01*
X21255Y-12456D01*
X21204Y-12405D01*
X21138Y-12378D01*
X21066Y-12378D01*
X21000Y-12405D01*
X20949Y-12456D01*
X20921Y-12522D01*
X20921Y-12594D01*
X20948Y-12661D01*
X20999Y-12712D01*
X21066Y-12739D01*
X21138Y-12739D01*
X21204Y-12712D01*
X21255Y-12661D01*
X21283Y-12595D01*
X21283Y-12523D01*
X21283Y-13599D01*
X21231Y-13599D01*
X21145Y-13513D01*
X21145Y-13468D01*
X21118Y-13401D01*
X21067Y-13350D01*
X21000Y-13323D01*
X20928Y-13323D01*
X20862Y-13350D01*
X20811Y-13401D01*
X20783Y-13467D01*
X20783Y-13539D01*
X20811Y-13606D01*
X20861Y-13657D01*
X20928Y-13684D01*
X20973Y-13684D01*
X21095Y-13806D01*
X21134Y-13832D01*
X21134Y-13832D01*
X21181Y-13841D01*
X22562Y-13841D01*
X22594Y-13873D01*
X22660Y-13901D01*
X22732Y-13901D01*
X22799Y-13873D01*
X22850Y-13823D01*
X22877Y-13756D01*
X22877Y-13684D01*
X22877Y-18787D01*
X22346Y-18787D01*
X22346Y-14275D01*
X22318Y-14208D01*
X22267Y-14157D01*
X22201Y-14130D01*
X22129Y-14130D01*
X22063Y-14157D01*
X22012Y-14208D01*
X21984Y-14274D01*
X21984Y-14346D01*
X22011Y-14413D01*
X22062Y-14464D01*
X22129Y-14491D01*
X22201Y-14491D01*
X22267Y-14464D01*
X22318Y-14413D01*
X22346Y-14347D01*
X22346Y-14275D01*
X22346Y-18787D01*
X20928Y-18787D01*
X20928Y-15357D01*
X20901Y-15291D01*
X20850Y-15240D01*
X20784Y-15212D01*
X20712Y-15212D01*
X20692Y-15220D01*
X20692Y-12444D01*
X20665Y-12377D01*
X20614Y-12327D01*
X20547Y-12299D01*
X20475Y-12299D01*
X20409Y-12326D01*
X20358Y-12377D01*
X20330Y-12444D01*
X20330Y-12516D01*
X20358Y-12582D01*
X20409Y-12633D01*
X20475Y-12661D01*
X20547Y-12661D01*
X20614Y-12633D01*
X20665Y-12582D01*
X20692Y-12516D01*
X20692Y-12444D01*
X20692Y-15220D01*
X20645Y-15240D01*
X20594Y-15291D01*
X20567Y-15357D01*
X20567Y-15429D01*
X20594Y-15496D01*
X20645Y-15546D01*
X20711Y-15574D01*
X20783Y-15574D01*
X20850Y-15547D01*
X20901Y-15496D01*
X20928Y-15429D01*
X20928Y-15357D01*
X20928Y-18787D01*
X19984Y-18787D01*
X19984Y-12444D01*
X19956Y-12377D01*
X19905Y-12327D01*
X19839Y-12299D01*
X19767Y-12299D01*
X19700Y-12326D01*
X19649Y-12377D01*
X19622Y-12444D01*
X19622Y-12516D01*
X19649Y-12582D01*
X19700Y-12633D01*
X19767Y-12661D01*
X19838Y-12661D01*
X19905Y-12633D01*
X19956Y-12582D01*
X19984Y-12516D01*
X19984Y-12444D01*
X19984Y-18787D01*
X19551Y-18787D01*
X19551Y-16499D01*
X19523Y-16433D01*
X19472Y-16382D01*
X19432Y-16365D01*
X19432Y-14885D01*
X19432Y-13507D01*
X19405Y-13440D01*
X19354Y-13390D01*
X19288Y-13362D01*
X19216Y-13362D01*
X19149Y-13389D01*
X19098Y-13440D01*
X19071Y-13507D01*
X19071Y-13579D01*
X19098Y-13645D01*
X19149Y-13696D01*
X19215Y-13724D01*
X19287Y-13724D01*
X19354Y-13696D01*
X19405Y-13645D01*
X19432Y-13579D01*
X19432Y-13507D01*
X19432Y-14885D01*
X19405Y-14818D01*
X19393Y-14807D01*
X19393Y-14294D01*
X19366Y-14228D01*
X19315Y-14177D01*
X19248Y-14149D01*
X19176Y-14149D01*
X19110Y-14177D01*
X19059Y-14228D01*
X19031Y-14294D01*
X19031Y-14366D01*
X19059Y-14433D01*
X19109Y-14483D01*
X19176Y-14511D01*
X19248Y-14511D01*
X19314Y-14484D01*
X19365Y-14433D01*
X19393Y-14366D01*
X19393Y-14294D01*
X19393Y-14807D01*
X19354Y-14767D01*
X19288Y-14740D01*
X19216Y-14740D01*
X19149Y-14767D01*
X19098Y-14818D01*
X19071Y-14885D01*
X19071Y-14957D01*
X19098Y-15023D01*
X19149Y-15074D01*
X19215Y-15102D01*
X19287Y-15102D01*
X19354Y-15074D01*
X19405Y-15023D01*
X19432Y-14957D01*
X19432Y-14885D01*
X19432Y-16365D01*
X19406Y-16354D01*
X19393Y-16354D01*
X19393Y-15475D01*
X19366Y-15409D01*
X19315Y-15358D01*
X19248Y-15330D01*
X19176Y-15330D01*
X19110Y-15358D01*
X19059Y-15409D01*
X19031Y-15475D01*
X19031Y-15547D01*
X19059Y-15614D01*
X19109Y-15665D01*
X19176Y-15692D01*
X19248Y-15692D01*
X19314Y-15665D01*
X19365Y-15614D01*
X19393Y-15547D01*
X19393Y-15475D01*
X19393Y-16354D01*
X19334Y-16354D01*
X19267Y-16381D01*
X19216Y-16432D01*
X19189Y-16499D01*
X19189Y-16571D01*
X19216Y-16637D01*
X19267Y-16688D01*
X19333Y-16716D01*
X19405Y-16716D01*
X19472Y-16688D01*
X19523Y-16638D01*
X19550Y-16571D01*
X19551Y-16499D01*
X19551Y-18787D01*
X18743Y-18787D01*
X18743Y-18015D01*
X18716Y-17948D01*
X18665Y-17897D01*
X18599Y-17870D01*
X18527Y-17870D01*
X18507Y-17878D01*
X18507Y-15928D01*
X18480Y-15862D01*
X18468Y-15850D01*
X18468Y-15062D01*
X18440Y-14996D01*
X18409Y-14964D01*
X18409Y-13881D01*
X18381Y-13814D01*
X18330Y-13764D01*
X18264Y-13736D01*
X18192Y-13736D01*
X18126Y-13763D01*
X18075Y-13814D01*
X18047Y-13881D01*
X18047Y-13953D01*
X18074Y-14019D01*
X18125Y-14070D01*
X18192Y-14098D01*
X18264Y-14098D01*
X18330Y-14070D01*
X18381Y-14019D01*
X18409Y-13953D01*
X18409Y-13881D01*
X18409Y-14964D01*
X18390Y-14945D01*
X18389Y-14944D01*
X18389Y-14472D01*
X18362Y-14405D01*
X18311Y-14354D01*
X18244Y-14327D01*
X18172Y-14326D01*
X18106Y-14354D01*
X18055Y-14405D01*
X18027Y-14471D01*
X18027Y-14543D01*
X18055Y-14610D01*
X18106Y-14661D01*
X18172Y-14688D01*
X18244Y-14688D01*
X18311Y-14661D01*
X18361Y-14610D01*
X18389Y-14544D01*
X18389Y-14472D01*
X18389Y-14944D01*
X18323Y-14917D01*
X18251Y-14917D01*
X18185Y-14944D01*
X18134Y-14995D01*
X18106Y-15062D01*
X18106Y-15134D01*
X18133Y-15200D01*
X18184Y-15251D01*
X18251Y-15279D01*
X18323Y-15279D01*
X18389Y-15251D01*
X18440Y-15201D01*
X18468Y-15134D01*
X18468Y-15062D01*
X18468Y-15850D01*
X18429Y-15811D01*
X18362Y-15783D01*
X18290Y-15783D01*
X18224Y-15811D01*
X18173Y-15861D01*
X18145Y-15928D01*
X18145Y-16000D01*
X18173Y-16066D01*
X18224Y-16117D01*
X18290Y-16145D01*
X18362Y-16145D01*
X18429Y-16118D01*
X18480Y-16067D01*
X18507Y-16000D01*
X18507Y-15928D01*
X18507Y-17878D01*
X18460Y-17897D01*
X18409Y-17948D01*
X18382Y-18015D01*
X18382Y-18087D01*
X18409Y-18153D01*
X18460Y-18204D01*
X18526Y-18232D01*
X18598Y-18232D01*
X18665Y-18204D01*
X18716Y-18153D01*
X18743Y-18087D01*
X18743Y-18015D01*
X18743Y-18787D01*
X17464Y-18787D01*
X17464Y-14235D01*
X17436Y-14169D01*
X17386Y-14118D01*
X17319Y-14090D01*
X17247Y-14090D01*
X17181Y-14118D01*
X17130Y-14169D01*
X17104Y-14230D01*
X17071Y-14197D01*
X17004Y-14169D01*
X16932Y-14169D01*
X16866Y-14196D01*
X16815Y-14247D01*
X16787Y-14314D01*
X16787Y-14386D01*
X16815Y-14452D01*
X16865Y-14503D01*
X16932Y-14531D01*
X17004Y-14531D01*
X17070Y-14503D01*
X17121Y-14453D01*
X17147Y-14391D01*
X17180Y-14424D01*
X17247Y-14452D01*
X17319Y-14452D01*
X17385Y-14425D01*
X17436Y-14374D01*
X17464Y-14307D01*
X17464Y-14235D01*
X17464Y-18787D01*
X16716Y-18787D01*
X16716Y-13822D01*
X16688Y-13755D01*
X16638Y-13704D01*
X16571Y-13677D01*
X16499Y-13677D01*
X16433Y-13704D01*
X16382Y-13755D01*
X16354Y-13822D01*
X16354Y-13894D01*
X16381Y-13960D01*
X16432Y-14011D01*
X16499Y-14039D01*
X16571Y-14039D01*
X16637Y-14011D01*
X16688Y-13960D01*
X16716Y-13894D01*
X16716Y-13822D01*
X16716Y-18787D01*
X16440Y-18787D01*
X16440Y-14609D01*
X16413Y-14543D01*
X16362Y-14492D01*
X16295Y-14464D01*
X16224Y-14464D01*
X16157Y-14492D01*
X16106Y-14543D01*
X16078Y-14609D01*
X16078Y-14681D01*
X16106Y-14748D01*
X16157Y-14798D01*
X16223Y-14826D01*
X16295Y-14826D01*
X16362Y-14799D01*
X16413Y-14748D01*
X16440Y-14681D01*
X16440Y-14609D01*
X16440Y-18787D01*
X16421Y-18787D01*
X16421Y-14983D01*
X16393Y-14917D01*
X16342Y-14866D01*
X16276Y-14838D01*
X16204Y-14838D01*
X16137Y-14866D01*
X16086Y-14917D01*
X16059Y-14983D01*
X16059Y-15055D01*
X16086Y-15122D01*
X16137Y-15172D01*
X16204Y-15200D01*
X16275Y-15200D01*
X16342Y-15173D01*
X16393Y-15122D01*
X16421Y-15055D01*
X16421Y-14983D01*
X16421Y-18787D01*
X16047Y-18787D01*
X16047Y-13054D01*
X16019Y-12988D01*
X15968Y-12937D01*
X15928Y-12920D01*
X15928Y-12483D01*
X15901Y-12417D01*
X15850Y-12366D01*
X15784Y-12338D01*
X15712Y-12338D01*
X15645Y-12366D01*
X15594Y-12417D01*
X15567Y-12483D01*
X15567Y-12555D01*
X15594Y-12622D01*
X15645Y-12672D01*
X15711Y-12700D01*
X15783Y-12700D01*
X15850Y-12673D01*
X15901Y-12622D01*
X15928Y-12555D01*
X15928Y-12483D01*
X15928Y-12920D01*
X15902Y-12909D01*
X15830Y-12909D01*
X15763Y-12937D01*
X15712Y-12987D01*
X15685Y-13054D01*
X15685Y-13126D01*
X15712Y-13192D01*
X15763Y-13243D01*
X15829Y-13271D01*
X15901Y-13271D01*
X15968Y-13244D01*
X16019Y-13193D01*
X16047Y-13126D01*
X16047Y-13054D01*
X16047Y-18787D01*
X15200Y-18787D01*
X15200Y-14924D01*
X15173Y-14858D01*
X15122Y-14807D01*
X15055Y-14779D01*
X14983Y-14779D01*
X14917Y-14807D01*
X14866Y-14858D01*
X14838Y-14924D01*
X14838Y-14996D01*
X14866Y-15062D01*
X14917Y-15113D01*
X14983Y-15141D01*
X15055Y-15141D01*
X15122Y-15114D01*
X15172Y-15063D01*
X15200Y-14996D01*
X15200Y-14924D01*
X15200Y-18787D01*
X14806Y-18787D01*
X14806Y-14905D01*
X14779Y-14838D01*
X14728Y-14787D01*
X14662Y-14760D01*
X14590Y-14760D01*
X14551Y-14776D01*
X14551Y-12641D01*
X14523Y-12574D01*
X14472Y-12523D01*
X14406Y-12496D01*
X14334Y-12496D01*
X14267Y-12523D01*
X14216Y-12574D01*
X14189Y-12641D01*
X14189Y-12712D01*
X14216Y-12779D01*
X14267Y-12830D01*
X14333Y-12858D01*
X14405Y-12858D01*
X14472Y-12830D01*
X14523Y-12779D01*
X14550Y-12713D01*
X14551Y-12641D01*
X14551Y-14776D01*
X14523Y-14787D01*
X14472Y-14838D01*
X14445Y-14904D01*
X14445Y-14976D01*
X14472Y-15043D01*
X14523Y-15094D01*
X14589Y-15121D01*
X14661Y-15121D01*
X14728Y-15094D01*
X14779Y-15043D01*
X14806Y-14977D01*
X14806Y-14905D01*
X14806Y-18787D01*
X12011Y-18787D01*
X12011Y-17641D01*
X11984Y-17574D01*
X11933Y-17523D01*
X11866Y-17496D01*
X11794Y-17496D01*
X11728Y-17523D01*
X11677Y-17574D01*
X11649Y-17641D01*
X11649Y-17712D01*
X11677Y-17779D01*
X11728Y-17830D01*
X11794Y-17858D01*
X11866Y-17858D01*
X11933Y-17830D01*
X11983Y-17779D01*
X12011Y-17713D01*
X12011Y-17641D01*
X12011Y-18787D01*
X7874Y-18787D01*
X7433Y-18787D01*
X7433Y-9677D01*
X7874Y-9677D01*
X31072Y-9677D01*
X31072Y-18787D01*
X31072Y-18787D01*
G37*
G54D14*
X31072Y-18787D02*
X29944Y-18787D01*
X29944Y-11617D01*
X29944Y-11184D01*
X29917Y-11118D01*
X29866Y-11067D01*
X29799Y-11039D01*
X29727Y-11039D01*
X29661Y-11067D01*
X29610Y-11117D01*
X29582Y-11184D01*
X29582Y-11256D01*
X29610Y-11322D01*
X29661Y-11373D01*
X29727Y-11401D01*
X29799Y-11401D01*
X29866Y-11373D01*
X29917Y-11323D01*
X29944Y-11256D01*
X29944Y-11184D01*
X29944Y-11617D01*
X29917Y-11551D01*
X29866Y-11500D01*
X29799Y-11472D01*
X29727Y-11472D01*
X29661Y-11500D01*
X29610Y-11550D01*
X29582Y-11617D01*
X29582Y-11689D01*
X29610Y-11755D01*
X29661Y-11806D01*
X29727Y-11834D01*
X29799Y-11834D01*
X29866Y-11806D01*
X29917Y-11756D01*
X29944Y-11689D01*
X29944Y-11617D01*
X29944Y-18787D01*
X29511Y-18787D01*
X29511Y-14767D01*
X29484Y-14700D01*
X29433Y-14649D01*
X29366Y-14622D01*
X29294Y-14622D01*
X29228Y-14649D01*
X29177Y-14700D01*
X29149Y-14767D01*
X29149Y-14838D01*
X29177Y-14905D01*
X29228Y-14956D01*
X29294Y-14984D01*
X29366Y-14984D01*
X29433Y-14956D01*
X29483Y-14905D01*
X29511Y-14839D01*
X29511Y-14767D01*
X29511Y-18787D01*
X28960Y-18787D01*
X28960Y-10987D01*
X28932Y-10921D01*
X28882Y-10870D01*
X28815Y-10842D01*
X28743Y-10842D01*
X28677Y-10870D01*
X28626Y-10921D01*
X28598Y-10987D01*
X28598Y-11059D01*
X28626Y-11125D01*
X28676Y-11176D01*
X28743Y-11204D01*
X28815Y-11204D01*
X28881Y-11177D01*
X28932Y-11126D01*
X28960Y-11059D01*
X28960Y-10987D01*
X28960Y-18787D01*
X28409Y-18787D01*
X28409Y-10987D01*
X28381Y-10921D01*
X28330Y-10870D01*
X28264Y-10842D01*
X28192Y-10842D01*
X28126Y-10870D01*
X28075Y-10921D01*
X28047Y-10987D01*
X28047Y-11059D01*
X28074Y-11125D01*
X28125Y-11176D01*
X28192Y-11204D01*
X28264Y-11204D01*
X28330Y-11177D01*
X28381Y-11126D01*
X28409Y-11059D01*
X28409Y-10987D01*
X28409Y-18787D01*
X26598Y-18787D01*
X26598Y-16775D01*
X26570Y-16708D01*
X26558Y-16696D01*
X26558Y-14216D01*
X26531Y-14149D01*
X26480Y-14098D01*
X26414Y-14071D01*
X26342Y-14071D01*
X26275Y-14098D01*
X26224Y-14149D01*
X26197Y-14215D01*
X26197Y-14287D01*
X26224Y-14354D01*
X26275Y-14405D01*
X26341Y-14432D01*
X26413Y-14432D01*
X26480Y-14405D01*
X26531Y-14354D01*
X26558Y-14288D01*
X26558Y-14216D01*
X26558Y-16696D01*
X26519Y-16657D01*
X26453Y-16630D01*
X26381Y-16630D01*
X26314Y-16657D01*
X26264Y-16708D01*
X26236Y-16774D01*
X26236Y-16777D01*
X26236Y-16777D01*
X24826Y-16777D01*
X24324Y-16275D01*
X24324Y-16049D01*
X24326Y-16047D01*
X24354Y-15981D01*
X24354Y-15909D01*
X24326Y-15842D01*
X24275Y-15791D01*
X24209Y-15764D01*
X24176Y-15763D01*
X24176Y-13035D01*
X24149Y-12968D01*
X24098Y-12917D01*
X24032Y-12889D01*
X23960Y-12889D01*
X23893Y-12917D01*
X23842Y-12968D01*
X23815Y-13034D01*
X23815Y-13106D01*
X23842Y-13173D01*
X23893Y-13224D01*
X23959Y-13251D01*
X24031Y-13251D01*
X24098Y-13224D01*
X24149Y-13173D01*
X24176Y-13107D01*
X24176Y-13035D01*
X24176Y-15763D01*
X24137Y-15763D01*
X24070Y-15791D01*
X24019Y-15842D01*
X23992Y-15908D01*
X23992Y-15980D01*
X24019Y-16047D01*
X24021Y-16049D01*
X24021Y-16338D01*
X24033Y-16396D01*
X24066Y-16445D01*
X24656Y-17036D01*
X24705Y-17069D01*
X24705Y-17069D01*
X24763Y-17080D01*
X26299Y-17080D01*
X26357Y-17069D01*
X26406Y-17036D01*
X26450Y-16991D01*
X26453Y-16991D01*
X26519Y-16964D01*
X26570Y-16913D01*
X26598Y-16847D01*
X26598Y-16775D01*
X26598Y-18787D01*
X24629Y-18787D01*
X24629Y-17483D01*
X24602Y-17417D01*
X24551Y-17366D01*
X24484Y-17338D01*
X24412Y-17338D01*
X24346Y-17366D01*
X24295Y-17417D01*
X24267Y-17483D01*
X24267Y-17555D01*
X24295Y-17622D01*
X24346Y-17672D01*
X24412Y-17700D01*
X24484Y-17700D01*
X24551Y-17673D01*
X24602Y-17622D01*
X24629Y-17555D01*
X24629Y-17483D01*
X24629Y-18787D01*
X23763Y-18787D01*
X23763Y-16381D01*
X23736Y-16314D01*
X23685Y-16264D01*
X23618Y-16236D01*
X23546Y-16236D01*
X23480Y-16263D01*
X23429Y-16314D01*
X23401Y-16381D01*
X23401Y-16453D01*
X23429Y-16519D01*
X23480Y-16570D01*
X23546Y-16598D01*
X23618Y-16598D01*
X23685Y-16570D01*
X23735Y-16519D01*
X23763Y-16453D01*
X23763Y-16381D01*
X23763Y-18787D01*
X23114Y-18787D01*
X23114Y-11853D01*
X23114Y-11361D01*
X23086Y-11295D01*
X23035Y-11244D01*
X22969Y-11216D01*
X22897Y-11216D01*
X22830Y-11244D01*
X22779Y-11295D01*
X22752Y-11361D01*
X22752Y-11433D01*
X22779Y-11499D01*
X22830Y-11550D01*
X22896Y-11578D01*
X22968Y-11578D01*
X23035Y-11551D01*
X23086Y-11500D01*
X23113Y-11433D01*
X23114Y-11361D01*
X23114Y-11853D01*
X23086Y-11787D01*
X23035Y-11736D01*
X22969Y-11708D01*
X22897Y-11708D01*
X22830Y-11736D01*
X22779Y-11787D01*
X22752Y-11853D01*
X22752Y-11925D01*
X22779Y-11992D01*
X22830Y-12043D01*
X22896Y-12070D01*
X22968Y-12070D01*
X23035Y-12043D01*
X23086Y-11992D01*
X23113Y-11925D01*
X23114Y-11853D01*
X23114Y-18787D01*
X22956Y-18787D01*
X22956Y-13054D01*
X22956Y-12680D01*
X22929Y-12614D01*
X22878Y-12563D01*
X22811Y-12535D01*
X22739Y-12535D01*
X22673Y-12563D01*
X22622Y-12613D01*
X22594Y-12680D01*
X22594Y-12752D01*
X22622Y-12818D01*
X22672Y-12869D01*
X22739Y-12897D01*
X22811Y-12897D01*
X22877Y-12869D01*
X22928Y-12819D01*
X22956Y-12752D01*
X22956Y-12680D01*
X22956Y-13054D01*
X22929Y-12988D01*
X22878Y-12937D01*
X22811Y-12909D01*
X22739Y-12909D01*
X22673Y-12937D01*
X22622Y-12987D01*
X22594Y-13054D01*
X22594Y-13126D01*
X22611Y-13166D01*
X22594Y-13173D01*
X22543Y-13224D01*
X22515Y-13290D01*
X22515Y-13362D01*
X22543Y-13429D01*
X22594Y-13480D01*
X22660Y-13507D01*
X22732Y-13507D01*
X22799Y-13480D01*
X22850Y-13429D01*
X22877Y-13362D01*
X22877Y-13290D01*
X22861Y-13250D01*
X22877Y-13244D01*
X22928Y-13193D01*
X22956Y-13126D01*
X22956Y-13054D01*
X22956Y-18787D01*
X22877Y-18787D01*
X22877Y-13684D01*
X22850Y-13618D01*
X22799Y-13567D01*
X22732Y-13539D01*
X22661Y-13539D01*
X22594Y-13567D01*
X22562Y-13599D01*
X21952Y-13599D01*
X21952Y-11342D01*
X21925Y-11275D01*
X21874Y-11224D01*
X21807Y-11197D01*
X21735Y-11197D01*
X21669Y-11224D01*
X21618Y-11275D01*
X21590Y-11341D01*
X21590Y-11413D01*
X21618Y-11480D01*
X21669Y-11531D01*
X21735Y-11558D01*
X21807Y-11558D01*
X21873Y-11531D01*
X21924Y-11480D01*
X21952Y-11414D01*
X21952Y-11342D01*
X21952Y-13599D01*
X21814Y-13599D01*
X21814Y-13290D01*
X21787Y-13224D01*
X21736Y-13173D01*
X21670Y-13145D01*
X21598Y-13145D01*
X21531Y-13173D01*
X21480Y-13224D01*
X21452Y-13290D01*
X21452Y-13362D01*
X21480Y-13429D01*
X21531Y-13480D01*
X21597Y-13507D01*
X21669Y-13507D01*
X21736Y-13480D01*
X21787Y-13429D01*
X21814Y-13362D01*
X21814Y-13290D01*
X21814Y-13599D01*
X21283Y-13599D01*
X21283Y-12523D01*
X21255Y-12456D01*
X21204Y-12405D01*
X21138Y-12378D01*
X21066Y-12378D01*
X21000Y-12405D01*
X20949Y-12456D01*
X20921Y-12522D01*
X20921Y-12594D01*
X20948Y-12661D01*
X20999Y-12712D01*
X21066Y-12739D01*
X21138Y-12739D01*
X21204Y-12712D01*
X21255Y-12661D01*
X21283Y-12595D01*
X21283Y-12523D01*
X21283Y-13599D01*
X21231Y-13599D01*
X21145Y-13513D01*
X21145Y-13468D01*
X21118Y-13401D01*
X21067Y-13350D01*
X21000Y-13323D01*
X20928Y-13323D01*
X20862Y-13350D01*
X20811Y-13401D01*
X20783Y-13467D01*
X20783Y-13539D01*
X20811Y-13606D01*
X20861Y-13657D01*
X20928Y-13684D01*
X20973Y-13684D01*
X21095Y-13806D01*
X21134Y-13832D01*
X21134Y-13832D01*
X21181Y-13841D01*
X22562Y-13841D01*
X22594Y-13873D01*
X22660Y-13901D01*
X22732Y-13901D01*
X22799Y-13873D01*
X22850Y-13823D01*
X22877Y-13756D01*
X22877Y-13684D01*
X22877Y-18787D01*
X22346Y-18787D01*
X22346Y-14275D01*
X22318Y-14208D01*
X22267Y-14157D01*
X22201Y-14130D01*
X22129Y-14130D01*
X22063Y-14157D01*
X22012Y-14208D01*
X21984Y-14274D01*
X21984Y-14346D01*
X22011Y-14413D01*
X22062Y-14464D01*
X22129Y-14491D01*
X22201Y-14491D01*
X22267Y-14464D01*
X22318Y-14413D01*
X22346Y-14347D01*
X22346Y-14275D01*
X22346Y-18787D01*
X20928Y-18787D01*
X20928Y-15357D01*
X20901Y-15291D01*
X20850Y-15240D01*
X20784Y-15212D01*
X20712Y-15212D01*
X20692Y-15220D01*
X20692Y-12444D01*
X20665Y-12377D01*
X20614Y-12327D01*
X20547Y-12299D01*
X20475Y-12299D01*
X20409Y-12326D01*
X20358Y-12377D01*
X20330Y-12444D01*
X20330Y-12516D01*
X20358Y-12582D01*
X20409Y-12633D01*
X20475Y-12661D01*
X20547Y-12661D01*
X20614Y-12633D01*
X20665Y-12582D01*
X20692Y-12516D01*
X20692Y-12444D01*
X20692Y-15220D01*
X20645Y-15240D01*
X20594Y-15291D01*
X20567Y-15357D01*
X20567Y-15429D01*
X20594Y-15496D01*
X20645Y-15546D01*
X20711Y-15574D01*
X20783Y-15574D01*
X20850Y-15547D01*
X20901Y-15496D01*
X20928Y-15429D01*
X20928Y-15357D01*
X20928Y-18787D01*
X19984Y-18787D01*
X19984Y-12444D01*
X19956Y-12377D01*
X19905Y-12327D01*
X19839Y-12299D01*
X19767Y-12299D01*
X19700Y-12326D01*
X19649Y-12377D01*
X19622Y-12444D01*
X19622Y-12516D01*
X19649Y-12582D01*
X19700Y-12633D01*
X19767Y-12661D01*
X19838Y-12661D01*
X19905Y-12633D01*
X19956Y-12582D01*
X19984Y-12516D01*
X19984Y-12444D01*
X19984Y-18787D01*
X19551Y-18787D01*
X19551Y-16499D01*
X19523Y-16433D01*
X19472Y-16382D01*
X19432Y-16365D01*
X19432Y-14885D01*
X19432Y-13507D01*
X19405Y-13440D01*
X19354Y-13390D01*
X19288Y-13362D01*
X19216Y-13362D01*
X19149Y-13389D01*
X19098Y-13440D01*
X19071Y-13507D01*
X19071Y-13579D01*
X19098Y-13645D01*
X19149Y-13696D01*
X19215Y-13724D01*
X19287Y-13724D01*
X19354Y-13696D01*
X19405Y-13645D01*
X19432Y-13579D01*
X19432Y-13507D01*
X19432Y-14885D01*
X19405Y-14818D01*
X19393Y-14807D01*
X19393Y-14294D01*
X19366Y-14228D01*
X19315Y-14177D01*
X19248Y-14149D01*
X19176Y-14149D01*
X19110Y-14177D01*
X19059Y-14228D01*
X19031Y-14294D01*
X19031Y-14366D01*
X19059Y-14433D01*
X19109Y-14483D01*
X19176Y-14511D01*
X19248Y-14511D01*
X19314Y-14484D01*
X19365Y-14433D01*
X19393Y-14366D01*
X19393Y-14294D01*
X19393Y-14807D01*
X19354Y-14767D01*
X19288Y-14740D01*
X19216Y-14740D01*
X19149Y-14767D01*
X19098Y-14818D01*
X19071Y-14885D01*
X19071Y-14957D01*
X19098Y-15023D01*
X19149Y-15074D01*
X19215Y-15102D01*
X19287Y-15102D01*
X19354Y-15074D01*
X19405Y-15023D01*
X19432Y-14957D01*
X19432Y-14885D01*
X19432Y-16365D01*
X19406Y-16354D01*
X19393Y-16354D01*
X19393Y-15475D01*
X19366Y-15409D01*
X19315Y-15358D01*
X19248Y-15330D01*
X19176Y-15330D01*
X19110Y-15358D01*
X19059Y-15409D01*
X19031Y-15475D01*
X19031Y-15547D01*
X19059Y-15614D01*
X19109Y-15665D01*
X19176Y-15692D01*
X19248Y-15692D01*
X19314Y-15665D01*
X19365Y-15614D01*
X19393Y-15547D01*
X19393Y-15475D01*
X19393Y-16354D01*
X19334Y-16354D01*
X19267Y-16381D01*
X19216Y-16432D01*
X19189Y-16499D01*
X19189Y-16571D01*
X19216Y-16637D01*
X19267Y-16688D01*
X19333Y-16716D01*
X19405Y-16716D01*
X19472Y-16688D01*
X19523Y-16638D01*
X19550Y-16571D01*
X19551Y-16499D01*
X19551Y-18787D01*
X18743Y-18787D01*
X18743Y-18015D01*
X18716Y-17948D01*
X18665Y-17897D01*
X18599Y-17870D01*
X18527Y-17870D01*
X18507Y-17878D01*
X18507Y-15928D01*
X18480Y-15862D01*
X18468Y-15850D01*
X18468Y-15062D01*
X18440Y-14996D01*
X18409Y-14964D01*
X18409Y-13881D01*
X18381Y-13814D01*
X18330Y-13764D01*
X18264Y-13736D01*
X18192Y-13736D01*
X18126Y-13763D01*
X18075Y-13814D01*
X18047Y-13881D01*
X18047Y-13953D01*
X18074Y-14019D01*
X18125Y-14070D01*
X18192Y-14098D01*
X18264Y-14098D01*
X18330Y-14070D01*
X18381Y-14019D01*
X18409Y-13953D01*
X18409Y-13881D01*
X18409Y-14964D01*
X18390Y-14945D01*
X18389Y-14944D01*
X18389Y-14472D01*
X18362Y-14405D01*
X18311Y-14354D01*
X18244Y-14327D01*
X18172Y-14326D01*
X18106Y-14354D01*
X18055Y-14405D01*
X18027Y-14471D01*
X18027Y-14543D01*
X18055Y-14610D01*
X18106Y-14661D01*
X18172Y-14688D01*
X18244Y-14688D01*
X18311Y-14661D01*
X18361Y-14610D01*
X18389Y-14544D01*
X18389Y-14472D01*
X18389Y-14944D01*
X18323Y-14917D01*
X18251Y-14917D01*
X18185Y-14944D01*
X18134Y-14995D01*
X18106Y-15062D01*
X18106Y-15134D01*
X18133Y-15200D01*
X18184Y-15251D01*
X18251Y-15279D01*
X18323Y-15279D01*
X18389Y-15251D01*
X18440Y-15201D01*
X18468Y-15134D01*
X18468Y-15062D01*
X18468Y-15850D01*
X18429Y-15811D01*
X18362Y-15783D01*
X18290Y-15783D01*
X18224Y-15811D01*
X18173Y-15861D01*
X18145Y-15928D01*
X18145Y-16000D01*
X18173Y-16066D01*
X18224Y-16117D01*
X18290Y-16145D01*
X18362Y-16145D01*
X18429Y-16118D01*
X18480Y-16067D01*
X18507Y-16000D01*
X18507Y-15928D01*
X18507Y-17878D01*
X18460Y-17897D01*
X18409Y-17948D01*
X18382Y-18015D01*
X18382Y-18087D01*
X18409Y-18153D01*
X18460Y-18204D01*
X18526Y-18232D01*
X18598Y-18232D01*
X18665Y-18204D01*
X18716Y-18153D01*
X18743Y-18087D01*
X18743Y-18015D01*
X18743Y-18787D01*
X17464Y-18787D01*
X17464Y-14235D01*
X17436Y-14169D01*
X17386Y-14118D01*
X17319Y-14090D01*
X17247Y-14090D01*
X17181Y-14118D01*
X17130Y-14169D01*
X17104Y-14230D01*
X17071Y-14197D01*
X17004Y-14169D01*
X16932Y-14169D01*
X16866Y-14196D01*
X16815Y-14247D01*
X16787Y-14314D01*
X16787Y-14386D01*
X16815Y-14452D01*
X16865Y-14503D01*
X16932Y-14531D01*
X17004Y-14531D01*
X17070Y-14503D01*
X17121Y-14453D01*
X17147Y-14391D01*
X17180Y-14424D01*
X17247Y-14452D01*
X17319Y-14452D01*
X17385Y-14425D01*
X17436Y-14374D01*
X17464Y-14307D01*
X17464Y-14235D01*
X17464Y-18787D01*
X16716Y-18787D01*
X16716Y-13822D01*
X16688Y-13755D01*
X16638Y-13704D01*
X16571Y-13677D01*
X16499Y-13677D01*
X16433Y-13704D01*
X16382Y-13755D01*
X16354Y-13822D01*
X16354Y-13894D01*
X16381Y-13960D01*
X16432Y-14011D01*
X16499Y-14039D01*
X16571Y-14039D01*
X16637Y-14011D01*
X16688Y-13960D01*
X16716Y-13894D01*
X16716Y-13822D01*
X16716Y-18787D01*
X16440Y-18787D01*
X16440Y-14609D01*
X16413Y-14543D01*
X16362Y-14492D01*
X16295Y-14464D01*
X16224Y-14464D01*
X16157Y-14492D01*
X16106Y-14543D01*
X16078Y-14609D01*
X16078Y-14681D01*
X16106Y-14748D01*
X16157Y-14798D01*
X16223Y-14826D01*
X16295Y-14826D01*
X16362Y-14799D01*
X16413Y-14748D01*
X16440Y-14681D01*
X16440Y-14609D01*
X16440Y-18787D01*
X16421Y-18787D01*
X16421Y-14983D01*
X16393Y-14917D01*
X16342Y-14866D01*
X16276Y-14838D01*
X16204Y-14838D01*
X16137Y-14866D01*
X16086Y-14917D01*
X16059Y-14983D01*
X16059Y-15055D01*
X16086Y-15122D01*
X16137Y-15172D01*
X16204Y-15200D01*
X16275Y-15200D01*
X16342Y-15173D01*
X16393Y-15122D01*
X16421Y-15055D01*
X16421Y-14983D01*
X16421Y-18787D01*
X16047Y-18787D01*
X16047Y-13054D01*
X16019Y-12988D01*
X15968Y-12937D01*
X15928Y-12920D01*
X15928Y-12483D01*
X15901Y-12417D01*
X15850Y-12366D01*
X15784Y-12338D01*
X15712Y-12338D01*
X15645Y-12366D01*
X15594Y-12417D01*
X15567Y-12483D01*
X15567Y-12555D01*
X15594Y-12622D01*
X15645Y-12672D01*
X15711Y-12700D01*
X15783Y-12700D01*
X15850Y-12673D01*
X15901Y-12622D01*
X15928Y-12555D01*
X15928Y-12483D01*
X15928Y-12920D01*
X15902Y-12909D01*
X15830Y-12909D01*
X15763Y-12937D01*
X15712Y-12987D01*
X15685Y-13054D01*
X15685Y-13126D01*
X15712Y-13192D01*
X15763Y-13243D01*
X15829Y-13271D01*
X15901Y-13271D01*
X15968Y-13244D01*
X16019Y-13193D01*
X16047Y-13126D01*
X16047Y-13054D01*
X16047Y-18787D01*
X15200Y-18787D01*
X15200Y-14924D01*
X15173Y-14858D01*
X15122Y-14807D01*
X15055Y-14779D01*
X14983Y-14779D01*
X14917Y-14807D01*
X14866Y-14858D01*
X14838Y-14924D01*
X14838Y-14996D01*
X14866Y-15062D01*
X14917Y-15113D01*
X14983Y-15141D01*
X15055Y-15141D01*
X15122Y-15114D01*
X15172Y-15063D01*
X15200Y-14996D01*
X15200Y-14924D01*
X15200Y-18787D01*
X14806Y-18787D01*
X14806Y-14905D01*
X14779Y-14838D01*
X14728Y-14787D01*
X14662Y-14760D01*
X14590Y-14760D01*
X14551Y-14776D01*
X14551Y-12641D01*
X14523Y-12574D01*
X14472Y-12523D01*
X14406Y-12496D01*
X14334Y-12496D01*
X14267Y-12523D01*
X14216Y-12574D01*
X14189Y-12641D01*
X14189Y-12712D01*
X14216Y-12779D01*
X14267Y-12830D01*
X14333Y-12858D01*
X14405Y-12858D01*
X14472Y-12830D01*
X14523Y-12779D01*
X14550Y-12713D01*
X14551Y-12641D01*
X14551Y-14776D01*
X14523Y-14787D01*
X14472Y-14838D01*
X14445Y-14904D01*
X14445Y-14976D01*
X14472Y-15043D01*
X14523Y-15094D01*
X14589Y-15121D01*
X14661Y-15121D01*
X14728Y-15094D01*
X14779Y-15043D01*
X14806Y-14977D01*
X14806Y-14905D01*
X14806Y-18787D01*
X12011Y-18787D01*
X12011Y-17641D01*
X11984Y-17574D01*
X11933Y-17523D01*
X11866Y-17496D01*
X11794Y-17496D01*
X11728Y-17523D01*
X11677Y-17574D01*
X11649Y-17641D01*
X11649Y-17712D01*
X11677Y-17779D01*
X11728Y-17830D01*
X11794Y-17858D01*
X11866Y-17858D01*
X11933Y-17830D01*
X11983Y-17779D01*
X12011Y-17713D01*
X12011Y-17641D01*
X12011Y-18787D01*
X7874Y-18787D01*
X7433Y-18787D01*
X7433Y-9677D01*
X7874Y-9677D01*
X31072Y-9677D01*
X31072Y-18787D01*
M02*
