M48
;DRILL file {Pcbnew (2013-03-31 BZR 4008)-stable} date 08/12/2013 18:16:43
;FORMAT={3:3/ absolute / metric / suppress leading zeros}
FMAT,2
METRIC,TZ
T1C1.000
%
G90
G05
M71
T1
X84000Y-26000
X84000Y-46000
T0
M30
