%!PS-Adobe-3.0
%%Creator: PCBNEW
%%CreationDate: Sun Dec 08 18:16:46 2013
%%Title: G:Gerber\balloon_radio-NPTH-drl_map.ps
%%Pages: 1
%%PageOrder: Ascend
%%BoundingBox: 0 0 596 842
%%DocumentMedia: A4 595 842 0 () ()
%%Orientation: Landscape
%%EndComments
%%BeginProlog
/line { newpath moveto lineto stroke } bind def
/cir0 { newpath 0 360 arc stroke } bind def
/cir1 { newpath 0 360 arc gsave fill grestore stroke } bind def
/cir2 { newpath 0 360 arc gsave fill grestore stroke } bind def
/arc0 { newpath arc stroke } bind def
/arc1 { newpath 4 index 4 index moveto arc closepath gsave fill
    grestore stroke } bind def
/arc2 { newpath 4 index 4 index moveto arc closepath gsave fill
    grestore stroke } bind def
/poly0 { stroke } bind def
/poly1 { closepath gsave fill grestore stroke } bind def
/poly2 { closepath gsave fill grestore stroke } bind def
/rect0 { rectstroke } bind def
/rect1 { rectfill } bind def
/rect2 { rectfill } bind def
/linemode0 { 0 setlinecap 0 setlinejoin 0 setlinewidth } bind def
/linemode1 { 1 setlinecap 1 setlinejoin } bind def
/dashedline { [200] 100 setdash } bind def
/solidline { [] 0 setdash } bind def
/phantomshow { moveto
    /KicadFont findfont 0.000001 scalefont setfont
    show } bind def
/textshow { gsave
    findfont exch scalefont setfont concat 1 scale 0 0 moveto show
    } bind def
/reencodefont {
  findfont dup length dict begin
  { 1 index /FID ne
    { def }
    { pop pop } ifelse
  } forall
  /Encoding ISOLatin1Encoding def
  currentdict
  end } bind def
/KicadFont /Helvetica reencodefont definefont pop
/KicadFont-Bold /Helvetica-Bold reencodefont definefont pop
/KicadFont-Oblique /Helvetica-Oblique reencodefont definefont pop
/KicadFont-BoldOblique /Helvetica-BoldOblique reencodefont definefont pop
%%EndProlog
%%Page: 1 1
%%BeginPageSetup
gsave
0.0072 0.0072 scale
linemode1
82680 0 translate 90 rotate
150 setlinewidth
%%EndPageSetup
0 0 0 setrgbcolor
118.11 setlinewidth
newpath
98268.1 71872.1 moveto
98268.1 43879.9 lineto
stroke
0 0 0 setrgbcolor
newpath
18661.9 71872.1 moveto
18661.9 43879.9 lineto
stroke
0 0 0 setrgbcolor
newpath
18661.9 43879.9 moveto
20315.4 43879.9 lineto
stroke
0 0 0 setrgbcolor
newpath
18661.9 71872.1 moveto
20315.4 71872.1 lineto
stroke
0 0 0 setrgbcolor
newpath
98268.1 71872.1 moveto
20315.4 71872.1 lineto
stroke
0 0 0 setrgbcolor
newpath
20315.4 43879.9 moveto
98268.1 43879.9 lineto
stroke
78.7394 setlinewidth
newpath
95315.4 70454.7 moveto
96496.5 69273.6 lineto
stroke
newpath
96496.5 70454.7 moveto
95315.4 69273.6 lineto
stroke
newpath
95315.4 46832.7 moveto
96496.5 45651.6 lineto
stroke
newpath
96496.5 46832.7 moveto
95315.4 45651.6 lineto
stroke
118.11 setlinewidth
(Drill Map:) 19390.2 42521.7 phantomshow
newpath
19671.4 42043.6 moveto
19671.4 43224.7 lineto
19952.6 43224.7 lineto
20121.4 43168.5 lineto
20233.8 43056 lineto
20290.1 42943.5 lineto
20346.3 42718.5 lineto
20346.3 42549.8 lineto
20290.1 42324.8 lineto
20233.8 42212.3 lineto
20121.4 42099.8 lineto
19952.6 42043.6 lineto
19671.4 42043.6 lineto
stroke
newpath
20852.5 42043.6 moveto
20852.5 42831 lineto
stroke
newpath
20852.5 42606 moveto
20908.8 42718.5 lineto
20965 42774.8 lineto
21077.5 42831 lineto
21190 42831 lineto
stroke
newpath
21583.7 42043.6 moveto
21583.7 42831 lineto
stroke
newpath
21583.7 43224.7 moveto
21527.4 43168.5 lineto
21583.7 43112.2 lineto
21639.9 43168.5 lineto
21583.7 43224.7 lineto
21583.7 43112.2 lineto
stroke
newpath
22314.8 42043.6 moveto
22202.3 42099.8 lineto
22146.1 42212.3 lineto
22146.1 43224.7 lineto
stroke
newpath
22933.5 42043.6 moveto
22821 42099.8 lineto
22764.8 42212.3 lineto
22764.8 43224.7 lineto
stroke
newpath
24283.3 42043.6 moveto
24283.3 43224.7 lineto
24677 42381.1 lineto
25070.7 43224.7 lineto
25070.7 42043.6 lineto
stroke
newpath
26139.4 42043.6 moveto
26139.4 42662.3 lineto
26083.1 42774.8 lineto
25970.6 42831 lineto
25745.7 42831 lineto
25633.2 42774.8 lineto
stroke
newpath
26139.4 42099.8 moveto
26026.9 42043.6 lineto
25745.7 42043.6 lineto
25633.2 42099.8 lineto
25576.9 42212.3 lineto
25576.9 42324.8 lineto
25633.2 42437.3 lineto
25745.7 42493.5 lineto
26026.9 42493.5 lineto
26139.4 42549.8 lineto
stroke
newpath
26701.8 42831 moveto
26701.8 41649.9 lineto
stroke
newpath
26701.8 42774.8 moveto
26814.3 42831 lineto
27039.2 42831 lineto
27151.7 42774.8 lineto
27208 42718.5 lineto
27264.2 42606 lineto
27264.2 42268.6 lineto
27208 42156.1 lineto
27151.7 42099.8 lineto
27039.2 42043.6 lineto
26814.3 42043.6 lineto
26701.8 42099.8 lineto
stroke
newpath
27770.4 42156.1 moveto
27826.6 42099.8 lineto
27770.4 42043.6 lineto
27714.2 42099.8 lineto
27770.4 42156.1 lineto
27770.4 42043.6 lineto
stroke
newpath
27770.4 42774.8 moveto
27826.6 42718.5 lineto
27770.4 42662.3 lineto
27714.2 42718.5 lineto
27770.4 42774.8 lineto
27770.4 42662.3 lineto
stroke
newpath
17421.7 40631.9 moveto
18602.8 39450.8 lineto
stroke
newpath
18602.8 40631.9 moveto
17421.7 39450.8 lineto
stroke
(1.00mm / 0.039" \(2 holes\)) 19390.2 40041.4 phantomshow
newpath
20290.1 39563.3 moveto
19615.2 39563.3 lineto
stroke
newpath
19952.6 39563.3 moveto
19952.6 40744.4 lineto
19840.1 40575.7 lineto
19727.7 40463.2 lineto
19615.2 40406.9 lineto
stroke
newpath
20796.3 39675.8 moveto
20852.5 39619.5 lineto
20796.3 39563.3 lineto
20740 39619.5 lineto
20796.3 39675.8 lineto
20796.3 39563.3 lineto
stroke
newpath
21583.7 40744.4 moveto
21696.2 40744.4 lineto
21808.6 40688.1 lineto
21864.9 40631.9 lineto
21921.1 40519.4 lineto
21977.4 40294.4 lineto
21977.4 40013.2 lineto
21921.1 39788.3 lineto
21864.9 39675.8 lineto
21808.6 39619.5 lineto
21696.2 39563.3 lineto
21583.7 39563.3 lineto
21471.2 39619.5 lineto
21414.9 39675.8 lineto
21358.7 39788.3 lineto
21302.5 40013.2 lineto
21302.5 40294.4 lineto
21358.7 40519.4 lineto
21414.9 40631.9 lineto
21471.2 40688.1 lineto
21583.7 40744.4 lineto
stroke
newpath
22708.5 40744.4 moveto
22821 40744.4 lineto
22933.5 40688.1 lineto
22989.7 40631.9 lineto
23046 40519.4 lineto
23102.2 40294.4 lineto
23102.2 40013.2 lineto
23046 39788.3 lineto
22989.7 39675.8 lineto
22933.5 39619.5 lineto
22821 39563.3 lineto
22708.5 39563.3 lineto
22596 39619.5 lineto
22539.8 39675.8 lineto
22483.6 39788.3 lineto
22427.3 40013.2 lineto
22427.3 40294.4 lineto
22483.6 40519.4 lineto
22539.8 40631.9 lineto
22596 40688.1 lineto
22708.5 40744.4 lineto
stroke
newpath
23608.4 39563.3 moveto
23608.4 40350.7 lineto
stroke
newpath
23608.4 40238.2 moveto
23664.7 40294.4 lineto
23777.1 40350.7 lineto
23945.9 40350.7 lineto
24058.4 40294.4 lineto
24114.6 40182 lineto
24114.6 39563.3 lineto
stroke
newpath
24114.6 40182 moveto
24170.8 40294.4 lineto
24283.3 40350.7 lineto
24452.1 40350.7 lineto
24564.5 40294.4 lineto
24620.8 40182 lineto
24620.8 39563.3 lineto
stroke
newpath
25183.2 39563.3 moveto
25183.2 40350.7 lineto
stroke
newpath
25183.2 40238.2 moveto
25239.5 40294.4 lineto
25351.9 40350.7 lineto
25520.7 40350.7 lineto
25633.2 40294.4 lineto
25689.4 40182 lineto
25689.4 39563.3 lineto
stroke
newpath
25689.4 40182 moveto
25745.7 40294.4 lineto
25858.1 40350.7 lineto
26026.9 40350.7 lineto
26139.4 40294.4 lineto
26195.6 40182 lineto
26195.6 39563.3 lineto
stroke
newpath
28501.6 40800.6 moveto
27489.2 39282.1 lineto
stroke
newpath
30020.1 40744.4 moveto
30132.6 40744.4 lineto
30245.1 40688.1 lineto
30301.3 40631.9 lineto
30357.6 40519.4 lineto
30413.8 40294.4 lineto
30413.8 40013.2 lineto
30357.6 39788.3 lineto
30301.3 39675.8 lineto
30245.1 39619.5 lineto
30132.6 39563.3 lineto
30020.1 39563.3 lineto
29907.6 39619.5 lineto
29851.4 39675.8 lineto
29795.1 39788.3 lineto
29738.9 40013.2 lineto
29738.9 40294.4 lineto
29795.1 40519.4 lineto
29851.4 40631.9 lineto
29907.6 40688.1 lineto
30020.1 40744.4 lineto
stroke
newpath
30920 39675.8 moveto
30976.2 39619.5 lineto
30920 39563.3 lineto
30863.8 39619.5 lineto
30920 39675.8 lineto
30920 39563.3 lineto
stroke
newpath
31707.4 40744.4 moveto
31819.9 40744.4 lineto
31932.4 40688.1 lineto
31988.6 40631.9 lineto
32044.9 40519.4 lineto
32101.1 40294.4 lineto
32101.1 40013.2 lineto
32044.9 39788.3 lineto
31988.6 39675.8 lineto
31932.4 39619.5 lineto
31819.9 39563.3 lineto
31707.4 39563.3 lineto
31594.9 39619.5 lineto
31538.7 39675.8 lineto
31482.4 39788.3 lineto
31426.2 40013.2 lineto
31426.2 40294.4 lineto
31482.4 40519.4 lineto
31538.7 40631.9 lineto
31594.9 40688.1 lineto
31707.4 40744.4 lineto
stroke
newpath
32494.8 40744.4 moveto
33226 40744.4 lineto
32832.3 40294.4 lineto
33001 40294.4 lineto
33113.5 40238.2 lineto
33169.7 40182 lineto
33226 40069.5 lineto
33226 39788.3 lineto
33169.7 39675.8 lineto
33113.5 39619.5 lineto
33001 39563.3 lineto
32663.5 39563.3 lineto
32551 39619.5 lineto
32494.8 39675.8 lineto
stroke
newpath
33788.4 39563.3 moveto
34013.4 39563.3 lineto
34125.9 39619.5 lineto
34182.1 39675.8 lineto
34294.6 39844.5 lineto
34350.8 40069.5 lineto
34350.8 40519.4 lineto
34294.6 40631.9 lineto
34238.3 40688.1 lineto
34125.9 40744.4 lineto
33900.9 40744.4 lineto
33788.4 40688.1 lineto
33732.2 40631.9 lineto
33675.9 40519.4 lineto
33675.9 40238.2 lineto
33732.2 40125.7 lineto
33788.4 40069.5 lineto
33900.9 40013.2 lineto
34125.9 40013.2 lineto
34238.3 40069.5 lineto
34294.6 40125.7 lineto
34350.8 40238.2 lineto
stroke
newpath
34800.8 40744.4 moveto
34800.8 40519.4 lineto
stroke
newpath
35250.7 40744.4 moveto
35250.7 40519.4 lineto
stroke
newpath
36994.2 39113.3 moveto
36938 39169.6 lineto
36825.5 39338.3 lineto
36769.3 39450.8 lineto
36713 39619.5 lineto
36656.8 39900.7 lineto
36656.8 40125.7 lineto
36713 40406.9 lineto
36769.3 40575.7 lineto
36825.5 40688.1 lineto
36938 40856.9 lineto
36994.2 40913.1 lineto
stroke
newpath
37387.9 40631.9 moveto
37444.2 40688.1 lineto
37556.7 40744.4 lineto
37837.9 40744.4 lineto
37950.4 40688.1 lineto
38006.6 40631.9 lineto
38062.9 40519.4 lineto
38062.9 40406.9 lineto
38006.6 40238.2 lineto
37331.7 39563.3 lineto
38062.9 39563.3 lineto
stroke
newpath
39468.9 39563.3 moveto
39468.9 40744.4 lineto
stroke
newpath
39975.1 39563.3 moveto
39975.1 40182 lineto
39918.9 40294.4 lineto
39806.4 40350.7 lineto
39637.7 40350.7 lineto
39525.2 40294.4 lineto
39468.9 40238.2 lineto
stroke
newpath
40706.3 39563.3 moveto
40593.8 39619.5 lineto
40537.6 39675.8 lineto
40481.3 39788.3 lineto
40481.3 40125.7 lineto
40537.6 40238.2 lineto
40593.8 40294.4 lineto
40706.3 40350.7 lineto
40875 40350.7 lineto
40987.5 40294.4 lineto
41043.7 40238.2 lineto
41100 40125.7 lineto
41100 39788.3 lineto
41043.7 39675.8 lineto
40987.5 39619.5 lineto
40875 39563.3 lineto
40706.3 39563.3 lineto
stroke
newpath
41774.9 39563.3 moveto
41662.4 39619.5 lineto
41606.2 39732 lineto
41606.2 40744.4 lineto
stroke
newpath
42674.8 39619.5 moveto
42562.3 39563.3 lineto
42337.3 39563.3 lineto
42224.8 39619.5 lineto
42168.6 39732 lineto
42168.6 40182 lineto
42224.8 40294.4 lineto
42337.3 40350.7 lineto
42562.3 40350.7 lineto
42674.8 40294.4 lineto
42731 40182 lineto
42731 40069.5 lineto
42168.6 39957 lineto
stroke
newpath
43181 39619.5 moveto
43293.5 39563.3 lineto
43518.4 39563.3 lineto
43630.9 39619.5 lineto
43687.2 39732 lineto
43687.2 39788.3 lineto
43630.9 39900.7 lineto
43518.4 39957 lineto
43349.7 39957 lineto
43237.2 40013.2 lineto
43181 40125.7 lineto
43181 40182 lineto
43237.2 40294.4 lineto
43349.7 40350.7 lineto
43518.4 40350.7 lineto
43630.9 40294.4 lineto
stroke
newpath
44080.9 39113.3 moveto
44137.1 39169.6 lineto
44249.6 39338.3 lineto
44305.8 39450.8 lineto
44362.1 39619.5 lineto
44418.3 39900.7 lineto
44418.3 40125.7 lineto
44362.1 40406.9 lineto
44305.8 40575.7 lineto
44249.6 40688.1 lineto
44137.1 40856.9 lineto
44080.9 40913.1 lineto
stroke
showpage
grestore
%%EOF
