EESchema Schematic File Version 2
LIBS:power
LIBS:device
LIBS:transistors
LIBS:conn
LIBS:linear
LIBS:regul
LIBS:74xx
LIBS:cmos4000
LIBS:adc-dac
LIBS:memory
LIBS:xilinx
LIBS:special
LIBS:microcontrollers
LIBS:dsp
LIBS:microchip
LIBS:analog_switches
LIBS:motorola
LIBS:texas
LIBS:intel
LIBS:audio
LIBS:interface
LIBS:digital-audio
LIBS:philips
LIBS:display
LIBS:cypress
LIBS:siliconi
LIBS:opto
LIBS:atmel
LIBS:contrib
LIBS:valves
LIBS:Silabs_transceivers
LIBS:dspic33epxxxgm304
LIBS:power_symbols
LIBS:dcdc
LIBS:oscillators
LIBS:EFM32
LIBS:ublox
LIBS:antenna
LIBS:balloon_radio-cache
EELAYER 24 0
EELAYER END
$Descr A4 11693 8268
encoding utf-8
Sheet 1 2
Title ""
Date "6 dec 2013"
Rev ""
Comp ""
Comment1 ""
Comment2 ""
Comment3 ""
Comment4 ""
$EndDescr
$Comp
L SI4461 U102
U 1 1 5228678B
P 5750 2500
F 0 "U102" H 5950 2900 60  0000 C CNN
F 1 "SI4461" H 6100 2250 60  0000 C CNN
F 2 "~" H 5750 2500 60  0000 C CNN
F 3 "~" H 5750 2500 60  0000 C CNN
	1    5750 2500
	1    0    0    -1  
$EndComp
$Comp
L CONN_2 P101
U 1 1 52286D89
P 750 2550
F 0 "P101" V 700 2550 40  0000 C CNN
F 1 "ANT" V 800 2550 40  0000 C CNN
F 2 "" H 750 2550 60  0000 C CNN
F 3 "" H 750 2550 60  0000 C CNN
	1    750  2550
	-1   0    0    1   
$EndComp
$Comp
L GND #PWR01
U 1 1 52286D9F
P 1200 2800
F 0 "#PWR01" H 1200 2800 30  0001 C CNN
F 1 "GND" H 1200 2730 30  0001 C CNN
F 2 "" H 1200 2800 60  0000 C CNN
F 3 "" H 1200 2800 60  0000 C CNN
	1    1200 2800
	1    0    0    -1  
$EndComp
Wire Wire Line
	1100 2650 1200 2650
Wire Wire Line
	1200 2650 1200 2800
$Comp
L C C109
U 1 1 52286DB3
P 1550 2450
F 0 "C109" H 1550 2550 40  0000 L CNN
F 1 "10n" H 1556 2365 40  0000 L CNN
F 2 "~" H 1588 2300 30  0000 C CNN
F 3 "~" H 1550 2450 60  0000 C CNN
	1    1550 2450
	0    -1   -1   0   
$EndComp
$Comp
L C C111
U 1 1 52286DC2
P 1850 2750
F 0 "C111" H 1850 2850 40  0000 L CNN
F 1 "6.8p" H 1856 2665 40  0000 L CNN
F 2 "~" H 1888 2600 30  0000 C CNN
F 3 "~" H 1850 2750 60  0000 C CNN
	1    1850 2750
	1    0    0    -1  
$EndComp
$Comp
L INDUCTOR L102
U 1 1 52286DD2
P 2250 2450
F 0 "L102" V 2200 2450 40  0000 C CNN
F 1 "18n" V 2350 2450 40  0000 C CNN
F 2 "~" H 2250 2450 60  0000 C CNN
F 3 "~" H 2250 2450 60  0000 C CNN
	1    2250 2450
	0    -1   -1   0   
$EndComp
$Comp
L C C114
U 1 1 52286DE1
P 2650 2750
F 0 "C114" H 2650 2850 40  0000 L CNN
F 1 "15p" H 2656 2665 40  0000 L CNN
F 2 "~" H 2688 2600 30  0000 C CNN
F 3 "~" H 2650 2750 60  0000 C CNN
	1    2650 2750
	1    0    0    -1  
$EndComp
$Comp
L INDUCTOR L103
U 1 1 52286DF0
P 3050 2450
F 0 "L103" V 3000 2450 40  0000 C CNN
F 1 "18n" V 3150 2450 40  0000 C CNN
F 2 "~" H 3050 2450 60  0000 C CNN
F 3 "~" H 3050 2450 60  0000 C CNN
	1    3050 2450
	0    -1   -1   0   
$EndComp
$Comp
L C C115
U 1 1 52286DFF
P 3450 2750
F 0 "C115" H 3450 2850 40  0000 L CNN
F 1 "8.2p" H 3456 2665 40  0000 L CNN
F 2 "~" H 3488 2600 30  0000 C CNN
F 3 "~" H 3450 2750 60  0000 C CNN
	1    3450 2750
	1    0    0    -1  
$EndComp
Wire Wire Line
	1100 2450 1350 2450
Wire Wire Line
	1750 2450 1950 2450
Wire Wire Line
	1850 2450 1850 2550
Connection ~ 1850 2450
Wire Wire Line
	2550 2450 2750 2450
Wire Wire Line
	2650 2450 2650 2550
Connection ~ 2650 2450
Wire Wire Line
	3350 2450 3550 2450
Wire Wire Line
	3450 800  3450 2550
$Comp
L GND #PWR02
U 1 1 52286E34
P 1850 3050
F 0 "#PWR02" H 1850 3050 30  0001 C CNN
F 1 "GND" H 1850 2980 30  0001 C CNN
F 2 "" H 1850 3050 60  0000 C CNN
F 3 "" H 1850 3050 60  0000 C CNN
	1    1850 3050
	1    0    0    -1  
$EndComp
$Comp
L GND #PWR03
U 1 1 52286E43
P 2650 3050
F 0 "#PWR03" H 2650 3050 30  0001 C CNN
F 1 "GND" H 2650 2980 30  0001 C CNN
F 2 "" H 2650 3050 60  0000 C CNN
F 3 "" H 2650 3050 60  0000 C CNN
	1    2650 3050
	1    0    0    -1  
$EndComp
$Comp
L GND #PWR04
U 1 1 52286E52
P 3450 3050
F 0 "#PWR04" H 3450 3050 30  0001 C CNN
F 1 "GND" H 3450 2980 30  0001 C CNN
F 2 "" H 3450 3050 60  0000 C CNN
F 3 "" H 3450 3050 60  0000 C CNN
	1    3450 3050
	1    0    0    -1  
$EndComp
Wire Wire Line
	3450 2950 3450 3050
Wire Wire Line
	2650 2950 2650 3050
Wire Wire Line
	1850 2950 1850 3050
$Comp
L C C116
U 1 1 52286F6F
P 3750 2450
F 0 "C116" H 3750 2550 40  0000 L CNN
F 1 "15p" H 3756 2365 40  0000 L CNN
F 2 "~" H 3788 2300 30  0000 C CNN
F 3 "~" H 3750 2450 60  0000 C CNN
	1    3750 2450
	0    -1   -1   0   
$EndComp
$Comp
L INDUCTOR L106
U 1 1 52286F7E
P 4450 2450
F 0 "L106" V 4400 2450 40  0000 C CNN
F 1 "39n" V 4550 2450 40  0000 C CNN
F 2 "~" H 4450 2450 60  0000 C CNN
F 3 "~" H 4450 2450 60  0000 C CNN
	1    4450 2450
	0    -1   -1   0   
$EndComp
Connection ~ 3450 2450
Wire Wire Line
	3950 2450 4150 2450
Wire Wire Line
	4750 2450 5400 2450
$Comp
L INDUCTOR L104
U 1 1 5228850F
P 3850 1600
F 0 "L104" V 3800 1600 40  0000 C CNN
F 1 "56n" V 3950 1600 40  0000 C CNN
F 2 "~" H 3850 1600 60  0000 C CNN
F 3 "~" H 3850 1600 60  0000 C CNN
	1    3850 1600
	0    -1   -1   0   
$EndComp
$Comp
L C C117
U 1 1 52288529
P 3850 800
F 0 "C117" H 3850 900 40  0000 L CNN
F 1 "2.7p" H 3856 715 40  0000 L CNN
F 2 "~" H 3888 650 30  0000 C CNN
F 3 "~" H 3850 800 60  0000 C CNN
	1    3850 800 
	0    -1   -1   0   
$EndComp
$Comp
L INDUCTOR L105
U 1 1 52288538
P 4250 1200
F 0 "L105" V 4200 1200 40  0000 C CNN
F 1 "56n" V 4350 1200 40  0000 C CNN
F 2 "~" H 4250 1200 60  0000 C CNN
F 3 "~" H 4250 1200 60  0000 C CNN
	1    4250 1200
	1    0    0    -1  
$EndComp
$Comp
L C C119
U 1 1 52288551
P 4350 1900
F 0 "C119" H 4350 2000 40  0000 L CNN
F 1 "5.1p" H 4356 1815 40  0000 L CNN
F 2 "~" H 4388 1750 30  0000 C CNN
F 3 "~" H 4350 1900 60  0000 C CNN
	1    4350 1900
	1    0    0    -1  
$EndComp
$Comp
L GND #PWR05
U 1 1 52288560
P 4350 2150
F 0 "#PWR05" H 4350 2150 30  0001 C CNN
F 1 "GND" H 4350 2080 30  0001 C CNN
F 2 "" H 4350 2150 60  0000 C CNN
F 3 "" H 4350 2150 60  0000 C CNN
	1    4350 2150
	1    0    0    -1  
$EndComp
Wire Wire Line
	3450 800  3650 800 
Wire Wire Line
	3550 1600 3450 1600
Connection ~ 3450 1600
Wire Wire Line
	4150 1600 5050 1600
Wire Wire Line
	5050 1600 5050 2350
Wire Wire Line
	5050 2350 5400 2350
Wire Wire Line
	4250 1500 4250 1600
Connection ~ 4250 1600
Wire Wire Line
	4350 1700 4350 1600
Connection ~ 4350 1600
Wire Wire Line
	4050 800  5250 800 
Wire Wire Line
	5250 800  5250 2400
Wire Wire Line
	5250 2400 5400 2400
Wire Wire Line
	4250 900  4250 800 
Connection ~ 4250 800 
Wire Wire Line
	4350 2100 4350 2150
$Comp
L GND #PWR06
U 1 1 5228937D
P 5500 2800
F 0 "#PWR06" H 5500 2800 30  0001 C CNN
F 1 "GND" H 5500 2730 30  0001 C CNN
F 2 "" H 5500 2800 60  0000 C CNN
F 3 "" H 5500 2800 60  0000 C CNN
	1    5500 2800
	1    0    0    -1  
$EndComp
Wire Wire Line
	5500 2750 5500 2800
$Comp
L VDD #PWR07
U 1 1 522893B5
P 800 850
F 0 "#PWR07" H 800 950 30  0001 C CNN
F 1 "VDD" H 800 960 30  0000 C CNN
F 2 "" H 800 850 60  0000 C CNN
F 3 "" H 800 850 60  0000 C CNN
	1    800  850 
	1    0    0    -1  
$EndComp
$Comp
L C C101
U 1 1 522893CA
P 800 1150
F 0 "C101" H 800 1250 40  0000 L CNN
F 1 "2.2u" H 806 1065 40  0000 L CNN
F 2 "~" H 838 1000 30  0000 C CNN
F 3 "~" H 800 1150 60  0000 C CNN
	1    800  1150
	1    0    0    -1  
$EndComp
$Comp
L C C102
U 1 1 522893D9
P 1050 1150
F 0 "C102" H 1050 1250 40  0000 L CNN
F 1 "100n" H 1056 1065 40  0000 L CNN
F 2 "~" H 1088 1000 30  0000 C CNN
F 3 "~" H 1050 1150 60  0000 C CNN
	1    1050 1150
	1    0    0    -1  
$EndComp
$Comp
L C C106
U 1 1 522893E8
P 1300 1150
F 0 "C106" H 1300 1250 40  0000 L CNN
F 1 "100p" H 1306 1065 40  0000 L CNN
F 2 "~" H 1338 1000 30  0000 C CNN
F 3 "~" H 1300 1150 60  0000 C CNN
	1    1300 1150
	1    0    0    -1  
$EndComp
$Comp
L C C108
U 1 1 522893F7
P 1550 1150
F 0 "C108" H 1550 1250 40  0000 L CNN
F 1 "33p" H 1556 1065 40  0000 L CNN
F 2 "~" H 1588 1000 30  0000 C CNN
F 3 "~" H 1550 1150 60  0000 C CNN
	1    1550 1150
	1    0    0    -1  
$EndComp
$Comp
L GND #PWR08
U 1 1 52289406
P 800 1450
F 0 "#PWR08" H 800 1450 30  0001 C CNN
F 1 "GND" H 800 1380 30  0001 C CNN
F 2 "" H 800 1450 60  0000 C CNN
F 3 "" H 800 1450 60  0000 C CNN
	1    800  1450
	1    0    0    -1  
$EndComp
Wire Wire Line
	800  850  800  950 
Wire Wire Line
	800  900  1550 900 
Wire Wire Line
	1550 900  1550 950 
Connection ~ 800  900 
Wire Wire Line
	1300 950  1300 900 
Connection ~ 1300 900 
Wire Wire Line
	1050 950  1050 900 
Connection ~ 1050 900 
Wire Wire Line
	800  1350 800  1450
Wire Wire Line
	800  1400 1550 1400
Wire Wire Line
	1550 1400 1550 1350
Connection ~ 800  1400
Wire Wire Line
	1300 1350 1300 1400
Connection ~ 1300 1400
Wire Wire Line
	1050 1350 1050 1400
Connection ~ 1050 1400
$Comp
L R R106
U 1 1 52289637
P 5350 3600
F 0 "R106" V 5430 3600 40  0000 C CNN
F 1 "4.7" V 5357 3601 40  0000 C CNN
F 2 "~" V 5280 3600 30  0000 C CNN
F 3 "~" H 5350 3600 30  0000 C CNN
	1    5350 3600
	0    -1   -1   0   
$EndComp
Wire Wire Line
	4850 3600 5100 3600
Wire Wire Line
	5600 3600 5700 3600
Wire Wire Line
	5700 2750 5700 3700
$Comp
L C C122
U 1 1 522896C0
P 5700 3900
F 0 "C122" H 5700 4000 40  0000 L CNN
F 1 "100n" H 5706 3815 40  0000 L CNN
F 2 "~" H 5738 3750 30  0000 C CNN
F 3 "~" H 5700 3900 60  0000 C CNN
	1    5700 3900
	1    0    0    -1  
$EndComp
$Comp
L GND #PWR09
U 1 1 522896CF
P 5700 4200
F 0 "#PWR09" H 5700 4200 30  0001 C CNN
F 1 "GND" H 5700 4130 30  0001 C CNN
F 2 "" H 5700 4200 60  0000 C CNN
F 3 "" H 5700 4200 60  0000 C CNN
	1    5700 4200
	1    0    0    -1  
$EndComp
Connection ~ 5700 3600
Wire Wire Line
	5700 4100 5700 4200
$Comp
L GND #PWR010
U 1 1 52289761
P 5850 1700
F 0 "#PWR010" H 5850 1700 30  0001 C CNN
F 1 "GND" H 5850 1630 30  0001 C CNN
F 2 "" H 5850 1700 60  0000 C CNN
F 3 "" H 5850 1700 60  0000 C CNN
	1    5850 1700
	1    0    0    -1  
$EndComp
Wire Wire Line
	5750 2100 5750 1650
Wire Wire Line
	5750 1650 5850 1650
Wire Wire Line
	5850 1650 5850 1700
Text GLabel 5350 2200 1    25   Input ~ 0
RF_SHUT
Wire Wire Line
	5350 2200 5350 2300
Wire Wire Line
	5350 2300 5400 2300
$Comp
L CSMALL C124
U 1 1 5252AFB1
P 6500 1450
F 0 "C124" H 6525 1500 30  0000 L CNN
F 1 "CSMALL" H 6525 1400 30  0000 L CNN
F 2 "~" H 6500 1450 60  0000 C CNN
F 3 "~" H 6500 1450 60  0000 C CNN
	1    6500 1450
	1    0    0    -1  
$EndComp
$Comp
L CSMALL C126
U 1 1 5252AFC0
P 7200 1450
F 0 "C126" H 7225 1500 30  0000 L CNN
F 1 "CSMALL" H 7225 1400 30  0000 L CNN
F 2 "~" H 7200 1450 60  0000 C CNN
F 3 "~" H 7200 1450 60  0000 C CNN
	1    7200 1450
	1    0    0    -1  
$EndComp
$Comp
L CSMALL C128
U 1 1 5252AFCF
P 7900 1450
F 0 "C128" H 7925 1500 30  0000 L CNN
F 1 "CSMALL" H 7925 1400 30  0000 L CNN
F 2 "~" H 7900 1450 60  0000 C CNN
F 3 "~" H 7900 1450 60  0000 C CNN
	1    7900 1450
	1    0    0    -1  
$EndComp
$Comp
L INDUCTOR_SMALL L113
U 1 1 5252AFDE
P 7550 1200
F 0 "L113" H 7550 1300 50  0000 C CNN
F 1 "INDUCTOR_SMALL" H 7550 1150 50  0000 C CNN
F 2 "~" H 7550 1200 60  0000 C CNN
F 3 "~" H 7550 1200 60  0000 C CNN
	1    7550 1200
	1    0    0    -1  
$EndComp
$Comp
L INDUCTOR_SMALL L111
U 1 1 5252AFED
P 6850 1200
F 0 "L111" H 6850 1300 50  0000 C CNN
F 1 "INDUCTOR_SMALL" H 6850 1150 50  0000 C CNN
F 2 "~" H 6850 1200 60  0000 C CNN
F 3 "~" H 6850 1200 60  0000 C CNN
	1    6850 1200
	1    0    0    -1  
$EndComp
$Comp
L INDUCTOR_SMALL L109
U 1 1 5252AFFC
P 6150 1200
F 0 "L109" H 6150 1300 50  0000 C CNN
F 1 "INDUCTOR_SMALL" H 6150 1150 50  0000 C CNN
F 2 "~" H 6150 1200 60  0000 C CNN
F 3 "~" H 6150 1200 60  0000 C CNN
	1    6150 1200
	1    0    0    -1  
$EndComp
Wire Wire Line
	6400 1200 6600 1200
Wire Wire Line
	7100 1200 7300 1200
Wire Wire Line
	7200 1350 7200 1200
Connection ~ 7200 1200
Wire Wire Line
	6500 1350 6500 1200
Connection ~ 6500 1200
Wire Wire Line
	7800 1200 8000 1200
Wire Wire Line
	7900 1200 7900 1350
$Comp
L GND #PWR011
U 1 1 5252B186
P 7900 1650
F 0 "#PWR011" H 7900 1650 30  0001 C CNN
F 1 "GND" H 7900 1580 30  0001 C CNN
F 2 "" H 7900 1650 60  0000 C CNN
F 3 "" H 7900 1650 60  0000 C CNN
	1    7900 1650
	1    0    0    -1  
$EndComp
$Comp
L GND #PWR012
U 1 1 5252B195
P 7200 1650
F 0 "#PWR012" H 7200 1650 30  0001 C CNN
F 1 "GND" H 7200 1580 30  0001 C CNN
F 2 "" H 7200 1650 60  0000 C CNN
F 3 "" H 7200 1650 60  0000 C CNN
	1    7200 1650
	1    0    0    -1  
$EndComp
$Comp
L GND #PWR013
U 1 1 5252B1A4
P 6500 1650
F 0 "#PWR013" H 6500 1650 30  0001 C CNN
F 1 "GND" H 6500 1580 30  0001 C CNN
F 2 "" H 6500 1650 60  0000 C CNN
F 3 "" H 6500 1650 60  0000 C CNN
	1    6500 1650
	1    0    0    -1  
$EndComp
Wire Wire Line
	5700 2100 5700 1200
Wire Wire Line
	5700 1200 5900 1200
Wire Wire Line
	6500 1550 6500 1650
Wire Wire Line
	7200 1550 7200 1650
Wire Wire Line
	7900 1550 7900 1650
$Comp
L INDUCTOR_SMALL L108
U 1 1 5252B2E8
P 7100 1950
F 0 "L108" H 7100 2050 50  0000 C CNN
F 1 "INDUCTOR_SMALL" H 7100 1900 50  0000 C CNN
F 2 "~" H 7100 1950 60  0000 C CNN
F 3 "~" H 7100 1950 60  0000 C CNN
	1    7100 1950
	1    0    0    -1  
$EndComp
$Comp
L INDUCTOR_SMALL L110
U 1 1 5252B2F7
P 7800 1950
F 0 "L110" H 7800 2050 50  0000 C CNN
F 1 "INDUCTOR_SMALL" H 7800 1900 50  0000 C CNN
F 2 "~" H 7800 1950 60  0000 C CNN
F 3 "~" H 7800 1950 60  0000 C CNN
	1    7800 1950
	1    0    0    -1  
$EndComp
$Comp
L INDUCTOR_SMALL L112
U 1 1 5252B306
P 8500 1950
F 0 "L112" H 8500 2050 50  0000 C CNN
F 1 "INDUCTOR_SMALL" H 8500 1900 50  0000 C CNN
F 2 "~" H 8500 1950 60  0000 C CNN
F 3 "~" H 8500 1950 60  0000 C CNN
	1    8500 1950
	1    0    0    -1  
$EndComp
$Comp
L CSMALL C123
U 1 1 5252B315
P 7450 2200
F 0 "C123" H 7475 2250 30  0000 L CNN
F 1 "CSMALL" H 7475 2150 30  0000 L CNN
F 2 "~" H 7450 2200 60  0000 C CNN
F 3 "~" H 7450 2200 60  0000 C CNN
	1    7450 2200
	1    0    0    -1  
$EndComp
$Comp
L CSMALL C125
U 1 1 5252B32E
P 8150 2200
F 0 "C125" H 8175 2250 30  0000 L CNN
F 1 "CSMALL" H 8175 2150 30  0000 L CNN
F 2 "~" H 8150 2200 60  0000 C CNN
F 3 "~" H 8150 2200 60  0000 C CNN
	1    8150 2200
	1    0    0    -1  
$EndComp
$Comp
L CSMALL C127
U 1 1 5252B33D
P 8850 2200
F 0 "C127" H 8875 2250 30  0000 L CNN
F 1 "CSMALL" H 8875 2150 30  0000 L CNN
F 2 "~" H 8850 2200 60  0000 C CNN
F 3 "~" H 8850 2200 60  0000 C CNN
	1    8850 2200
	1    0    0    -1  
$EndComp
Wire Wire Line
	7350 1950 7550 1950
Wire Wire Line
	7450 2100 7450 1950
Connection ~ 7450 1950
Wire Wire Line
	8050 1950 8250 1950
Wire Wire Line
	8150 2100 8150 1950
Connection ~ 8150 1950
Wire Wire Line
	8750 1950 8950 1950
Wire Wire Line
	8850 1950 8850 2100
$Comp
L GND #PWR014
U 1 1 5252B545
P 7450 2400
F 0 "#PWR014" H 7450 2400 30  0001 C CNN
F 1 "GND" H 7450 2330 30  0001 C CNN
F 2 "" H 7450 2400 60  0000 C CNN
F 3 "" H 7450 2400 60  0000 C CNN
	1    7450 2400
	1    0    0    -1  
$EndComp
$Comp
L GND #PWR015
U 1 1 5252B554
P 8150 2400
F 0 "#PWR015" H 8150 2400 30  0001 C CNN
F 1 "GND" H 8150 2330 30  0001 C CNN
F 2 "" H 8150 2400 60  0000 C CNN
F 3 "" H 8150 2400 60  0000 C CNN
	1    8150 2400
	1    0    0    -1  
$EndComp
$Comp
L GND #PWR016
U 1 1 5252B563
P 8850 2400
F 0 "#PWR016" H 8850 2400 30  0001 C CNN
F 1 "GND" H 8850 2330 30  0001 C CNN
F 2 "" H 8850 2400 60  0000 C CNN
F 3 "" H 8850 2400 60  0000 C CNN
	1    8850 2400
	1    0    0    -1  
$EndComp
Wire Wire Line
	8850 2300 8850 2400
Wire Wire Line
	8150 2300 8150 2400
Wire Wire Line
	7450 2300 7450 2400
Text GLabel 8000 1200 2    25   Output ~ 0
F_OUT_2
Text GLabel 8950 1950 2    25   Output ~ 0
F_OUT_3
Connection ~ 7900 1200
Connection ~ 8850 1950
$Comp
L VDD #PWR017
U 1 1 526E7B93
P 1250 6600
F 0 "#PWR017" H 1250 6700 30  0001 C CNN
F 1 "VDD" H 1250 6710 30  0000 C CNN
F 2 "" H 1250 6600 60  0000 C CNN
F 3 "" H 1250 6600 60  0000 C CNN
	1    1250 6600
	1    0    0    -1  
$EndComp
$Comp
L INDUCTOR_SMALL L101
U 1 1 526E7BA2
P 1700 6750
F 0 "L101" H 1700 6850 50  0000 C CNN
F 1 "FB 0805" H 1700 6700 50  0000 C CNN
F 2 "~" H 1700 6750 60  0000 C CNN
F 3 "~" H 1700 6750 60  0000 C CNN
	1    1700 6750
	1    0    0    -1  
$EndComp
Wire Wire Line
	1250 6600 1250 6850
Wire Wire Line
	1250 6750 1450 6750
$Comp
L CSMALL C104
U 1 1 526E7CDE
P 1250 6950
F 0 "C104" H 1275 7000 30  0000 L CNN
F 1 "1u" H 1275 6900 30  0000 L CNN
F 2 "~" H 1250 6950 60  0000 C CNN
F 3 "~" H 1250 6950 60  0000 C CNN
	1    1250 6950
	1    0    0    -1  
$EndComp
$Comp
L CSMALL C113
U 1 1 526E7CED
P 2150 6950
F 0 "C113" H 2175 7000 30  0000 L CNN
F 1 "1u" H 2175 6900 30  0000 L CNN
F 2 "~" H 2150 6950 60  0000 C CNN
F 3 "~" H 2150 6950 60  0000 C CNN
	1    2150 6950
	1    0    0    -1  
$EndComp
$Comp
L GND #PWR018
U 1 1 526E7CFC
P 2150 7150
F 0 "#PWR018" H 2150 7150 30  0001 C CNN
F 1 "GND" H 2150 7080 30  0001 C CNN
F 2 "" H 2150 7150 60  0000 C CNN
F 3 "" H 2150 7150 60  0000 C CNN
	1    2150 7150
	1    0    0    -1  
$EndComp
$Comp
L GND #PWR019
U 1 1 526E7D0B
P 1250 7150
F 0 "#PWR019" H 1250 7150 30  0001 C CNN
F 1 "GND" H 1250 7080 30  0001 C CNN
F 2 "" H 1250 7150 60  0000 C CNN
F 3 "" H 1250 7150 60  0000 C CNN
	1    1250 7150
	1    0    0    -1  
$EndComp
Wire Wire Line
	2150 6600 2150 6850
Wire Wire Line
	2150 7050 2150 7150
Wire Wire Line
	1250 7050 1250 7150
Connection ~ 1250 6750
$Comp
L VDD #PWR020
U 1 1 526E8195
P 2000 7300
F 0 "#PWR020" H 2000 7400 30  0001 C CNN
F 1 "VDD" H 2000 7410 30  0000 C CNN
F 2 "" H 2000 7300 60  0000 C CNN
F 3 "" H 2000 7300 60  0000 C CNN
	1    2000 7300
	1    0    0    -1  
$EndComp
$Comp
L CSMALL C105
U 1 1 526E81A4
P 1250 7500
F 0 "C105" H 1275 7550 30  0000 L CNN
F 1 "1u" H 1275 7450 30  0000 L CNN
F 2 "~" H 1250 7500 60  0000 C CNN
F 3 "~" H 1250 7500 60  0000 C CNN
	1    1250 7500
	1    0    0    -1  
$EndComp
$Comp
L CSMALL C107
U 1 1 526E81B3
P 1500 7500
F 0 "C107" H 1525 7550 30  0000 L CNN
F 1 "0.1u" H 1525 7450 30  0000 L CNN
F 2 "~" H 1500 7500 60  0000 C CNN
F 3 "~" H 1500 7500 60  0000 C CNN
	1    1500 7500
	1    0    0    -1  
$EndComp
$Comp
L CSMALL C110
U 1 1 526E81C2
P 1750 7500
F 0 "C110" H 1775 7550 30  0000 L CNN
F 1 "10n" H 1775 7450 30  0000 L CNN
F 2 "~" H 1750 7500 60  0000 C CNN
F 3 "~" H 1750 7500 60  0000 C CNN
	1    1750 7500
	1    0    0    -1  
$EndComp
$Comp
L INDUCTOR_SMALL L107
U 1 1 526E81D1
P 4900 2850
F 0 "L107" H 4900 2950 50  0000 C CNN
F 1 "220n" H 4900 2800 50  0000 C CNN
F 2 "~" H 4900 2850 60  0000 C CNN
F 3 "~" H 4900 2850 60  0000 C CNN
	1    4900 2850
	0    -1   -1   0   
$EndComp
Wire Wire Line
	4900 2600 4900 2450
Connection ~ 4900 2450
$Comp
L CSMALL C112
U 1 1 526E835D
P 2000 7500
F 0 "C112" H 2025 7550 30  0000 L CNN
F 1 "10n" H 2025 7450 30  0000 L CNN
F 2 "~" H 2000 7500 60  0000 C CNN
F 3 "~" H 2000 7500 60  0000 C CNN
	1    2000 7500
	1    0    0    -1  
$EndComp
$Comp
L GND #PWR021
U 1 1 526E836C
P 2000 7700
F 0 "#PWR021" H 2000 7700 30  0001 C CNN
F 1 "GND" H 2000 7630 30  0001 C CNN
F 2 "" H 2000 7700 60  0000 C CNN
F 3 "" H 2000 7700 60  0000 C CNN
	1    2000 7700
	1    0    0    -1  
$EndComp
Wire Wire Line
	2000 7300 2000 7400
Wire Wire Line
	1250 7350 2000 7350
Wire Wire Line
	1250 7350 1250 7400
Connection ~ 2000 7350
Wire Wire Line
	1500 7400 1500 7350
Connection ~ 1500 7350
Wire Wire Line
	1750 7400 1750 7350
Connection ~ 1750 7350
Wire Wire Line
	1250 7600 1250 7650
Wire Wire Line
	1250 7650 2000 7650
Wire Wire Line
	2000 7600 2000 7700
Connection ~ 2000 7650
Wire Wire Line
	1750 7600 1750 7650
Connection ~ 1750 7650
Wire Wire Line
	1500 7600 1500 7650
Connection ~ 1500 7650
$Comp
L AVDD #PWR022
U 1 1 526E839E
P 2150 6600
F 0 "#PWR022" H 2150 6700 30  0001 C CNN
F 1 "AVDD" H 2150 6710 30  0000 C CNN
F 2 "~" H 2150 6600 60  0000 C CNN
F 3 "~" H 2150 6600 60  0000 C CNN
	1    2150 6600
	1    0    0    -1  
$EndComp
$Comp
L RFVDD #PWR023
U 1 1 526E87EA
P 4850 3500
F 0 "#PWR023" H 4850 3600 30  0001 C CNN
F 1 "RFVDD" H 4850 3610 30  0000 C CNN
F 2 "~" H 4850 3500 60  0000 C CNN
F 3 "~" H 4850 3500 60  0000 C CNN
	1    4850 3500
	1    0    0    -1  
$EndComp
Wire Wire Line
	4850 3500 4850 3600
Wire Wire Line
	4900 3100 4900 3200
$Comp
L TXVDD #PWR024
U 1 1 526E8BF5
P 4500 3050
F 0 "#PWR024" H 4500 3150 30  0001 C CNN
F 1 "TXVDD" H 4500 3160 30  0000 C CNN
F 2 "~" H 4500 3050 60  0000 C CNN
F 3 "~" H 4500 3050 60  0000 C CNN
	1    4500 3050
	1    0    0    -1  
$EndComp
$Comp
L RFVDD #PWR025
U 1 1 526E9DF1
P 8350 5850
F 0 "#PWR025" H 8350 5950 30  0001 C CNN
F 1 "RFVDD" H 8350 5960 30  0000 C CNN
F 2 "~" H 8350 5850 60  0000 C CNN
F 3 "~" H 8350 5850 60  0000 C CNN
	1    8350 5850
	1    0    0    -1  
$EndComp
$Comp
L CSMALL C129
U 1 1 526E9E00
P 8350 6050
F 0 "C129" H 8375 6100 30  0000 L CNN
F 1 "1u" H 8375 6000 30  0000 L CNN
F 2 "~" H 8350 6050 60  0000 C CNN
F 3 "~" H 8350 6050 60  0000 C CNN
	1    8350 6050
	1    0    0    -1  
$EndComp
$Comp
L CSMALL C130
U 1 1 526E9E0F
P 8600 6050
F 0 "C130" H 8625 6100 30  0000 L CNN
F 1 "0.1u" H 8625 6000 30  0000 L CNN
F 2 "~" H 8600 6050 60  0000 C CNN
F 3 "~" H 8600 6050 60  0000 C CNN
	1    8600 6050
	1    0    0    -1  
$EndComp
$Comp
L GND #PWR026
U 1 1 526E9E1E
P 8600 6250
F 0 "#PWR026" H 8600 6250 30  0001 C CNN
F 1 "GND" H 8600 6180 30  0001 C CNN
F 2 "" H 8600 6250 60  0000 C CNN
F 3 "" H 8600 6250 60  0000 C CNN
	1    8600 6250
	1    0    0    -1  
$EndComp
$Comp
L GND #PWR027
U 1 1 526E9E2D
P 8350 6250
F 0 "#PWR027" H 8350 6250 30  0001 C CNN
F 1 "GND" H 8350 6180 30  0001 C CNN
F 2 "" H 8350 6250 60  0000 C CNN
F 3 "" H 8350 6250 60  0000 C CNN
	1    8350 6250
	1    0    0    -1  
$EndComp
$Comp
L VDD #PWR028
U 1 1 526E9E3C
P 8600 5850
F 0 "#PWR028" H 8600 5950 30  0001 C CNN
F 1 "VDD" H 8600 5960 30  0000 C CNN
F 2 "" H 8600 5850 60  0000 C CNN
F 3 "" H 8600 5850 60  0000 C CNN
	1    8600 5850
	1    0    0    -1  
$EndComp
Wire Wire Line
	8600 6150 8600 6250
Wire Wire Line
	8350 6150 8350 6250
Wire Wire Line
	8350 5850 8350 5950
Wire Wire Line
	8600 5850 8600 5950
Connection ~ 8350 5900
Connection ~ 8600 5900
$Comp
L CSMALL C132
U 1 1 526EA187
P 9600 6050
F 0 "C132" H 9625 6100 30  0000 L CNN
F 1 "1u" H 9625 6000 30  0000 L CNN
F 2 "~" H 9600 6050 60  0000 C CNN
F 3 "~" H 9600 6050 60  0000 C CNN
	1    9600 6050
	1    0    0    -1  
$EndComp
$Comp
L CSMALL C133
U 1 1 526EA196
P 9850 6050
F 0 "C133" H 9875 6100 30  0000 L CNN
F 1 "0.1" H 9875 6000 30  0000 L CNN
F 2 "~" H 9850 6050 60  0000 C CNN
F 3 "~" H 9850 6050 60  0000 C CNN
	1    9850 6050
	1    0    0    -1  
$EndComp
$Comp
L CSMALL C135
U 1 1 526EA1A5
P 10500 6050
F 0 "C135" H 10525 6100 30  0000 L CNN
F 1 "1u" H 10525 6000 30  0000 L CNN
F 2 "~" H 10500 6050 60  0000 C CNN
F 3 "~" H 10500 6050 60  0000 C CNN
	1    10500 6050
	1    0    0    -1  
$EndComp
$Comp
L CSMALL C136
U 1 1 526EA1B4
P 10750 6050
F 0 "C136" H 10775 6100 30  0000 L CNN
F 1 "0.1" H 10775 6000 30  0000 L CNN
F 2 "~" H 10750 6050 60  0000 C CNN
F 3 "~" H 10750 6050 60  0000 C CNN
	1    10750 6050
	1    0    0    -1  
$EndComp
$Comp
L INDUCTOR_SMALL L114
U 1 1 526EA1C3
P 10150 5900
F 0 "L114" H 10150 6000 50  0000 C CNN
F 1 "FB 0805" H 10150 5850 50  0000 C CNN
F 2 "~" H 10150 5900 60  0000 C CNN
F 3 "~" H 10150 5900 60  0000 C CNN
	1    10150 5900
	1    0    0    -1  
$EndComp
Wire Wire Line
	9850 5900 9850 5950
Connection ~ 9850 5900
Wire Wire Line
	9600 5900 9600 5950
Connection ~ 9600 5900
Wire Wire Line
	10400 5900 10800 5900
Wire Wire Line
	10750 5900 10750 5950
Wire Wire Line
	10500 5900 10500 5950
Connection ~ 10500 5900
$Comp
L GND #PWR029
U 1 1 526EA531
P 9600 6250
F 0 "#PWR029" H 9600 6250 30  0001 C CNN
F 1 "GND" H 9600 6180 30  0001 C CNN
F 2 "" H 9600 6250 60  0000 C CNN
F 3 "" H 9600 6250 60  0000 C CNN
	1    9600 6250
	1    0    0    -1  
$EndComp
$Comp
L GND #PWR030
U 1 1 526EA540
P 9850 6250
F 0 "#PWR030" H 9850 6250 30  0001 C CNN
F 1 "GND" H 9850 6180 30  0001 C CNN
F 2 "" H 9850 6250 60  0000 C CNN
F 3 "" H 9850 6250 60  0000 C CNN
	1    9850 6250
	1    0    0    -1  
$EndComp
$Comp
L GND #PWR031
U 1 1 526EA54F
P 10500 6250
F 0 "#PWR031" H 10500 6250 30  0001 C CNN
F 1 "GND" H 10500 6180 30  0001 C CNN
F 2 "" H 10500 6250 60  0000 C CNN
F 3 "" H 10500 6250 60  0000 C CNN
	1    10500 6250
	1    0    0    -1  
$EndComp
$Comp
L GND #PWR032
U 1 1 526EA55E
P 10750 6250
F 0 "#PWR032" H 10750 6250 30  0001 C CNN
F 1 "GND" H 10750 6180 30  0001 C CNN
F 2 "" H 10750 6250 60  0000 C CNN
F 3 "" H 10750 6250 60  0000 C CNN
	1    10750 6250
	1    0    0    -1  
$EndComp
Wire Wire Line
	10750 6150 10750 6250
Wire Wire Line
	10500 6150 10500 6250
Wire Wire Line
	9850 6150 9850 6250
Wire Wire Line
	9600 6150 9600 6250
$Comp
L R R107
U 1 1 526EA83B
P 9050 5900
F 0 "R107" V 9130 5900 40  0000 C CNN
F 1 "0" V 9057 5901 40  0000 C CNN
F 2 "~" V 8980 5900 30  0000 C CNN
F 3 "~" H 9050 5900 30  0000 C CNN
	1    9050 5900
	0    -1   -1   0   
$EndComp
$Comp
L R R110
U 1 1 526EA84A
P 9450 5550
F 0 "R110" V 9530 5550 40  0000 C CNN
F 1 "N.E." V 9457 5551 40  0000 C CNN
F 2 "~" V 9380 5550 30  0000 C CNN
F 3 "~" H 9450 5550 30  0000 C CNN
	1    9450 5550
	1    0    0    -1  
$EndComp
Wire Wire Line
	8350 5900 8800 5900
Wire Wire Line
	9300 5900 9900 5900
Wire Wire Line
	9450 5800 9450 5900
Connection ~ 9450 5900
$Comp
L VBAT #PWR033
U 1 1 526EACD1
P 9450 5200
F 0 "#PWR033" H 9450 5300 30  0001 C CNN
F 1 "VBAT" H 9450 5310 30  0000 C CNN
F 2 "~" H 9450 5200 60  0000 C CNN
F 3 "~" H 9450 5200 60  0000 C CNN
	1    9450 5200
	1    0    0    -1  
$EndComp
Wire Wire Line
	9450 5200 9450 5300
$Comp
L TXVDD #PWR034
U 1 1 526EADAA
P 10800 5850
F 0 "#PWR034" H 10800 5950 30  0001 C CNN
F 1 "TXVDD" H 10800 5960 30  0000 C CNN
F 2 "~" H 10800 5850 60  0000 C CNN
F 3 "~" H 10800 5850 60  0000 C CNN
	1    10800 5850
	1    0    0    -1  
$EndComp
Wire Wire Line
	10800 5900 10800 5850
Connection ~ 10750 5900
Wire Wire Line
	4900 3200 4500 3200
Wire Wire Line
	4500 3200 4500 3050
Wire Wire Line
	5050 3600 5050 2550
Wire Wire Line
	5050 2550 5400 2550
Connection ~ 5050 3600
Text Notes 9800 5300 0    60   ~ 0
TXVDD:\n- VBat for more power\n- VDD for in spec
$Sheet
S 11500 400  1050 900 
U 5271334E
F0 "solar psu" 50
F1 "solar.sch" 50
$EndSheet
Wire Wire Line
	1950 6750 2150 6750
Connection ~ 2150 6750
$Comp
L EFM32WG332 U101
U 1 1 52857B68
P 4450 5350
F 0 "U101" H 4450 5350 50  0000 C CNN
F 1 "EFM32WG332" H 4450 5550 50  0000 C CNN
F 2 "" H 3850 5800 60  0000 C CNN
F 3 "" H 3850 5800 60  0000 C CNN
	1    4450 5350
	1    0    0    -1  
$EndComp
Wire Wire Line
	4450 5900 4450 6900
$Comp
L AVDD #PWR035
U 1 1 52857DF7
P 3750 6200
F 0 "#PWR035" H 3750 6300 30  0001 C CNN
F 1 "AVDD" H 3750 6310 30  0000 C CNN
F 2 "~" H 3750 6200 60  0000 C CNN
F 3 "~" H 3750 6200 60  0000 C CNN
	1    3750 6200
	1    0    0    -1  
$EndComp
Wire Wire Line
	4350 5900 4350 6250
Wire Wire Line
	4550 6250 4550 5900
$Comp
L GND #PWR036
U 1 1 528580B2
P 4300 6350
F 0 "#PWR036" H 4300 6350 30  0001 C CNN
F 1 "GND" H 4300 6280 30  0001 C CNN
F 2 "" H 4300 6350 60  0000 C CNN
F 3 "" H 4300 6350 60  0000 C CNN
	1    4300 6350
	1    0    0    -1  
$EndComp
Wire Wire Line
	4300 5900 4300 6350
$Comp
L GND #PWR037
U 1 1 5285816D
P 3350 5350
F 0 "#PWR037" H 3350 5350 30  0001 C CNN
F 1 "GND" H 3350 5280 30  0001 C CNN
F 2 "" H 3350 5350 60  0000 C CNN
F 3 "" H 3350 5350 60  0000 C CNN
	1    3350 5350
	1    0    0    -1  
$EndComp
Wire Wire Line
	3850 5300 3350 5300
Wire Wire Line
	3350 5300 3350 5350
$Comp
L GND #PWR038
U 1 1 5285822A
P 5050 4700
F 0 "#PWR038" H 5050 4700 30  0001 C CNN
F 1 "GND" H 5050 4630 30  0001 C CNN
F 2 "" H 5050 4700 60  0000 C CNN
F 3 "" H 5050 4700 60  0000 C CNN
	1    5050 4700
	1    0    0    -1  
$EndComp
Wire Wire Line
	4450 4750 4450 4500
Wire Wire Line
	4450 4500 5050 4500
Wire Wire Line
	5050 4500 5050 4700
$Comp
L MAX-7 U103
U 1 1 5291DADD
P 9150 3300
F 0 "U103" H 9150 2850 60  0000 C CNN
F 1 "MAX-7" H 9150 3700 60  0000 C CNN
F 2 "~" H 9050 3600 60  0000 C CNN
F 3 "~" H 9050 3600 60  0000 C CNN
	1    9150 3300
	1    0    0    -1  
$EndComp
$Comp
L GND #PWR039
U 1 1 5291DAEC
P 8550 3600
F 0 "#PWR039" H 8550 3600 30  0001 C CNN
F 1 "GND" H 8550 3530 30  0001 C CNN
F 2 "" H 8550 3600 60  0000 C CNN
F 3 "" H 8550 3600 60  0000 C CNN
	1    8550 3600
	1    0    0    -1  
$EndComp
Wire Wire Line
	8850 3200 8550 3200
Wire Wire Line
	8550 3100 8550 3600
Wire Wire Line
	8850 3100 8550 3100
Connection ~ 8550 3200
$Comp
L GND #PWR040
U 1 1 5291DC63
P 9600 3600
F 0 "#PWR040" H 9600 3600 30  0001 C CNN
F 1 "GND" H 9600 3530 30  0001 C CNN
F 2 "" H 9600 3600 60  0000 C CNN
F 3 "" H 9600 3600 60  0000 C CNN
	1    9600 3600
	1    0    0    -1  
$EndComp
Wire Wire Line
	9450 3500 10500 3500
Wire Wire Line
	9600 3500 9600 3600
$Comp
L VDD #PWR041
U 1 1 5291DD80
P 9600 2950
F 0 "#PWR041" H 9600 3050 30  0001 C CNN
F 1 "VDD" H 9600 3060 30  0000 C CNN
F 2 "" H 9600 2950 60  0000 C CNN
F 3 "" H 9600 2950 60  0000 C CNN
	1    9600 2950
	1    0    0    -1  
$EndComp
Wire Wire Line
	9600 2950 9600 3250
Wire Wire Line
	9600 3150 9450 3150
Wire Wire Line
	9600 3200 9450 3200
Connection ~ 9600 3150
Wire Wire Line
	9600 3250 9450 3250
Connection ~ 9600 3200
$Comp
L VDD #PWR042
U 1 1 5291E114
P 4500 4300
F 0 "#PWR042" H 4500 4400 30  0001 C CNN
F 1 "VDD" H 4500 4410 30  0000 C CNN
F 2 "" H 4500 4300 60  0000 C CNN
F 3 "" H 4500 4300 60  0000 C CNN
	1    4500 4300
	1    0    0    -1  
$EndComp
Wire Wire Line
	4500 4300 4500 4750
Wire Wire Line
	3750 4450 5500 4450
Wire Wire Line
	3750 4450 3750 6050
Wire Wire Line
	3750 5250 3850 5250
Connection ~ 4500 4450
Text GLabel 6200 2500 2    25   Input ~ 0
SPI_CLK
Text GLabel 6200 2450 2    25   Output ~ 0
SPI_MISO
Wire Wire Line
	6200 2450 6050 2450
Wire Wire Line
	6200 2500 6050 2500
Text GLabel 6200 2400 2    25   Input ~ 0
SPI_MOSI
Wire Wire Line
	6200 2400 6050 2400
Text GLabel 6200 2550 2    25   Output ~ 0
RF_INT
Wire Wire Line
	6200 2550 6050 2550
Text GLabel 6200 2350 2    25   Input ~ 0
SPI_RF_CS
Wire Wire Line
	6200 2350 6050 2350
$Comp
L E5393LF X102
U 1 1 5291E840
P 9750 1450
F 0 "X102" H 9750 1250 60  0000 C CNN
F 1 "E5393LF" H 9700 1150 60  0000 C CNN
F 2 "" H 9700 1500 60  0000 C CNN
F 3 "" H 9700 1500 60  0000 C CNN
	1    9750 1450
	1    0    0    -1  
$EndComp
$Comp
L GND #PWR043
U 1 1 5291E84F
P 9950 1750
F 0 "#PWR043" H 9950 1750 30  0001 C CNN
F 1 "GND" H 9950 1680 30  0001 C CNN
F 2 "" H 9950 1750 60  0000 C CNN
F 3 "" H 9950 1750 60  0000 C CNN
	1    9950 1750
	1    0    0    -1  
$EndComp
$Comp
L VDD #PWR044
U 1 1 5291E927
P 9350 850
F 0 "#PWR044" H 9350 950 30  0001 C CNN
F 1 "VDD" H 9350 960 30  0000 C CNN
F 2 "" H 9350 850 60  0000 C CNN
F 3 "" H 9350 850 60  0000 C CNN
	1    9350 850 
	1    0    0    -1  
$EndComp
Wire Wire Line
	9900 1500 9950 1500
Wire Wire Line
	9950 1500 9950 1750
Text GLabel 10350 1400 2    25   Output ~ 0
RF_CLK
$Comp
L R R108
U 1 1 5291EF0B
P 9350 1200
F 0 "R108" V 9430 1200 40  0000 C CNN
F 1 "R" V 9357 1201 40  0000 C CNN
F 2 "~" V 9280 1200 30  0000 C CNN
F 3 "~" H 9350 1200 30  0000 C CNN
	1    9350 1200
	1    0    0    -1  
$EndComp
Wire Wire Line
	9350 850  9350 950 
Wire Wire Line
	9350 1450 9350 1550
Wire Wire Line
	9350 1500 9550 1500
Wire Wire Line
	9350 900  9500 900 
Wire Wire Line
	9500 900  9500 1400
Wire Wire Line
	9500 1400 9550 1400
Connection ~ 9350 900 
$Comp
L R R109
U 1 1 5291F19B
P 9350 1800
F 0 "R109" V 9430 1800 40  0000 C CNN
F 1 "R" V 9357 1801 40  0000 C CNN
F 2 "~" V 9280 1800 30  0000 C CNN
F 3 "~" H 9350 1800 30  0000 C CNN
	1    9350 1800
	1    0    0    -1  
$EndComp
$Comp
L GND #PWR045
U 1 1 5291F1AA
P 9350 2100
F 0 "#PWR045" H 9350 2100 30  0001 C CNN
F 1 "GND" H 9350 2030 30  0001 C CNN
F 2 "" H 9350 2100 60  0000 C CNN
F 3 "" H 9350 2100 60  0000 C CNN
	1    9350 2100
	1    0    0    -1  
$EndComp
Connection ~ 9350 1500
Wire Wire Line
	9350 2050 9350 2100
$Comp
L CSMALL C131
U 1 1 5291F372
P 9750 1200
F 0 "C131" H 9775 1250 30  0000 L CNN
F 1 "10nF" V 9650 1150 30  0000 L CNN
F 2 "~" H 9750 1200 60  0000 C CNN
F 3 "~" H 9750 1200 60  0000 C CNN
	1    9750 1200
	0    -1   -1   0   
$EndComp
Wire Wire Line
	9650 1200 9500 1200
Connection ~ 9500 1200
$Comp
L GND #PWR046
U 1 1 5291F464
P 10050 1300
F 0 "#PWR046" H 10050 1300 30  0001 C CNN
F 1 "GND" H 10050 1230 30  0001 C CNN
F 2 "" H 10050 1300 60  0000 C CNN
F 3 "" H 10050 1300 60  0000 C CNN
	1    10050 1300
	1    0    0    -1  
$EndComp
Wire Wire Line
	9850 1200 10050 1200
Wire Wire Line
	10050 1200 10050 1300
Text GLabel 5900 2000 2    25   Input ~ 0
RF_CLK
Wire Wire Line
	5900 2000 5800 2000
Wire Wire Line
	5800 2000 5800 2100
Text GLabel 3650 4950 0    25   BiDi ~ 0
GPS_SDA
Wire Wire Line
	3650 4950 3850 4950
Text GLabel 3650 5000 0    25   BiDi ~ 0
GPS_SCL
Wire Wire Line
	3650 5000 3850 5000
Text GLabel 8300 3400 0    25   BiDi ~ 0
GPS_SDA
Text GLabel 8300 3450 0    25   BiDi ~ 0
GPS_SCL
Wire Wire Line
	8300 3400 8850 3400
Wire Wire Line
	8300 3450 8850 3450
NoConn ~ 8850 3350
NoConn ~ 8850 3300
NoConn ~ 8850 3250
$Comp
L CONN_3 K101
U 1 1 5291FB84
P 10850 3400
F 0 "K101" V 10800 3400 50  0000 C CNN
F 1 "gps_serial" V 10900 3400 40  0000 C CNN
F 2 "" H 10850 3400 60  0000 C CNN
F 3 "" H 10850 3400 60  0000 C CNN
	1    10850 3400
	1    0    0    -1  
$EndComp
Connection ~ 9600 3500
Wire Wire Line
	9450 3450 10400 3450
Wire Wire Line
	10400 3450 10400 3400
Wire Wire Line
	10400 3400 10500 3400
Wire Wire Line
	9450 3400 10300 3400
Wire Wire Line
	10300 3400 10300 3300
Wire Wire Line
	10300 3300 10500 3300
$Comp
L 1575AT43A0040 ANT101
U 1 1 5291FEB9
P 8200 2750
F 0 "ANT101" H 8000 2500 60  0000 C CNN
F 1 "1575AT43A0040" H 8750 2600 60  0001 C CNN
F 2 "" H 8200 2750 60  0000 C CNN
F 3 "" H 8200 2750 60  0000 C CNN
	1    8200 2750
	1    0    0    -1  
$EndComp
Wire Wire Line
	8200 3050 8200 3150
Wire Wire Line
	8200 3150 8850 3150
Text GLabel 9950 3250 2    25   Input ~ 0
GPS_INT
Wire Wire Line
	9450 3300 9800 3300
Wire Wire Line
	9800 3300 9800 3250
Wire Wire Line
	9800 3250 9950 3250
Text GLabel 9950 3350 2    25   Output ~ 0
GPS_TPULSE
Wire Wire Line
	9450 3350 9950 3350
$Comp
L R R111
U 1 1 52920190
P 10350 2950
F 0 "R111" V 10430 2950 40  0000 C CNN
F 1 "0" V 10357 2951 40  0000 C CNN
F 2 "~" V 10280 2950 30  0000 C CNN
F 3 "~" H 10350 2950 30  0000 C CNN
	1    10350 2950
	1    0    0    -1  
$EndComp
Text GLabel 10450 2600 2    25   Output ~ 0
GPS_I2C_DR
Wire Wire Line
	10350 3200 10350 3450
Connection ~ 10350 3450
Wire Wire Line
	10350 2700 10350 2600
Wire Wire Line
	10350 2600 10450 2600
$Comp
L CSMALL C121
U 1 1 5292050C
P 5550 5600
F 0 "C121" H 5575 5650 30  0000 L CNN
F 1 "CSMALL" H 5575 5550 30  0000 L CNN
F 2 "~" H 5550 5600 60  0000 C CNN
F 3 "~" H 5550 5600 60  0000 C CNN
	1    5550 5600
	1    0    0    -1  
$EndComp
Wire Wire Line
	5150 5350 5550 5350
Wire Wire Line
	5550 5350 5550 5500
$Comp
L GND #PWR047
U 1 1 5292060F
P 5550 5800
F 0 "#PWR047" H 5550 5800 30  0001 C CNN
F 1 "GND" H 5550 5730 30  0001 C CNN
F 2 "" H 5550 5800 60  0000 C CNN
F 3 "" H 5550 5800 60  0000 C CNN
	1    5550 5800
	1    0    0    -1  
$EndComp
Wire Wire Line
	5550 5700 5550 5800
Wire Wire Line
	5150 5400 5500 5400
Wire Wire Line
	5500 5400 5500 4450
Text GLabel 1050 5550 0    25   Input ~ 0
F_OUT_2
$Comp
L CSMALL C103
U 1 1 52921536
P 1250 5550
F 0 "C103" H 1275 5600 30  0000 L CNN
F 1 "1u" H 1275 5500 30  0000 L CNN
F 2 "~" H 1250 5550 60  0000 C CNN
F 3 "~" H 1250 5550 60  0000 C CNN
	1    1250 5550
	0    -1   -1   0   
$EndComp
$Comp
L R R101
U 1 1 52921545
P 1500 5250
F 0 "R101" V 1580 5250 40  0000 C CNN
F 1 "xk" V 1507 5251 40  0000 C CNN
F 2 "~" V 1430 5250 30  0000 C CNN
F 3 "~" H 1500 5250 30  0000 C CNN
	1    1500 5250
	1    0    0    -1  
$EndComp
$Comp
L R R102
U 1 1 52921554
P 1500 5850
F 0 "R102" V 1580 5850 40  0000 C CNN
F 1 "xk" V 1507 5851 40  0000 C CNN
F 2 "~" V 1430 5850 30  0000 C CNN
F 3 "~" H 1500 5850 30  0000 C CNN
	1    1500 5850
	1    0    0    -1  
$EndComp
Wire Wire Line
	1150 5550 1050 5550
Wire Wire Line
	1350 5550 3850 5550
Wire Wire Line
	1500 5500 1500 5600
Connection ~ 1500 5550
$Comp
L GND #PWR048
U 1 1 52921C41
P 1500 6250
F 0 "#PWR048" H 1500 6250 30  0001 C CNN
F 1 "GND" H 1500 6180 30  0001 C CNN
F 2 "" H 1500 6250 60  0000 C CNN
F 3 "" H 1500 6250 60  0000 C CNN
	1    1500 6250
	1    0    0    -1  
$EndComp
$Comp
L VDD #PWR049
U 1 1 52921C5F
P 1500 4900
F 0 "#PWR049" H 1500 5000 30  0001 C CNN
F 1 "VDD" H 1500 5010 30  0000 C CNN
F 2 "" H 1500 4900 60  0000 C CNN
F 3 "" H 1500 4900 60  0000 C CNN
	1    1500 4900
	1    0    0    -1  
$EndComp
Wire Wire Line
	1500 6100 1500 6250
Wire Wire Line
	1500 5000 1500 4900
$Comp
L R R103
U 1 1 52921E6E
P 1900 5700
F 0 "R103" V 1980 5700 40  0000 C CNN
F 1 "R" V 1907 5701 40  0000 C CNN
F 2 "~" V 1830 5700 30  0000 C CNN
F 3 "~" H 1900 5700 30  0000 C CNN
	1    1900 5700
	0    -1   -1   0   
$EndComp
Wire Wire Line
	1650 5700 1600 5700
Wire Wire Line
	1600 5700 1600 6150
Wire Wire Line
	1600 6150 1500 6150
Connection ~ 1500 6150
Wire Wire Line
	2300 5600 3850 5600
Wire Wire Line
	2300 5600 2300 5850
Wire Wire Line
	2300 5700 2150 5700
Connection ~ 4350 6250
Wire Wire Line
	3750 6250 4550 6250
Wire Wire Line
	4250 5900 4250 6000
Wire Wire Line
	4250 6000 3850 6000
Wire Wire Line
	3850 6000 3850 5850
Wire Wire Line
	3850 5850 3050 5850
$Comp
L R R104
U 1 1 529227B1
P 2800 5850
F 0 "R104" V 2880 5850 40  0000 C CNN
F 1 "R" V 2807 5851 40  0000 C CNN
F 2 "~" V 2730 5850 30  0000 C CNN
F 3 "~" H 2800 5850 30  0000 C CNN
	1    2800 5850
	0    -1   -1   0   
$EndComp
Wire Wire Line
	2300 5850 2550 5850
Connection ~ 2300 5700
Text Notes 2600 6000 0    25   ~ 0
Following the mode\nwe can use internal\nresistor ladder to do\na PGA
Wire Wire Line
	3750 6200 3750 6250
Text GLabel 7100 6400 2    25   Input ~ 0
F_OUT_3
$Comp
L CSMALL C137
U 1 1 52922CB3
P 6900 6400
F 0 "C137" H 6925 6450 30  0000 L CNN
F 1 "1uF" H 6925 6350 30  0000 L CNN
F 2 "~" H 6900 6400 60  0000 C CNN
F 3 "~" H 6900 6400 60  0000 C CNN
	1    6900 6400
	0    -1   -1   0   
$EndComp
$Comp
L R R114
U 1 1 52922CC2
P 6650 6100
F 0 "R114" V 6730 6100 40  0000 C CNN
F 1 "xk" V 6657 6101 40  0000 C CNN
F 2 "~" V 6580 6100 30  0000 C CNN
F 3 "~" H 6650 6100 30  0000 C CNN
	1    6650 6100
	1    0    0    -1  
$EndComp
$Comp
L R R115
U 1 1 52922CD1
P 6650 6700
F 0 "R115" V 6730 6700 40  0000 C CNN
F 1 "xk" V 6657 6701 40  0000 C CNN
F 2 "~" V 6580 6700 30  0000 C CNN
F 3 "~" H 6650 6700 30  0000 C CNN
	1    6650 6700
	1    0    0    -1  
$EndComp
$Comp
L GND #PWR050
U 1 1 52922CE0
P 6650 7050
F 0 "#PWR050" H 6650 7050 30  0001 C CNN
F 1 "GND" H 6650 6980 30  0001 C CNN
F 2 "" H 6650 7050 60  0000 C CNN
F 3 "" H 6650 7050 60  0000 C CNN
	1    6650 7050
	1    0    0    -1  
$EndComp
$Comp
L VDD #PWR051
U 1 1 52922CEF
P 6650 5750
F 0 "#PWR051" H 6650 5850 30  0001 C CNN
F 1 "VDD" H 6650 5860 30  0000 C CNN
F 2 "" H 6650 5750 60  0000 C CNN
F 3 "" H 6650 5750 60  0000 C CNN
	1    6650 5750
	1    0    0    -1  
$EndComp
Wire Wire Line
	4800 5900 4800 6400
Wire Wire Line
	4800 6400 6800 6400
Wire Wire Line
	6650 6350 6650 6450
Connection ~ 6650 6400
Wire Wire Line
	7000 6400 7100 6400
Wire Wire Line
	6650 6950 6650 7050
Wire Wire Line
	6650 5750 6650 5850
$Comp
L R R113
U 1 1 52923586
P 5850 7000
F 0 "R113" V 5930 7000 40  0000 C CNN
F 1 "R" V 5857 7001 40  0000 C CNN
F 2 "~" V 5780 7000 30  0000 C CNN
F 3 "~" H 5850 7000 30  0000 C CNN
	1    5850 7000
	0    -1   -1   0   
$EndComp
Wire Wire Line
	6100 7000 6650 7000
Connection ~ 6650 7000
Wire Wire Line
	5600 7000 5100 7000
Wire Wire Line
	5100 7000 5100 6500
Wire Wire Line
	5100 6500 4750 6500
Wire Wire Line
	4750 6500 4750 5900
$Comp
L R R112
U 1 1 529237C0
P 5350 6700
F 0 "R112" V 5430 6700 40  0000 C CNN
F 1 "R" V 5357 6701 40  0000 C CNN
F 2 "~" V 5280 6700 30  0000 C CNN
F 3 "~" H 5350 6700 30  0000 C CNN
	1    5350 6700
	1    0    0    -1  
$EndComp
Wire Wire Line
	5350 6950 5350 7000
Connection ~ 5350 7000
Wire Wire Line
	5350 6450 5350 5700
Wire Wire Line
	5350 5700 5150 5700
Connection ~ 3750 5250
Wire Wire Line
	3750 6050 4500 6050
Wire Wire Line
	4500 6050 4500 5900
Text GLabel 9950 3100 2    25   Input ~ 0
GPS_RESET
Wire Wire Line
	9950 3100 9450 3100
Text GLabel 4200 4300 1    25   Output ~ 0
SPI_CLK
Wire Wire Line
	4200 4300 4200 4750
Text GLabel 4250 4300 1    25   Input ~ 0
SPI_MISO
Wire Wire Line
	4250 4300 4250 4750
Text GLabel 4300 4300 1    25   Output ~ 0
SPI_MOSI
Text GLabel 4150 4300 1    25   Output ~ 0
SPI_RF_CS
Wire Wire Line
	4300 4300 4300 4750
Wire Wire Line
	4150 4300 4150 4750
Text GLabel 4100 4300 1    25   Input ~ 0
RF_INT
Text GLabel 4050 4300 1    25   Output ~ 0
RF_SHUT
Wire Wire Line
	4100 4300 4100 4750
Wire Wire Line
	4050 4300 4050 4750
Text GLabel 3250 5050 0    25   Input ~ 0
GPS_I2C_DR
Text GLabel 3250 5100 0    25   Input ~ 0
GPS_TPULSE
Wire Wire Line
	3250 5050 3850 5050
Wire Wire Line
	3250 5100 3850 5100
Text GLabel 3250 5150 0    25   Output ~ 0
GPS_INT
Text GLabel 3250 5200 0    25   Output ~ 0
GPS_RESET
Wire Wire Line
	3250 5150 3850 5150
Wire Wire Line
	3250 5200 3850 5200
Text Notes 6800 4650 0    25   ~ 0
PD0 - PD2:\n- Voltage measure:\n    - PD0: zener 1.8V\n    - PD1: Vbat\n    - PD2: Vsolar
$Comp
L ZENER D101
U 1 1 52925982
P 7400 5150
F 0 "D101" H 7400 5250 50  0000 C CNN
F 1 "1.8v" H 7400 5050 40  0000 C CNN
F 2 "~" H 7400 5150 60  0000 C CNN
F 3 "~" H 7400 5150 60  0000 C CNN
	1    7400 5150
	0    -1   -1   0   
$EndComp
$Comp
L GND #PWR052
U 1 1 52925991
P 7400 5450
F 0 "#PWR052" H 7400 5450 30  0001 C CNN
F 1 "GND" H 7400 5380 30  0001 C CNN
F 2 "" H 7400 5450 60  0000 C CNN
F 3 "" H 7400 5450 60  0000 C CNN
	1    7400 5450
	1    0    0    -1  
$EndComp
$Comp
L VDD #PWR053
U 1 1 529259A0
P 7400 4250
F 0 "#PWR053" H 7400 4350 30  0001 C CNN
F 1 "VDD" H 7400 4360 30  0000 C CNN
F 2 "" H 7400 4250 60  0000 C CNN
F 3 "" H 7400 4250 60  0000 C CNN
	1    7400 4250
	1    0    0    -1  
$EndComp
Wire Wire Line
	7400 4850 7400 4950
Wire Wire Line
	7400 5350 7400 5450
Wire Wire Line
	7400 4900 7150 4900
Connection ~ 7400 4900
Text Label 7150 4900 0    25   ~ 0
1_8vref
Wire Wire Line
	4600 5900 4600 6550
Text Label 4600 6550 1    25   ~ 0
1_8vref
$Comp
L R R117
U 1 1 52925E69
P 8100 5100
F 0 "R117" V 8180 5100 40  0000 C CNN
F 1 "50k" V 8107 5101 40  0000 C CNN
F 2 "~" V 8030 5100 30  0000 C CNN
F 3 "~" H 8100 5100 30  0000 C CNN
	1    8100 5100
	1    0    0    -1  
$EndComp
$Comp
L R R116
U 1 1 52925E78
P 8100 4500
F 0 "R116" V 8180 4500 40  0000 C CNN
F 1 "50k" V 8107 4501 40  0000 C CNN
F 2 "~" V 8030 4500 30  0000 C CNN
F 3 "~" H 8100 4500 30  0000 C CNN
	1    8100 4500
	1    0    0    -1  
$EndComp
$Comp
L GND #PWR054
U 1 1 52925EA5
P 8350 5450
F 0 "#PWR054" H 8350 5450 30  0001 C CNN
F 1 "GND" H 8350 5380 30  0001 C CNN
F 2 "" H 8350 5450 60  0000 C CNN
F 3 "" H 8350 5450 60  0000 C CNN
	1    8350 5450
	1    0    0    -1  
$EndComp
$Comp
L VBAT #PWR055
U 1 1 52925EC3
P 8100 4150
F 0 "#PWR055" H 8100 4250 30  0001 C CNN
F 1 "VBAT" H 8100 4260 30  0000 C CNN
F 2 "~" H 8100 4150 60  0000 C CNN
F 3 "~" H 8100 4150 60  0000 C CNN
	1    8100 4150
	1    0    0    -1  
$EndComp
$Comp
L VSOLAR #PWR056
U 1 1 52925F84
P 8600 4150
F 0 "#PWR056" H 8600 4250 30  0001 C CNN
F 1 "VSOLAR" H 8600 4260 30  0000 C CNN
F 2 "~" H 8600 4150 60  0000 C CNN
F 3 "~" H 8600 4150 60  0000 C CNN
	1    8600 4150
	1    0    0    -1  
$EndComp
Wire Wire Line
	8100 5350 8100 5400
Wire Wire Line
	8350 5400 8350 5450
Wire Wire Line
	8600 4150 8600 4800
Wire Wire Line
	8100 4750 8100 4850
Wire Wire Line
	8100 4250 8100 4150
Wire Wire Line
	8100 4800 7850 4800
Connection ~ 8100 4800
Wire Wire Line
	8600 4800 8350 4800
Text Label 7850 4800 0    25   ~ 0
Vbat_2
Text Label 8350 4800 0    25   ~ 0
Vsolar_2
Wire Wire Line
	4650 5900 4650 6550
Wire Wire Line
	4700 5900 4700 6550
Text Label 4650 6550 1    25   ~ 0
Vbat_2
Text Label 4700 6550 1    25   ~ 0
Vsolar_2
Wire Wire Line
	8100 5400 8350 5400
Wire Wire Line
	5750 2750 5750 2950
Wire Wire Line
	5750 2950 6700 2950
Wire Wire Line
	6700 2950 6700 1950
Wire Wire Line
	6700 1950 6850 1950
$Comp
L R R105
U 1 1 529E320F
P 7400 4600
F 0 "R105" V 7480 4600 40  0000 C CNN
F 1 "R" V 7407 4601 40  0000 C CNN
F 2 "~" V 7330 4600 30  0000 C CNN
F 3 "~" H 7400 4600 30  0000 C CNN
	1    7400 4600
	1    0    0    -1  
$EndComp
Wire Wire Line
	7400 4250 7400 4350
Text Label 1150 2450 0    25   ~ 0
RF_0
Text Label 1800 2450 0    25   ~ 0
RF_1
Text Label 2600 2450 0    25   ~ 0
RF_2
Text Label 3400 2450 0    25   ~ 0
RF_3
Text Label 4000 2450 0    25   ~ 0
RF_4
Text Label 4850 2450 0    25   ~ 0
RF_5
Text Label 4100 800  0    25   ~ 0
RF_6
Text Label 4300 1600 0    25   ~ 0
RF_7
Text Label 8300 3150 0    25   ~ 0
GPS_ANT
Text Label 7450 1950 0    25   ~ 0
F3_1
Text Label 6700 1950 0    25   ~ 0
F3_0
Text Label 8150 1950 0    25   ~ 0
F3_2
Text Label 5700 1200 0    25   ~ 0
F2_0
Text Label 6450 1200 0    25   ~ 0
F2_1
Text Label 7150 1200 0    25   ~ 0
F2_2
Wire Wire Line
	4750 4750 4750 4600
Wire Wire Line
	4800 4750 4800 4600
Wire Wire Line
	4700 4750 4700 4600
Wire Wire Line
	4200 5900 4200 6200
Text Label 4200 6200 1    25   ~ 0
nReset
Text Label 4800 4600 3    25   ~ 0
SWCLK
Text Label 4750 4600 3    25   ~ 0
SWDIO
Text Label 4700 4600 3    25   ~ 0
SWO
$Comp
L VDD #PWR057
U 1 1 52A0AD74
P 5900 4300
F 0 "#PWR057" H 5900 4400 30  0001 C CNN
F 1 "VDD" H 5900 4410 30  0000 C CNN
F 2 "" H 5900 4300 60  0000 C CNN
F 3 "" H 5900 4300 60  0000 C CNN
	1    5900 4300
	1    0    0    -1  
$EndComp
$Comp
L CONN_6 P1
U 1 1 52A0B24B
P 6300 4600
F 0 "P1" V 6250 4600 60  0000 C CNN
F 1 "debug_con" V 6350 4600 60  0000 C CNN
F 2 "" H 6300 4600 60  0000 C CNN
F 3 "" H 6300 4600 60  0000 C CNN
	1    6300 4600
	1    0    0    -1  
$EndComp
Wire Wire Line
	5900 4300 5900 4350
Wire Wire Line
	5900 4350 5950 4350
Wire Wire Line
	5950 4450 5800 4450
Wire Wire Line
	5950 4550 5800 4550
Wire Wire Line
	5950 4650 5800 4650
Wire Wire Line
	5950 4750 5800 4750
$Comp
L GND #PWR058
U 1 1 52A0B858
P 5900 4900
F 0 "#PWR058" H 5900 4900 30  0001 C CNN
F 1 "GND" H 5900 4830 30  0001 C CNN
F 2 "" H 5900 4900 60  0000 C CNN
F 3 "" H 5900 4900 60  0000 C CNN
	1    5900 4900
	1    0    0    -1  
$EndComp
Wire Wire Line
	5950 4850 5900 4850
Wire Wire Line
	5900 4850 5900 4900
Text Label 5800 4450 0    25   ~ 0
nReset
Text Label 5800 4550 0    25   ~ 0
SWCLK
Text Label 5800 4650 0    25   ~ 0
SWDIO
Text Label 5800 4750 0    25   ~ 0
SWO
$Comp
L CONN_2 P2
U 1 1 52A1F033
P 2150 5300
F 0 "P2" V 2100 5300 40  0000 C CNN
F 1 "UART_DBG" V 2200 5300 40  0000 C CNN
F 2 "" H 2150 5300 60  0000 C CNN
F 3 "" H 2150 5300 60  0000 C CNN
	1    2150 5300
	-1   0    0    1   
$EndComp
Wire Wire Line
	3850 5350 3500 5350
Wire Wire Line
	3500 5350 3500 5450
Wire Wire Line
	3500 5450 2750 5450
Wire Wire Line
	2750 5450 2750 5200
Wire Wire Line
	2750 5200 2500 5200
Wire Wire Line
	3850 5400 3550 5400
Wire Wire Line
	3550 5400 3550 5500
Wire Wire Line
	3550 5500 2600 5500
Wire Wire Line
	2600 5500 2600 5400
Wire Wire Line
	2600 5400 2500 5400
Text Notes 2550 5150 0    25   ~ 0
1: RX\n2: TX
$Comp
L CSMALL C120
U 1 1 52EB6708
P 10200 1400
F 0 "C120" H 10225 1450 30  0000 L CNN
F 1 "100n" H 10225 1350 30  0000 L CNN
F 2 "" H 10200 1400 60  0000 C CNN
F 3 "" H 10200 1400 60  0000 C CNN
	1    10200 1400
	0    -1   -1   0   
$EndComp
Wire Wire Line
	9900 1400 10100 1400
Wire Wire Line
	10300 1400 10350 1400
Wire Wire Line
	5800 2750 5800 2850
Wire Wire Line
	5800 2850 6400 2850
Text Label 6400 2850 2    25   ~ 0
GPIO1
Wire Wire Line
	5650 2100 5650 1750
Text Label 5650 1750 3    25   ~ 0
GPIO3
NoConn ~ 6050 2300
$Comp
L E5393LF X101
U 1 1 52EB6C13
P 3700 6950
F 0 "X101" H 3700 6750 60  0000 C CNN
F 1 "E5393LF" H 3700 7100 60  0000 C CNN
F 2 "" H 3650 7000 60  0000 C CNN
F 3 "" H 3650 7000 60  0000 C CNN
	1    3700 6950
	1    0    0    -1  
$EndComp
$Comp
L CSMALL C118
U 1 1 52EB6C22
P 4150 6900
F 0 "C118" H 4175 6950 30  0000 L CNN
F 1 "CSMALL" H 4175 6850 30  0000 L CNN
F 2 "" H 4150 6900 60  0000 C CNN
F 3 "" H 4150 6900 60  0000 C CNN
	1    4150 6900
	0    -1   -1   0   
$EndComp
Wire Wire Line
	4450 6900 4250 6900
Wire Wire Line
	4050 6900 3850 6900
$Comp
L GND #PWR059
U 1 1 52EB6EB8
P 3950 7200
F 0 "#PWR059" H 3950 7200 30  0001 C CNN
F 1 "GND" H 3950 7130 30  0001 C CNN
F 2 "" H 3950 7200 60  0000 C CNN
F 3 "" H 3950 7200 60  0000 C CNN
	1    3950 7200
	1    0    0    -1  
$EndComp
Wire Wire Line
	3850 7000 3950 7000
Wire Wire Line
	3950 7000 3950 7200
$Comp
L VDD #PWR060
U 1 1 52EB700A
P 3350 6700
F 0 "#PWR060" H 3350 6800 30  0001 C CNN
F 1 "VDD" H 3350 6810 30  0000 C CNN
F 2 "" H 3350 6700 60  0000 C CNN
F 3 "" H 3350 6700 60  0000 C CNN
	1    3350 6700
	1    0    0    -1  
$EndComp
Wire Wire Line
	3350 6700 3350 6900
Wire Wire Line
	3350 6900 3500 6900
$Comp
L R R118
U 1 1 52EB715D
P 3000 7000
F 0 "R118" V 3080 7000 50  0000 C CNN
F 1 "R" V 3000 7000 50  0000 C CNN
F 2 "" H 3000 7000 60  0000 C CNN
F 3 "" H 3000 7000 60  0000 C CNN
	1    3000 7000
	0    -1   -1   0   
$EndComp
$Comp
L R R119
U 1 1 52EB716C
P 3350 7350
F 0 "R119" V 3430 7350 50  0000 C CNN
F 1 "R" V 3350 7350 50  0000 C CNN
F 2 "" H 3350 7350 60  0000 C CNN
F 3 "" H 3350 7350 60  0000 C CNN
	1    3350 7350
	1    0    0    -1  
$EndComp
$Comp
L GND #PWR061
U 1 1 52EB717B
P 3350 7650
F 0 "#PWR061" H 3350 7650 30  0001 C CNN
F 1 "GND" H 3350 7580 30  0001 C CNN
F 2 "" H 3350 7650 60  0000 C CNN
F 3 "" H 3350 7650 60  0000 C CNN
	1    3350 7650
	1    0    0    -1  
$EndComp
$Comp
L VDD #PWR062
U 1 1 52EB7199
P 2650 6900
F 0 "#PWR062" H 2650 7000 30  0001 C CNN
F 1 "VDD" H 2650 7010 30  0000 C CNN
F 2 "" H 2650 6900 60  0000 C CNN
F 3 "" H 2650 6900 60  0000 C CNN
	1    2650 6900
	1    0    0    -1  
$EndComp
Wire Wire Line
	3250 7000 3500 7000
Wire Wire Line
	3350 7100 3350 7000
Connection ~ 3350 7000
Wire Wire Line
	2650 6900 2650 7000
Wire Wire Line
	2650 7000 2750 7000
Wire Wire Line
	3350 7600 3350 7650
Text Label 5350 5550 2    25   ~ 0
GPIO1
Wire Wire Line
	5150 5550 5350 5550
Wire Wire Line
	3850 5500 3600 5500
Text Label 3600 5500 0    25   ~ 0
GPIO3
$EndSCHEMATC
