EESchema Schematic File Version 2
LIBS:power
LIBS:device
LIBS:transistors
LIBS:conn
LIBS:linear
LIBS:regul
LIBS:74xx
LIBS:cmos4000
LIBS:adc-dac
LIBS:memory
LIBS:xilinx
LIBS:special
LIBS:microcontrollers
LIBS:dsp
LIBS:microchip
LIBS:analog_switches
LIBS:motorola
LIBS:texas
LIBS:intel
LIBS:audio
LIBS:interface
LIBS:digital-audio
LIBS:philips
LIBS:display
LIBS:cypress
LIBS:siliconi
LIBS:opto
LIBS:atmel
LIBS:contrib
LIBS:valves
LIBS:Silabs_transceivers
LIBS:dspic33epxxxgm304
LIBS:power_symbols
LIBS:dcdc
LIBS:oscillators
LIBS:EFM32
LIBS:ublox
LIBS:antenna
LIBS:balloon_radio-cache
EELAYER 24 0
EELAYER END
$Descr A4 11693 8268
encoding utf-8
Sheet 2 2
Title ""
Date "6 dec 2013"
Rev ""
Comp ""
Comment1 ""
Comment2 ""
Comment3 ""
Comment4 ""
$EndDescr
$Comp
L SPV1040 U201
U 1 1 527133A2
P 3550 1300
F 0 "U201" H 3550 1050 60  0000 C CNN
F 1 "SPV1040" H 3550 1450 60  0000 C CNN
F 2 "" H 3900 1050 60  0000 C CNN
F 3 "" H 3900 1050 60  0000 C CNN
	1    3550 1300
	1    0    0    -1  
$EndComp
$Comp
L CONN_2 P201
U 1 1 527133AF
P 850 1250
F 0 "P201" V 800 1250 40  0000 C CNN
F 1 "SP_Con" V 900 1250 40  0000 C CNN
F 2 "" H 850 1250 60  0000 C CNN
F 3 "" H 850 1250 60  0000 C CNN
	1    850  1250
	-1   0    0    1   
$EndComp
$Comp
L CSMALL C201
U 1 1 527133B7
P 1650 1250
F 0 "C201" H 1675 1300 30  0000 L CNN
F 1 "10u" H 1675 1200 30  0000 L CNN
F 2 "~" H 1650 1250 60  0000 C CNN
F 3 "~" H 1650 1250 60  0000 C CNN
	1    1650 1250
	1    0    0    -1  
$EndComp
$Comp
L INDUCTOR_SMALL L201
U 1 1 527133BE
P 2250 900
F 0 "L201" H 2250 1000 50  0000 C CNN
F 1 "4.7u" H 2250 850 50  0000 C CNN
F 2 "~" H 2250 900 60  0000 C CNN
F 3 "~" H 2250 900 60  0000 C CNN
	1    2250 900 
	1    0    0    -1  
$EndComp
$Comp
L R R201
U 1 1 527133E3
P 4650 1200
F 0 "R201" V 4730 1200 40  0000 C CNN
F 1 "1k" V 4657 1201 40  0000 C CNN
F 2 "~" V 4580 1200 30  0000 C CNN
F 3 "~" H 4650 1200 30  0000 C CNN
	1    4650 1200
	0    -1   -1   0   
$EndComp
$Comp
L R R202
U 1 1 527133E9
P 4650 1500
F 0 "R202" V 4730 1500 40  0000 C CNN
F 1 "1k" V 4657 1501 40  0000 C CNN
F 2 "~" V 4580 1500 30  0000 C CNN
F 3 "~" H 4650 1500 30  0000 C CNN
	1    4650 1500
	0    -1   -1   0   
$EndComp
Wire Wire Line
	3850 1300 4150 1300
Wire Wire Line
	4150 1300 4150 1200
Wire Wire Line
	4150 1200 4400 1200
Wire Wire Line
	4400 1500 4150 1500
Wire Wire Line
	4150 1500 4150 1350
Wire Wire Line
	4150 1350 3850 1350
Wire Wire Line
	1350 1150 1200 1150
Wire Wire Line
	1350 1000 1350 1150
Wire Wire Line
	1350 1100 3900 1100
Wire Wire Line
	1650 900  1650 1150
Wire Wire Line
	1650 900  2000 900 
Connection ~ 1650 1100
Wire Wire Line
	2750 1100 2750 1250
Wire Wire Line
	2750 1250 3300 1250
Wire Wire Line
	2500 900  2850 900 
Wire Wire Line
	2850 900  2850 1350
Wire Wire Line
	2850 1350 3300 1350
Wire Wire Line
	3300 1400 2900 1400
Wire Wire Line
	1200 1350 1500 1350
Wire Wire Line
	1500 1350 1500 1400
Wire Wire Line
	1500 1400 2600 1400
Wire Wire Line
	1650 1400 1650 1350
Wire Wire Line
	2600 1400 2600 1300
Wire Wire Line
	2600 1300 3300 1300
Connection ~ 1650 1400
$Comp
L GND #PWR063
U 1 1 527134BD
P 2100 1500
F 0 "#PWR063" H 2100 1500 30  0001 C CNN
F 1 "GND" H 2100 1430 30  0001 C CNN
F 2 "" H 2100 1500 60  0000 C CNN
F 3 "" H 2100 1500 60  0000 C CNN
	1    2100 1500
	1    0    0    -1  
$EndComp
Wire Wire Line
	2100 1400 2100 1500
Connection ~ 2100 1400
$Comp
L R R205
U 1 1 527134EB
P 5550 1350
F 0 "R205" V 5630 1350 40  0000 C CNN
F 1 "10m" V 5557 1351 40  0000 C CNN
F 2 "~" V 5480 1350 30  0000 C CNN
F 3 "~" H 5550 1350 30  0000 C CNN
	1    5550 1350
	1    0    0    -1  
$EndComp
Wire Wire Line
	5150 1200 4900 1200
Wire Wire Line
	5150 1050 5150 1200
Wire Wire Line
	5150 1050 6100 1050
Wire Wire Line
	5550 1050 5550 1100
Wire Wire Line
	5550 1600 5550 1750
Wire Wire Line
	5150 1650 5850 1650
Wire Wire Line
	5150 1650 5150 1500
Wire Wire Line
	5150 1500 4900 1500
Text Label 2900 1400 0    25   ~ 0
Vout
Text Label 5150 1050 0    25   ~ 0
Vout
$Comp
L R R206
U 1 1 52713598
P 5550 2000
F 0 "R206" V 5630 2000 40  0000 C CNN
F 1 "1M" V 5557 2001 40  0000 C CNN
F 2 "~" V 5480 2000 30  0000 C CNN
F 3 "~" H 5550 2000 30  0000 C CNN
	1    5550 2000
	1    0    0    -1  
$EndComp
$Comp
L R R207
U 1 1 527135A7
P 5550 2600
F 0 "R207" V 5630 2600 40  0000 C CNN
F 1 "330k" V 5557 2601 40  0000 C CNN
F 2 "~" V 5480 2600 30  0000 C CNN
F 3 "~" H 5550 2600 30  0000 C CNN
	1    5550 2600
	1    0    0    -1  
$EndComp
Connection ~ 5550 1650
Wire Wire Line
	5550 2250 5550 2350
Wire Wire Line
	5550 2300 3950 2300
Wire Wire Line
	3950 2300 3950 1400
Wire Wire Line
	3950 1400 3850 1400
Connection ~ 5550 2300
$Comp
L CSMALL C205
U 1 1 52713632
P 6100 1200
F 0 "C205" H 6125 1250 30  0000 L CNN
F 1 "4.7u" H 6125 1150 30  0000 L CNN
F 2 "~" H 6100 1200 60  0000 C CNN
F 3 "~" H 6100 1200 60  0000 C CNN
	1    6100 1200
	1    0    0    -1  
$EndComp
$Comp
L GND #PWR064
U 1 1 52713641
P 6100 1400
F 0 "#PWR064" H 6100 1400 30  0001 C CNN
F 1 "GND" H 6100 1330 30  0001 C CNN
F 2 "" H 6100 1400 60  0000 C CNN
F 3 "" H 6100 1400 60  0000 C CNN
	1    6100 1400
	1    0    0    -1  
$EndComp
Wire Wire Line
	6100 1050 6100 1100
Connection ~ 5550 1050
Wire Wire Line
	6100 1300 6100 1400
$Comp
L GND #PWR065
U 1 1 527136AE
P 5550 2950
F 0 "#PWR065" H 5550 2950 30  0001 C CNN
F 1 "GND" H 5550 2880 30  0001 C CNN
F 2 "" H 5550 2950 60  0000 C CNN
F 3 "" H 5550 2950 60  0000 C CNN
	1    5550 2950
	1    0    0    -1  
$EndComp
Wire Wire Line
	5550 2850 5550 2950
$Comp
L VBAT #PWR066
U 1 1 527136EE
P 5850 1550
F 0 "#PWR066" H 5850 1650 30  0001 C CNN
F 1 "VBAT" H 5850 1660 30  0000 C CNN
F 2 "~" H 5850 1550 60  0000 C CNN
F 3 "~" H 5850 1550 60  0000 C CNN
	1    5850 1550
	1    0    0    -1  
$EndComp
Wire Wire Line
	5850 1650 5850 1550
Wire Wire Line
	3900 1100 3900 1250
Wire Wire Line
	3900 1250 3850 1250
Connection ~ 2750 1100
$Comp
L MP2144 U202
U 1 1 52713901
P 3750 5200
F 0 "U202" H 3750 5000 60  0000 C CNN
F 1 "MP2144" H 3750 5250 60  0000 C CNN
F 2 "~" H 3750 5200 60  0000 C CNN
F 3 "~" H 3750 5200 60  0000 C CNN
	1    3750 5200
	1    0    0    -1  
$EndComp
$Comp
L GND #PWR067
U 1 1 52713907
P 3750 5850
F 0 "#PWR067" H 3750 5850 30  0001 C CNN
F 1 "GND" H 3750 5780 30  0001 C CNN
F 2 "" H 3750 5850 60  0000 C CNN
F 3 "" H 3750 5850 60  0000 C CNN
	1    3750 5850
	1    0    0    -1  
$EndComp
Wire Wire Line
	3700 5650 3700 5700
Wire Wire Line
	3700 5700 3800 5700
Wire Wire Line
	3800 5700 3800 5650
Wire Wire Line
	3750 5700 3750 5850
Connection ~ 3750 5700
$Comp
L INDUCTOR_SMALL L202
U 1 1 52713912
P 4500 5300
F 0 "L202" H 4500 5400 50  0000 C CNN
F 1 "2.2uH" H 4750 5400 50  0000 C CNN
F 2 "~" H 4500 5300 60  0000 C CNN
F 3 "~" H 4500 5300 60  0000 C CNN
	1    4500 5300
	1    0    0    -1  
$EndComp
Wire Wire Line
	4000 5300 4250 5300
Wire Wire Line
	4000 5350 4800 5350
Wire Wire Line
	4800 5350 4800 5300
Wire Wire Line
	4750 5300 5850 5300
$Comp
L R R203
U 1 1 5271391C
P 4950 5600
F 0 "R203" V 5030 5600 40  0000 C CNN
F 1 "200k" V 4957 5601 40  0000 C CNN
F 2 "~" V 4880 5600 30  0000 C CNN
F 3 "~" H 4950 5600 30  0000 C CNN
	1    4950 5600
	1    0    0    -1  
$EndComp
Wire Wire Line
	4000 5500 4550 5500
Wire Wire Line
	4550 5500 4550 5900
Wire Wire Line
	4550 5900 4950 5900
Wire Wire Line
	4950 5850 4950 5950
Wire Wire Line
	4950 5300 4950 5350
Connection ~ 4800 5300
$Comp
L R R204
U 1 1 52713928
P 4950 6200
F 0 "R204" V 5030 6200 40  0000 C CNN
F 1 "85.7k" V 4957 6201 40  0000 C CNN
F 2 "~" V 4880 6200 30  0000 C CNN
F 3 "~" H 4950 6200 30  0000 C CNN
	1    4950 6200
	1    0    0    -1  
$EndComp
Connection ~ 4950 5900
$Comp
L CSMALL C203
U 1 1 5271392F
P 5250 5450
F 0 "C203" H 5275 5500 30  0000 L CNN
F 1 "4.7u" H 5275 5400 30  0000 L CNN
F 2 "~" H 5250 5450 60  0000 C CNN
F 3 "~" H 5250 5450 60  0000 C CNN
	1    5250 5450
	1    0    0    -1  
$EndComp
$Comp
L CSMALL C204
U 1 1 52713935
P 6450 5450
F 0 "C204" H 6475 5500 30  0000 L CNN
F 1 "4.7u" H 6475 5400 30  0000 L CNN
F 2 "~" H 6450 5450 60  0000 C CNN
F 3 "~" H 6450 5450 60  0000 C CNN
	1    6450 5450
	1    0    0    -1  
$EndComp
Wire Wire Line
	5250 5300 5250 5350
Connection ~ 4950 5300
$Comp
L INDUCTOR_SMALL L203
U 1 1 5271393D
P 6100 5300
F 0 "L203" H 6100 5400 50  0000 C CNN
F 1 "FB 0805" H 6100 5250 50  0000 C CNN
F 2 "~" H 6100 5300 60  0000 C CNN
F 3 "~" H 6100 5300 60  0000 C CNN
	1    6100 5300
	1    0    0    -1  
$EndComp
Wire Wire Line
	6350 5300 6450 5300
Wire Wire Line
	6450 5200 6450 5350
Connection ~ 5250 5300
$Comp
L GND #PWR068
U 1 1 52713946
P 6450 5650
F 0 "#PWR068" H 6450 5650 30  0001 C CNN
F 1 "GND" H 6450 5580 30  0001 C CNN
F 2 "" H 6450 5650 60  0000 C CNN
F 3 "" H 6450 5650 60  0000 C CNN
	1    6450 5650
	1    0    0    -1  
$EndComp
$Comp
L GND #PWR069
U 1 1 5271394C
P 5250 5650
F 0 "#PWR069" H 5250 5650 30  0001 C CNN
F 1 "GND" H 5250 5580 30  0001 C CNN
F 2 "" H 5250 5650 60  0000 C CNN
F 3 "" H 5250 5650 60  0000 C CNN
	1    5250 5650
	1    0    0    -1  
$EndComp
Wire Wire Line
	6450 5550 6450 5650
Wire Wire Line
	5250 5550 5250 5650
$Comp
L GND #PWR070
U 1 1 52713954
P 4950 6550
F 0 "#PWR070" H 4950 6550 30  0001 C CNN
F 1 "GND" H 4950 6480 30  0001 C CNN
F 2 "" H 4950 6550 60  0000 C CNN
F 3 "" H 4950 6550 60  0000 C CNN
	1    4950 6550
	1    0    0    -1  
$EndComp
$Comp
L VDD #PWR071
U 1 1 5271395A
P 6450 5200
F 0 "#PWR071" H 6450 5300 30  0001 C CNN
F 1 "VDD" H 6450 5310 30  0000 C CNN
F 2 "" H 6450 5200 60  0000 C CNN
F 3 "" H 6450 5200 60  0000 C CNN
	1    6450 5200
	1    0    0    -1  
$EndComp
Connection ~ 6450 5300
$Comp
L VBAT #PWR072
U 1 1 52713961
P 3400 5200
F 0 "#PWR072" H 3400 5300 30  0001 C CNN
F 1 "VBAT" H 3400 5310 30  0000 C CNN
F 2 "~" H 3400 5200 60  0000 C CNN
F 3 "~" H 3400 5200 60  0000 C CNN
	1    3400 5200
	1    0    0    -1  
$EndComp
Wire Wire Line
	3400 5200 3400 5300
Wire Wire Line
	3100 5300 3500 5300
$Comp
L CONN_2 P202
U 1 1 52713969
P 2400 6300
F 0 "P202" V 2350 6300 40  0000 C CNN
F 1 "BAT_CON" V 2450 6300 40  0000 C CNN
F 2 "" H 2400 6300 60  0000 C CNN
F 3 "" H 2400 6300 60  0000 C CNN
	1    2400 6300
	-1   0    0    1   
$EndComp
$Comp
L GND #PWR073
U 1 1 5271396F
P 2850 6500
F 0 "#PWR073" H 2850 6500 30  0001 C CNN
F 1 "GND" H 2850 6430 30  0001 C CNN
F 2 "" H 2850 6500 60  0000 C CNN
F 3 "" H 2850 6500 60  0000 C CNN
	1    2850 6500
	1    0    0    -1  
$EndComp
$Comp
L VBAT #PWR074
U 1 1 52713975
P 2850 6100
F 0 "#PWR074" H 2850 6200 30  0001 C CNN
F 1 "VBAT" H 2850 6210 30  0000 C CNN
F 2 "~" H 2850 6100 60  0000 C CNN
F 3 "~" H 2850 6100 60  0000 C CNN
	1    2850 6100
	1    0    0    -1  
$EndComp
Wire Wire Line
	2750 6200 2850 6200
Wire Wire Line
	2850 6200 2850 6100
Wire Wire Line
	2750 6400 2850 6400
Wire Wire Line
	2850 6400 2850 6500
Wire Notes Line
	500  3200 6800 3200
Wire Notes Line
	6800 3200 6800 500 
Text Notes 800  3050 0    100  ~ 0
Solar block
Wire Wire Line
	4950 6450 4950 6550
Text Notes 5150 5950 0    25   ~ 0
= 2V output
$Comp
L R R208
U 1 1 529252C5
P 2950 5350
F 0 "R208" V 3030 5350 40  0000 C CNN
F 1 "300k" V 2957 5351 40  0000 C CNN
F 2 "~" V 2880 5350 30  0000 C CNN
F 3 "~" H 2950 5350 30  0000 C CNN
	1    2950 5350
	1    0    0    -1  
$EndComp
Wire Wire Line
	3100 5050 3100 5300
Wire Wire Line
	3100 5050 2950 5050
Wire Wire Line
	2950 5050 2950 5100
Connection ~ 3400 5300
Wire Wire Line
	2950 5600 2950 5650
Wire Wire Line
	2950 5650 3100 5650
Wire Wire Line
	3100 5650 3100 5400
Wire Wire Line
	3100 5400 3500 5400
$Comp
L CSMALL C206
U 1 1 52925400
P 5500 5450
F 0 "C206" H 5525 5500 30  0000 L CNN
F 1 "4.7u" H 5525 5400 30  0000 L CNN
F 2 "~" H 5500 5450 60  0000 C CNN
F 3 "~" H 5500 5450 60  0000 C CNN
	1    5500 5450
	1    0    0    -1  
$EndComp
$Comp
L CSMALL C207
U 1 1 5292540F
P 5750 5450
F 0 "C207" H 5775 5500 30  0000 L CNN
F 1 "4.7u" H 5775 5400 30  0000 L CNN
F 2 "~" H 5750 5450 60  0000 C CNN
F 3 "~" H 5750 5450 60  0000 C CNN
	1    5750 5450
	1    0    0    -1  
$EndComp
$Comp
L GND #PWR075
U 1 1 5292541E
P 5500 5650
F 0 "#PWR075" H 5500 5650 30  0001 C CNN
F 1 "GND" H 5500 5580 30  0001 C CNN
F 2 "" H 5500 5650 60  0000 C CNN
F 3 "" H 5500 5650 60  0000 C CNN
	1    5500 5650
	1    0    0    -1  
$EndComp
$Comp
L GND #PWR076
U 1 1 5292542D
P 5750 5650
F 0 "#PWR076" H 5750 5650 30  0001 C CNN
F 1 "GND" H 5750 5580 30  0001 C CNN
F 2 "" H 5750 5650 60  0000 C CNN
F 3 "" H 5750 5650 60  0000 C CNN
	1    5750 5650
	1    0    0    -1  
$EndComp
Wire Wire Line
	5750 5350 5750 5300
Connection ~ 5750 5300
Wire Wire Line
	5750 5550 5750 5650
Wire Wire Line
	5500 5550 5500 5650
Wire Wire Line
	5500 5350 5500 5300
Connection ~ 5500 5300
$Comp
L VSOLAR #PWR077
U 1 1 52925F10
P 1350 1000
F 0 "#PWR077" H 1350 1100 30  0001 C CNN
F 1 "VSOLAR" H 1350 1110 30  0000 C CNN
F 2 "~" H 1350 1000 60  0000 C CNN
F 3 "~" H 1350 1000 60  0000 C CNN
	1    1350 1000
	1    0    0    -1  
$EndComp
Connection ~ 1350 1100
Text Notes 4400 5050 0    25   ~ 0
CBC3225T2R2MR
Text Label 4950 5300 0    25   ~ 0
3_3_NF
Text Label 4050 5300 0    25   ~ 0
3_3_SW
Text Label 4050 5500 0    25   ~ 0
3_3_FB
Text Label 2550 900  0    25   ~ 0
F_SOLAR
$Comp
L CSMALL C202
U 1 1 52F0AF0A
P 4250 1350
F 0 "C202" H 4275 1400 30  0000 L CNN
F 1 "CSMALL" H 4275 1300 30  0000 L CNN
F 2 "" H 4250 1350 60  0000 C CNN
F 3 "" H 4250 1350 60  0000 C CNN
	1    4250 1350
	1    0    0    -1  
$EndComp
Wire Wire Line
	4250 1200 4250 1250
Connection ~ 4250 1200
Wire Wire Line
	4250 1500 4250 1450
Connection ~ 4250 1500
$EndSCHEMATC
