PCBNEW-LibModule-V1  19/04/2014 14:06:32
# encoding utf-8
Units mm
$INDEX
MESH_BATTERY
$EndINDEX
$MODULE MESH_BATTERY
Po 0 0 0 15 535266B9 00000000 ~~
Li MESH_BATTERY
Sc 0
AR 
Op 0 0 0
T0 0 -7.62 1 1 0 0.15 N V 21 N "MESH_BATTERY"
T1 10.16 -7.62 1 1 0 0.15 N V 21 N "VAL**"
DS 13.25 -1.5 15.25 -1.5 0.15 21
DS 6.25 -2.25 6.25 -0.75 0.15 21
DS 5.25 -1.5 7.25 -1.5 0.15 21
DS 4.25 -3 4.25 0 0.15 21
DS 8.25 -3 8.25 0 0.15 21
DS 12.25 -3 12.25 0 0.15 21
DS 16.25 -3 16.25 0 0.15 21
DS 0 0 20.5 0 0.15 21
DS 20.5 0 20.5 30 0.15 21
DS 20.5 30 0 30 0.15 21
DS 0 0 0 30 0.15 21
$PAD
Sh "2" R 4 8 0 0 0
Dr 0 0 0
At SMD N 00888000
Ne 0 ""
Po 6.25 -7
$EndPAD
$PAD
Sh "1" R 4 8 0 0 0
Dr 0 0 0
At SMD N 00888000
Ne 0 ""
Po 14.25 -7
$EndPAD
$EndMODULE MESH_BATTERY
$EndLIBRARY
