PCBNEW-LibModule-V1  05/12/2013 18:01:22
# encoding utf-8
Units mm
$INDEX
127_6x1
$EndINDEX
$MODULE 127_6x1
Po 0 0 0 15 52A0B14D 00000000 ~~
Li 127_6x1
Sc 0
AR 
Op 0 0 0
T0 0 3.81 1 1 0 0.15 N V 21 N "127_6x1"
T1 6.35 3.81 1 1 0 0.15 N V 21 N "VAL**"
DS -2.54 -0.635 -2.54 0.635 0.15 21
DS -3.81 -0.635 3.81 -0.635 0.15 21
DS 3.81 -0.635 3.81 0.635 0.15 21
DS 3.81 0.635 -3.81 0.635 0.15 21
DS -3.81 0.635 -3.81 -0.635 0.15 21
$PAD
Sh "1" C 0.8 0.8 0 0 0
Dr 0 0 0
At SMD N 00888000
Ne 0 ""
Po -3.175 0
$EndPAD
$PAD
Sh "2" C 0.8 0.8 0 0 0
Dr 0 0 0
At SMD N 00888000
Ne 0 ""
Po -1.905 0
$EndPAD
$PAD
Sh "3" C 0.8 0.8 0 0 0
Dr 0 0 0
At SMD N 00888000
Ne 0 ""
Po -0.635 0
$EndPAD
$PAD
Sh "4" C 0.8 0.8 0 0 0
Dr 0 0 0
At SMD N 00888000
Ne 0 ""
Po 0.635 0
$EndPAD
$PAD
Sh "5" C 0.8 0.8 0 0 0
Dr 0 0 0
At SMD N 00888000
Ne 0 ""
Po 1.905 0
$EndPAD
$PAD
Sh "6" C 0.8 0.8 0 0 0
Dr 0 0 0
At SMD N 00888000
Ne 0 ""
Po 3.175 0
$EndPAD
$EndMODULE 127_6x1
$EndLIBRARY
