PCBNEW-LibModule-V1  24/11/2013 21:30:20
# encoding utf-8
Units mm
$INDEX
QFN20
$EndINDEX
$MODULE QFN20
Po 0 0 0 15 529261BE 00000000 ~~
Li QFN20
Sc 0
AR 
Op 0 0 0
.LocalClearance 0.127
T0 0 -3.81 1 1 0 0.15 N V 21 N "QFN20"
T1 0 3.81 1 1 0 0.15 N V 21 N "VAL**"
DC -3.302 -2.032 -3.302 -1.778 0.15 21
DS -2.54 2.54 -2.54 -2.54 0.15 21
DS -2.54 -2.54 2.54 -2.54 0.15 21
DS 2.54 -2.54 2.54 2.54 0.15 21
DS 2.54 2.54 -2.54 2.54 0.15 21
$PAD
Sh "21" R 2.6 2.6 0 0 0
Dr 0 0 0
At SMD N 00888000
Ne 0 ""
Po 0 0
$EndPAD
$PAD
Sh "1" R 0.7 0.25 0 0 0
Dr 0 0 0
At SMD N 00888000
Ne 0 ""
Po -1.97 -1
$EndPAD
$PAD
Sh "2" R 0.7 0.25 0 0 0
Dr 0 0 0
At SMD N 00888000
Ne 0 ""
Po -1.97 -0.5
$EndPAD
$PAD
Sh "3" R 0.7 0.25 0 0 0
Dr 0 0 0
At SMD N 00888000
Ne 0 ""
Po -1.97 0
$EndPAD
$PAD
Sh "4" R 0.7 0.25 0 0 0
Dr 0 0 0
At SMD N 00888000
Ne 0 ""
Po -1.97 0.5
$EndPAD
$PAD
Sh "5" R 0.7 0.25 0 0 0
Dr 0 0 0
At SMD N 00888000
Ne 0 ""
Po -1.97 1
$EndPAD
$PAD
Sh "6" R 0.25 0.7 0 0 0
Dr 0 0 0
At SMD N 00888000
Ne 0 ""
Po -1 1.97
$EndPAD
$PAD
Sh "7" R 0.25 0.7 0 0 0
Dr 0 0 0
At SMD N 00888000
Ne 0 ""
Po -0.5 1.97
$EndPAD
$PAD
Sh "8" R 0.25 0.7 0 0 0
Dr 0 0 0
At SMD N 00888000
Ne 0 ""
Po 0 1.97
$EndPAD
$PAD
Sh "9" R 0.25 0.7 0 0 0
Dr 0 0 0
At SMD N 00888000
Ne 0 ""
Po 0.5 1.97
$EndPAD
$PAD
Sh "10" R 0.25 0.7 0 0 0
Dr 0 0 0
At SMD N 00888000
Ne 0 ""
Po 1 1.97
$EndPAD
$PAD
Sh "11" R 0.7 0.25 0 0 0
Dr 0 0 0
At SMD N 00888000
Ne 0 ""
Po 1.97 1
$EndPAD
$PAD
Sh "12" R 0.7 0.25 0 0 0
Dr 0 0 0
At SMD N 00888000
Ne 0 ""
Po 1.97 0.5
$EndPAD
$PAD
Sh "13" R 0.7 0.25 0 0 0
Dr 0 0 0
At SMD N 00888000
Ne 0 ""
Po 1.97 0
$EndPAD
$PAD
Sh "14" R 0.7 0.25 0 0 0
Dr 0 0 0
At SMD N 00888000
Ne 0 ""
Po 1.97 -0.5
$EndPAD
$PAD
Sh "15" R 0.7 0.25 0 0 0
Dr 0 0 0
At SMD N 00888000
Ne 0 ""
Po 1.97 -1
$EndPAD
$PAD
Sh "16" R 0.25 0.7 0 0 0
Dr 0 0 0
At SMD N 00888000
Ne 0 ""
Po 1 -1.97
$EndPAD
$PAD
Sh "17" R 0.25 0.7 0 0 0
Dr 0 0 0
At SMD N 00888000
Ne 0 ""
Po 0.5 -1.97
$EndPAD
$PAD
Sh "18" R 0.25 0.7 0 0 0
Dr 0 0 0
At SMD N 00888000
Ne 0 ""
Po 0 -1.97
$EndPAD
$PAD
Sh "19" R 0.25 0.7 0 0 0
Dr 0 0 0
At SMD N 00888000
Ne 0 ""
Po -0.5 -1.97
$EndPAD
$PAD
Sh "20" R 0.25 0.7 0 0 0
Dr 0 0 0
At SMD N 00888000
Ne 0 ""
Po -1 -1.97
$EndPAD
$EndMODULE QFN20
$EndLIBRARY
