PCBNEW-LibModule-V1  02/12/2013 16:15:29
# encoding utf-8
Units mm
$INDEX
TSSOP8
$EndINDEX
$MODULE TSSOP8
Po 0 0 0 15 529CA3F5 00000000 ~~
Li TSSOP8
Sc 0
AR 
Op 0 0 0
T0 -2.6 0 1 1 900 0.15 N V 21 N "TSSOP8"
T1 3 0 1 1 900 0.15 N V 21 N "VAL**"
DS -1.6 -2.2 1.6 -2.2 0.15 21
DS 1.6 -2.2 1.6 2.2 0.15 21
DS 1.6 2.2 -1.6 2.2 0.15 21
DS -1.6 2.2 -1.6 -2.2 0.15 21
$PAD
Sh "1" R 0.42 1.78 0 0 0
Dr 0 0 0
At SMD N 00888000
Ne 0 ""
Po -0.975 2.97
$EndPAD
$PAD
Sh "2" R 0.42 1.78 0 0 0
Dr 0 0 0
At SMD N 00888000
Ne 0 ""
Po -0.325 2.97
$EndPAD
$PAD
Sh "3" R 0.42 1.78 0 0 0
Dr 0 0 0
At SMD N 00888000
Ne 0 ""
Po 0.325 2.97
$EndPAD
$PAD
Sh "4" R 0.42 1.78 0 0 0
Dr 0 0 0
At SMD N 00888000
Ne 0 ""
Po 0.975 2.97
$EndPAD
$PAD
Sh "5" R 0.42 1.78 0 0 0
Dr 0 0 0
At SMD N 00888000
Ne 0 ""
Po 0.975 -2.97
$EndPAD
$PAD
Sh "6" R 0.42 1.78 0 0 0
Dr 0 0 0
At SMD N 00888000
Ne 0 ""
Po 0.325 -2.97
$EndPAD
$PAD
Sh "7" R 0.42 1.78 0 0 0
Dr 0 0 0
At SMD N 00888000
Ne 0 ""
Po -0.325 -2.97
$EndPAD
$PAD
Sh "8" R 0.42 1.78 0 0 0
Dr 0 0 0
At SMD N 00888000
Ne 0 ""
Po -0.975 -2.97
$EndPAD
$EndMODULE TSSOP8
$EndLIBRARY
