PCBNEW-LibModule-V1  19/04/2014 14:27:15
# encoding utf-8
Units mm
$INDEX
MESH_BATTERY
TAG_CONNECT_MINIA
$EndINDEX
$MODULE MESH_BATTERY
Po 0 0 0 15 53526B9F 00000000 ~~
Li MESH_BATTERY
Sc 0
AR 
Op 0 0 0
T0 0 -7.62 1 1 0 0.15 N V 21 N "MESH_BATTERY"
T1 10.16 -7.62 1 1 0 0.15 N V 21 N "VAL**"
DS 13.25 -1.5 15.25 -1.5 0.15 21
DS 6.25 -2.25 6.25 -0.75 0.15 21
DS 5.25 -1.5 7.25 -1.5 0.15 21
DS 4.25 -3 4.25 0 0.15 21
DS 8.25 -3 8.25 0 0.15 21
DS 12.25 -3 12.25 0 0.15 21
DS 16.25 -3 16.25 0 0.15 21
DS 0 0 20.5 0 0.15 21
DS 20.5 0 20.5 30 0.15 21
DS 20.5 30 0 30 0.15 21
DS 0 0 0 30 0.15 21
$PAD
Sh "1" R 4 8 0 0 0
Dr 0 0 0
At SMD N 00888000
Ne 0 ""
Po 6.25 -7
$EndPAD
$PAD
Sh "2" R 4 8 0 0 0
Dr 0 0 0
At SMD N 00888000
Ne 0 ""
Po 14.25 -7
$EndPAD
$EndMODULE MESH_BATTERY
$MODULE TAG_CONNECT_MINIA
Po 0 0 0 15 534DAF1D 00000000 ~~
Li TAG_CONNECT_MINIA
Sc 0
AR 
Op 0 0 0
T0 0 -8.89 1 1 0 0.15 N V 21 N "TAG_CONNECT_MINIA"
T1 0 -6.35 1 1 0 0.15 N V 21 N "VAL**"
DS 2.54 -0.635 2.54 1.905 0.15 21
DS 2.54 1.905 -1.905 1.905 0.15 21
DS -1.905 1.905 -2.54 1.27 0.15 21
DS 2.54 -0.635 -1.905 -0.635 0.15 21
DS -1.905 -0.635 -2.54 0 0.15 21
$PAD
Sh "1" C 0.762 0.762 0 0 0
Dr 0 0 0
At SMD N 00808000
Ne 0 ""
Po -1.27 1.27
$EndPAD
$PAD
Sh "2" C 0.762 0.762 0 0 0
Dr 0 0 0
At SMD N 00808000
Ne 0 ""
Po -1.27 0
$EndPAD
$PAD
Sh "3" C 0.762 0.762 0 0 0
Dr 0 0 0
At SMD N 00808000
Ne 0 ""
Po 0 1.27
$EndPAD
$PAD
Sh "4" C 0.762 0.762 0 0 0
Dr 0 0 0
At SMD N 00808000
Ne 0 ""
Po 0 0
$EndPAD
$PAD
Sh "5" C 0.762 0.762 0 0 0
Dr 0 0 0
At SMD N 00808000
Ne 0 ""
Po 1.27 1.27
$EndPAD
$PAD
Sh "" C 0.9 0.9 0 0 0
Dr 0.9 0 0
At HOLE N 00E0FFFF
Ne 0 ""
Po -2.54 0.635
$EndPAD
$PAD
Sh "" C 0.9 0.9 0 0 0
Dr 0.9 0 0
At HOLE N 00E0FFFF
Ne 0 ""
Po 2.54 1.905
$EndPAD
$PAD
Sh "" C 0.9 0.9 0 0 0
Dr 0.9 0 0
At HOLE N 00E0FFFF
Ne 0 ""
Po 2.54 -0.635
$EndPAD
$EndMODULE TAG_CONNECT_MINIA
$EndLIBRARY
